<svg width="657" height="144" viewBox="0 0 657 144" fill="none" xmlns="http://www.w3.org/2000/svg">
<path fill-rule="evenodd" clip-rule="evenodd" d="M637.22 142.446H19.8973C9.504 142.446 1 133.942 1 123.548V20.2411C1 9.84731 9.504 1.34375 19.8973 1.34375H637.22C647.614 1.34375 656.118 9.84731 656.118 20.2411V123.548C656.118 133.942 647.614 142.446 637.22 142.446Z" fill="#FEFEFE"/>
<path fill-rule="evenodd" clip-rule="evenodd" d="M637.22 142.446H19.8973C9.504 142.446 1 133.942 1 123.548V20.2411C1 9.84731 9.504 1.34375 19.8973 1.34375H637.22C647.614 1.34375 656.118 9.84731 656.118 20.2411V123.548C656.118 133.942 647.614 142.446 637.22 142.446Z" stroke="#020303"/>
<path fill-rule="evenodd" clip-rule="evenodd" d="M326.98 55.0778L326.83 56.5201L326.491 57.9245L326.039 59.329L325.436 60.6574L324.721 61.9098L323.855 63.0867L322.913 64.1872L321.859 65.1743L320.691 66.0472L319.448 66.8063L318.168 67.4516L316.812 67.945L315.38 68.2867L313.95 68.5138L312.518 68.5898L311.125 68.5138L309.732 68.3245L308.376 67.9827L307.057 67.4894L305.777 66.9201L304.572 66.1987L303.442 65.3641L302.388 64.4152L301.408 63.3903L300.58 62.2516L299.827 61.037L299.224 59.7845L298.696 58.4561L298.358 57.0894L298.132 55.685L298.019 54.281L298.056 52.8765L298.207 51.4725L298.508 50.1054L298.96 48.7392L299.525 47.449L300.203 46.1965L300.994 45.0578L301.936 43.9574L302.915 42.9703L304.007 42.0974L305.212 41.3383L306.455 40.693L307.736 40.1614L309.091 39.7441L310.485 39.4783L311.878 39.3267L313.309 39.3645L314.74 39.5161L316.172 39.7818L317.527 40.2374L318.883 40.8067L320.126 41.4898L321.331 42.325L322.424 43.2738L323.44 44.2987L324.344 45.4374L325.097 46.6898L325.775 47.9801L326.303 49.3463L326.679 50.7512L326.943 52.1556L327.018 53.6356L326.98 55.0778ZM341.869 51.9636L341.689 49.8925L341.331 47.8938L340.864 45.8956L340.255 43.9334L339.501 42.0441L338.64 40.1907L337.636 38.4103L336.524 36.7023L335.305 35.0672L333.978 33.541L332.543 32.0872L331.037 30.7427L329.423 29.5076L327.701 28.3814L325.944 27.3641L324.115 26.4916L322.249 25.765L320.313 25.1472L318.34 24.6387L316.367 24.3112L314.359 24.0934L312.314 24.0205L310.306 24.0934L308.297 24.3112L306.324 24.6747L304.352 25.1472L302.415 25.801L300.55 26.5281L298.721 27.4365L296.963 28.4174L295.277 29.5441L293.664 30.7792L292.157 32.1605L290.722 33.6138L289.395 35.1401L288.176 36.7747L287.064 38.4827L286.096 40.2996L285.235 42.1165L284.481 44.0423L283.872 46.0045L283.406 48.0032L283.083 50.0014L282.868 52.0365L282.796 54.1076L282.868 56.1427L283.083 58.1774L283.441 60.1761L283.944 62.1747L284.553 64.137L285.306 66.0263L286.167 67.8796L287.172 69.6601L288.284 71.3676L289.503 73.0027L290.83 74.5294L292.264 75.9827L293.807 77.3272L295.421 78.5263L297.107 79.6525L298.9 80.6698L300.729 81.5423L302.594 82.269L304.531 82.8863L306.504 83.3592L308.476 83.6858L310.485 83.9041L312.529 83.9401L314.538 83.8676L316.547 83.6494L317.048 83.6134L317.551 83.7223L318.017 83.8676L318.448 84.1223L318.806 84.449L319.093 84.885L319.308 85.3214L319.452 85.7934L319.488 86.3023L319.416 86.8107L319.272 87.2832L317.802 90.4809L316.188 93.5694L314.466 96.6223L312.601 99.6018L310.628 102.473L308.548 105.27L306.324 107.959L303.993 110.575L301.554 113.083L301.088 113.664L300.693 114.318L300.478 115.081L300.406 115.845L300.478 116.607L300.693 117.334L301.052 118.025L301.518 118.605L302.092 119.115L302.774 119.478L303.491 119.696L304.244 119.769H315.291L316.116 119.696L316.905 119.405L317.623 119.006L318.232 118.424L320.564 115.59L322.788 112.646L324.904 109.667L326.912 106.578L328.813 103.417L330.571 100.183L332.22 96.8765L333.763 93.533L335.161 90.1178L336.452 86.6294L337.6 83.141L338.605 79.5801L339.501 75.9827L340.255 72.385L340.864 68.7152L341.331 65.0814L341.689 61.3752L341.869 57.705L341.94 53.9987L341.869 51.9636Z" fill="#FEFEFE"/>
<path fill-rule="evenodd" clip-rule="evenodd" d="M435.85 91.3044L436 89.8622L436.34 88.4577L436.792 87.0537L437.394 85.7248L438.109 84.4724L438.976 83.2955L439.917 82.1951L440.972 81.2079L442.139 80.3351L443.382 79.5759L444.663 78.9306L446.018 78.4373L447.45 78.0959L448.88 77.8684L450.312 77.7924L451.705 77.8684L453.099 78.0577L454.455 78.3995L455.773 78.8928L457.053 79.4622L458.258 80.1835L459.388 81.0182L460.443 81.9671L461.422 82.9919L462.251 84.1306L463.004 85.3453L463.606 86.5977L464.134 87.9262L464.472 89.2928L464.699 90.6973L464.812 92.1013L464.774 93.5057L464.623 94.9097L464.322 96.2768L463.87 97.6431L463.305 98.9333L462.627 100.186L461.836 101.324L460.895 102.425L459.916 103.412L458.823 104.285L457.618 105.044L456.376 105.689L455.095 106.221L453.739 106.638L452.346 106.904L450.952 107.056L449.521 107.018L448.09 106.866L446.659 106.6L445.303 106.145L443.947 105.576L442.704 104.892L441.499 104.057L440.407 103.108L439.39 102.084L438.486 100.945L437.733 99.6924L437.055 98.4022L436.528 97.0359L436.151 95.6311L435.888 94.2266L435.812 92.7466L435.85 91.3044ZM420.961 94.4186L421.141 96.4897L421.5 98.4884L421.966 100.487L422.576 102.449L423.329 104.339L424.19 106.192L425.194 107.972L426.306 109.68L427.525 111.315L428.852 112.841L430.287 114.295L431.793 115.64L433.408 116.875L435.129 118.001L436.887 119.019L438.716 119.891L440.581 120.617L442.518 121.236L444.49 121.744L446.463 122.071L448.472 122.289L450.516 122.362L452.524 122.289L454.533 122.071L456.506 121.708L458.479 121.236L460.415 120.581L462.28 119.854L464.109 118.946L465.867 117.965L467.553 116.838L469.167 115.603L470.673 114.222L472.108 112.769L473.435 111.242L474.655 109.608L475.767 107.9L476.735 106.083L477.596 104.266L478.349 102.34L478.959 100.378L479.425 98.3791L479.748 96.3808L479.963 94.3457L480.035 92.2746L479.963 90.2395L479.748 88.2048L479.389 86.2062L478.887 84.2075L478.277 82.2457L477.524 80.3559L476.663 78.5026L475.659 76.7222L474.547 75.0146L473.328 73.3795L472 71.8528L470.566 70.3999L469.024 69.0551L467.409 67.8559L465.724 66.7297L463.93 65.7124L462.101 64.8399L460.236 64.1133L458.299 63.4959L456.327 63.0231L454.354 62.6964L452.345 62.4786L450.301 62.4422L448.292 62.5146L446.284 62.7328L445.782 62.7688L445.28 62.6599L444.813 62.5146L444.383 62.2599L444.024 61.9333L443.737 61.4973L443.522 61.0613L443.378 60.5888L443.343 60.0799L443.414 59.5715L443.558 59.0991L445.028 55.9013L446.642 52.8128L448.364 49.7599L450.229 46.7804L452.202 43.9097L454.282 41.1119L456.506 38.4235L458.837 35.8071L461.276 33.2995L461.742 32.7186L462.137 32.0639L462.352 31.3013L462.424 30.5377L462.352 29.7751L462.137 29.0484L461.778 28.3577L461.312 27.7768L460.738 27.2679L460.056 26.9044L459.34 26.6862L458.586 26.6133H447.539L446.714 26.6862L445.925 26.9773L445.208 27.3768L444.598 27.9582L442.267 30.7924L440.043 33.7359L437.927 36.7155L435.918 39.8039L434.017 42.9653L432.26 46.1995L430.61 49.5057L429.068 52.8493L427.669 56.2644L426.378 59.7533L425.23 63.2413L424.225 66.8022L423.329 70.3999L422.576 73.9973L421.966 77.6671L421.5 81.3008L421.141 85.0071L420.961 88.6773L420.89 92.3839L420.961 94.4186Z" fill="#FEFEFE"/>
<path fill-rule="evenodd" clip-rule="evenodd" d="M409.445 27.5529L409.227 26.8263L408.864 26.136L408.391 25.5543L407.773 25.0454L407.12 24.7187L406.393 24.4645L405.63 24.3916H356.756L355.993 24.4645L355.267 24.7187L354.612 25.0454L353.995 25.5543L353.522 26.136L353.159 26.8263L352.941 27.5529L352.868 28.316V36.4556L352.941 37.2187L353.159 37.9454L353.522 38.636L353.995 39.2169L354.612 39.6898L355.267 40.0529L355.993 40.2707L356.756 40.3436H388.624L389.132 40.416L389.605 40.5618L390.041 40.7796L390.441 41.1067L390.768 41.4698L391.022 41.9063L391.168 42.3783L391.24 42.8872L391.204 43.3592L391.095 43.8685L365.223 114.907L365.041 115.634L364.968 116.36L365.077 117.124L365.332 117.814L365.695 118.468L366.168 119.049L366.749 119.522L367.44 119.849L368.13 120.067L368.893 120.14H377.541L378.34 120.067L379.104 119.812L379.794 119.449L380.412 118.904L380.884 118.286L381.211 117.56L409.3 40.4885L409.481 39.7987L409.518 39.1445V28.316L409.445 27.5529Z" fill="#FEFEFE"/>
<path fill-rule="evenodd" clip-rule="evenodd" d="M560.899 20.7962L560.732 20.242L560.455 19.7145L560.094 19.2709L559.623 18.8829L559.124 18.6336L558.569 18.4389L557.987 18.3838H520.689L520.106 18.4389L519.552 18.6336L519.053 18.8829L518.581 19.2709L518.221 19.7145L517.943 20.242L517.777 20.7962L517.722 21.3789V27.5905L517.777 28.1731L517.943 28.7273L518.221 29.254L518.581 29.698L519.053 30.0585L519.552 30.3358L520.106 30.5025L520.689 30.5576H545.009L545.397 30.6131L545.758 30.7242L546.09 30.8905L546.395 31.1398L546.645 31.4171L546.839 31.75L546.95 32.1105L547.005 32.4989L546.978 32.8593L546.895 33.2478L527.15 87.4616L527.011 88.0158L526.956 88.5705L527.039 89.1531L527.233 89.6798L527.511 90.1789L527.871 90.6225L528.315 90.9833L528.842 91.2327L529.368 91.3989L529.951 91.4545H536.551L537.161 91.3989L537.743 91.2051L538.27 90.9278L538.741 90.5118L539.102 90.0407L539.352 89.486L560.787 30.6687L560.926 30.1416L560.954 29.6425V21.3789L560.899 20.7962Z" fill="#FEFEFE"/>
<path fill-rule="evenodd" clip-rule="evenodd" d="M196.682 49.493L196.501 48.933L196.2 48.4015L195.779 47.9535L195.297 47.5899L194.755 47.3099L194.153 47.1419L193.521 47.0859H185.754L185.062 47.1419L184.43 47.3379L183.827 47.6735L183.316 48.1215L182.924 48.653L168.655 73.1406L168.444 73.4486L168.143 73.7286L167.782 73.9522L167.421 74.0926L166.999 74.1486H166.578L166.157 74.0926L165.795 73.9522L165.434 73.7286L165.133 73.4486L164.922 73.1406L150.653 48.653L150.262 48.1215L149.75 47.6735L149.148 47.3379L148.516 47.1419L147.823 47.0859H140.057L139.424 47.1419L138.822 47.3099L138.28 47.5899L137.799 47.9535L137.377 48.4015L137.076 48.933L136.895 49.493L136.835 50.0526V117.162L136.895 117.75L137.076 118.31L137.377 118.813L137.799 119.289L138.28 119.653L138.822 119.933L139.424 120.101L140.057 120.157H146.739L147.372 120.101L147.974 119.933L148.516 119.653L148.997 119.289L149.419 118.813L149.69 118.31L149.87 117.75L149.93 117.162V80.865L149.991 80.473L150.111 80.081L150.322 79.7175L150.623 79.4099L150.954 79.1859L151.346 78.9899L151.767 78.9059L152.218 78.8779L152.64 78.9339L153.031 79.0739L153.423 79.2979L153.724 79.5775L153.964 79.913L163.959 97.0966L164.32 97.5726L164.772 97.9642L165.284 98.2997L165.855 98.5237L166.487 98.6357H167.09L167.722 98.5237L168.294 98.2997L168.806 97.9642L169.257 97.5726L169.618 97.0966L179.613 79.913L179.854 79.5775L180.185 79.2979L180.546 79.0739L180.938 78.9339L181.359 78.8779L181.81 78.9059L182.232 78.9899L182.623 79.1859L182.954 79.4099L183.256 79.7175L183.466 80.081L183.587 80.473L183.647 80.865V117.162L183.707 117.75L183.888 118.31L184.158 118.813L184.58 119.289L185.062 119.653L185.604 119.933L186.206 120.101L186.838 120.157H193.521L194.153 120.101L194.755 119.933L195.297 119.653L195.779 119.289L196.2 118.813L196.501 118.31L196.682 117.75L196.742 117.162V50.0526L196.682 49.493Z" fill="#FEFEFE"/>
<path fill-rule="evenodd" clip-rule="evenodd" d="M196.682 49.493L196.501 48.933L196.2 48.4015L195.779 47.9535L195.297 47.5899L194.755 47.3099L194.153 47.1419L193.521 47.0859H185.754L185.062 47.1419L184.43 47.3379L183.827 47.6735L183.316 48.1215L182.924 48.653L168.655 73.1406L168.444 73.4486L168.143 73.7286L167.782 73.9522L167.421 74.0926L166.999 74.1486H166.578L166.157 74.0926L165.795 73.9522L165.434 73.7286L165.133 73.4486L164.922 73.1406L150.653 48.653L150.262 48.1215L149.75 47.6735L149.148 47.3379L148.516 47.1419L147.823 47.0859H140.057L139.424 47.1419L138.822 47.3099L138.28 47.5899L137.799 47.9535L137.377 48.4015L137.076 48.933L136.895 49.493L136.835 50.0526V117.162L136.895 117.75L137.076 118.31L137.377 118.813L137.799 119.289L138.28 119.653L138.822 119.933L139.424 120.101L140.057 120.157H146.739L147.372 120.101L147.974 119.933L148.516 119.653L148.997 119.289L149.419 118.813L149.69 118.31L149.87 117.75L149.93 117.162V80.865L149.991 80.473L150.111 80.081L150.322 79.7175L150.623 79.4099L150.954 79.1859L151.346 78.9899L151.767 78.9059L152.218 78.8779L152.64 78.9339L153.031 79.0739L153.423 79.2979L153.724 79.5775L153.964 79.913L163.959 97.0966L164.32 97.5726L164.772 97.9642L165.284 98.2997L165.855 98.5237L166.487 98.6357H167.09L167.722 98.5237L168.294 98.2997L168.806 97.9642L169.257 97.5726L169.618 97.0966L179.613 79.913L179.854 79.5775L180.185 79.2979L180.546 79.0739L180.938 78.9339L181.359 78.8779L181.81 78.9059L182.232 78.9899L182.623 79.1859L182.954 79.4099L183.256 79.7175L183.466 80.081L183.587 80.473L183.647 80.865V117.162L183.707 117.75L183.888 118.31L184.158 118.813L184.58 119.289L185.062 119.653L185.604 119.933L186.206 120.101L186.838 120.157H193.521L194.153 120.101L194.755 119.933L195.297 119.653L195.779 119.289L196.2 118.813L196.501 118.31L196.682 117.75L196.742 117.162V50.0526L196.682 49.493Z" stroke="#FEFEFE" stroke-width="1.088" stroke-linecap="round" stroke-linejoin="round"/>
<path fill-rule="evenodd" clip-rule="evenodd" d="M265.702 49.493L265.521 48.933L265.22 48.4015L264.798 47.9535L264.317 47.5899L263.775 47.3099L263.173 47.1419L262.541 47.0859H254.774L254.081 47.1419L253.449 47.3379L252.847 47.6735L252.335 48.1215L251.944 48.653L237.675 73.1406L237.464 73.4486L237.163 73.7286L236.802 73.9522L236.441 74.0926L236.019 74.1486H235.598L235.176 74.0926L234.815 73.9522L234.454 73.7286L234.153 73.4486L233.942 73.1406L219.673 48.653L219.282 48.1215L218.77 47.6735L218.167 47.3379L217.535 47.1419L216.843 47.0859H209.076L208.444 47.1419L207.842 47.3099L207.3 47.5899L206.818 47.9535L206.397 48.4015L206.096 48.933L205.915 49.493L205.855 50.0526V117.162L205.915 117.75L206.096 118.31L206.397 118.813L206.818 119.289L207.3 119.653L207.842 119.933L208.444 120.101L209.076 120.157H215.759L216.391 120.101L216.994 119.933L217.535 119.653L218.017 119.289L218.438 118.813L218.71 118.31L218.89 117.75L218.95 117.162V80.865L219.01 80.473L219.131 80.081L219.342 79.7175L219.643 79.4099L219.974 79.1859L220.365 78.9899L220.786 78.9059L221.238 78.8779L221.66 78.9339L222.051 79.0739L222.442 79.2979L222.743 79.5775L222.984 79.913L232.979 97.0966L233.34 97.5726L233.791 97.9642L234.303 98.2997L234.875 98.5237L235.507 98.6357H236.11L236.742 98.5237L237.314 98.2997L237.826 97.9642L238.277 97.5726L238.638 97.0966L248.633 79.913L248.874 79.5775L249.205 79.2979L249.566 79.0739L249.957 78.9339L250.378 78.8779L250.83 78.9059L251.252 78.9899L251.643 79.1859L251.974 79.4099L252.275 79.7175L252.486 80.081L252.606 80.473L252.666 80.865V117.162L252.727 117.75L252.907 118.31L253.178 118.813L253.6 119.289L254.081 119.653L254.623 119.933L255.226 120.101L255.858 120.157H262.541L263.173 120.101L263.775 119.933L264.317 119.653L264.798 119.289L265.22 118.813L265.521 118.31L265.702 117.75L265.762 117.162V50.0526L265.702 49.493Z" fill="#FEFEFE"/>
<path fill-rule="evenodd" clip-rule="evenodd" d="M265.702 49.493L265.521 48.933L265.22 48.4015L264.798 47.9535L264.317 47.5899L263.775 47.3099L263.173 47.1419L262.541 47.0859H254.774L254.081 47.1419L253.449 47.3379L252.847 47.6735L252.335 48.1215L251.944 48.653L237.675 73.1406L237.464 73.4486L237.163 73.7286L236.802 73.9522L236.441 74.0926L236.019 74.1486H235.598L235.176 74.0926L234.815 73.9522L234.454 73.7286L234.153 73.4486L233.942 73.1406L219.673 48.653L219.282 48.1215L218.77 47.6735L218.167 47.3379L217.535 47.1419L216.843 47.0859H209.076L208.444 47.1419L207.842 47.3099L207.3 47.5899L206.818 47.9535L206.397 48.4015L206.096 48.933L205.915 49.493L205.855 50.0526V117.162L205.915 117.75L206.096 118.31L206.397 118.813L206.818 119.289L207.3 119.653L207.842 119.933L208.444 120.101L209.076 120.157H215.759L216.391 120.101L216.994 119.933L217.535 119.653L218.017 119.289L218.438 118.813L218.71 118.31L218.89 117.75L218.95 117.162V80.865L219.01 80.473L219.131 80.081L219.342 79.7175L219.643 79.4099L219.974 79.1859L220.365 78.9899L220.786 78.9059L221.238 78.8779L221.66 78.9339L222.051 79.0739L222.442 79.2979L222.743 79.5775L222.984 79.913L232.979 97.0966L233.34 97.5726L233.791 97.9642L234.303 98.2997L234.875 98.5237L235.507 98.6357H236.11L236.742 98.5237L237.314 98.2997L237.826 97.9642L238.277 97.5726L238.638 97.0966L248.633 79.913L248.874 79.5775L249.205 79.2979L249.566 79.0739L249.957 78.9339L250.378 78.8779L250.83 78.9059L251.252 78.9899L251.643 79.1859L251.974 79.4099L252.275 79.7175L252.486 80.081L252.606 80.473L252.666 80.865V117.162L252.727 117.75L252.907 118.31L253.178 118.813L253.6 119.289L254.081 119.653L254.623 119.933L255.226 120.101L255.858 120.157H262.541L263.173 120.101L263.775 119.933L264.317 119.653L264.798 119.289L265.22 118.813L265.521 118.31L265.702 117.75L265.762 117.162V50.0526L265.702 49.493Z" stroke="#FEFEFE" stroke-width="1.088" stroke-linecap="round" stroke-linejoin="round"/>
<path fill-rule="evenodd" clip-rule="evenodd" d="M518.675 103.649H514.121V110.347H518.542C519.728 110.347 520.725 110.245 521.534 110.04C522.343 109.835 522.961 109.486 523.387 108.993C523.814 108.5 524.027 107.821 524.027 106.957C524.027 106.281 523.855 105.685 523.512 105.17C523.168 104.655 522.692 104.27 522.083 104.015C521.506 103.771 520.37 103.649 518.675 103.649ZM515.85 113.888H514.121V121.715C514.121 122.746 513.894 123.505 513.44 123.993C512.986 124.48 512.393 124.724 511.662 124.724C510.874 124.724 510.266 124.469 509.833 123.96C509.401 123.45 509.185 122.702 509.185 121.715V102.968C509.185 101.904 509.423 101.134 509.9 100.658C510.376 100.181 511.146 99.9424 512.21 99.9424H520.238C521.346 99.9424 522.293 99.9904 523.08 100.084C523.866 100.178 524.575 100.369 525.207 100.658C525.972 100.979 526.647 101.438 527.235 102.037C527.822 102.635 528.268 103.331 528.573 104.122C528.878 104.916 529.03 105.754 529.03 106.641C529.03 108.458 528.518 109.909 527.492 110.995C526.467 112.082 524.914 112.852 522.83 113.306C523.706 113.771 524.542 114.458 525.341 115.366C526.138 116.275 526.85 117.242 527.476 118.267C528.102 119.292 528.59 120.217 528.939 121.042C529.287 121.868 529.462 122.436 529.462 122.746C529.462 123.067 529.36 123.386 529.154 123.701C528.95 124.017 528.67 124.267 528.315 124.45C527.961 124.633 527.551 124.724 527.085 124.724C526.531 124.724 526.066 124.594 525.689 124.333C525.313 124.073 524.988 123.743 524.717 123.344C524.445 122.945 524.077 122.359 523.612 121.583L521.634 118.292C520.925 117.085 520.29 116.164 519.731 115.533C519.171 114.901 518.603 114.469 518.027 114.236C517.451 114.004 516.725 113.888 515.85 113.888Z" fill="#1D1D1B"/>
<path d="M514.121 103.649V103.122C513.83 103.122 513.594 103.358 513.594 103.649H514.121ZM514.121 110.347H513.594C513.594 110.638 513.83 110.874 514.121 110.874V110.347ZM521.534 110.04L521.405 109.528L521.404 109.528L521.534 110.04ZM523.387 108.993L522.989 108.647L522.988 108.648L523.387 108.993ZM523.512 105.17L523.951 104.878L523.951 104.877L523.512 105.17ZM522.083 104.015L521.878 104.501L521.879 104.501L522.083 104.015ZM514.121 113.888V113.36C513.83 113.36 513.594 113.596 513.594 113.888H514.121ZM513.44 123.993L513.826 124.352L513.826 124.352L513.44 123.993ZM509.833 123.96L509.431 124.301L509.431 124.301L509.833 123.96ZM509.9 100.658L510.273 101.031L510.273 101.031L509.9 100.658ZM523.08 100.084L523.143 99.5604L523.143 99.5604L523.08 100.084ZM525.207 100.658L524.988 101.138C524.993 101.14 524.998 101.142 525.003 101.144L525.207 100.658ZM527.235 102.037L527.611 101.668L527.611 101.668L527.235 102.037ZM528.573 104.122L529.065 103.933L529.065 103.933L528.573 104.122ZM527.492 110.995L527.109 110.633L527.108 110.633L527.492 110.995ZM522.83 113.306L522.718 112.791C522.502 112.838 522.338 113.015 522.308 113.234C522.278 113.453 522.387 113.668 522.583 113.772L522.83 113.306ZM525.341 115.366L525.737 115.018L525.737 115.018L525.341 115.366ZM527.476 118.267L527.926 117.992L527.926 117.992L527.476 118.267ZM528.939 121.042L529.425 120.837L529.425 120.837L528.939 121.042ZM529.154 123.701L528.712 123.414L528.712 123.415L529.154 123.701ZM528.315 124.45L528.557 124.919L528.558 124.919L528.315 124.45ZM524.717 123.344L525.153 123.047L525.153 123.047L524.717 123.344ZM523.612 121.583L524.064 121.312L524.064 121.311L523.612 121.583ZM521.634 118.292L521.179 118.559L521.182 118.563L521.634 118.292ZM519.731 115.533L520.126 115.183L520.126 115.183L519.731 115.533ZM518.027 114.236L518.225 113.747L518.225 113.747L518.027 114.236ZM518.675 103.122H514.121V104.177H518.675V103.122ZM513.594 103.649V110.347H514.649V103.649H513.594ZM514.121 110.874H518.542V109.819H514.121V110.874ZM518.542 110.874C519.755 110.874 520.799 110.771 521.664 110.551L521.404 109.528C520.652 109.719 519.701 109.819 518.542 109.819V110.874ZM521.663 110.551C522.548 110.328 523.272 109.933 523.786 109.338L522.988 108.648C522.65 109.039 522.138 109.343 521.405 109.528L521.663 110.551ZM523.786 109.338C524.32 108.722 524.555 107.906 524.555 106.957H523.5C523.5 107.736 523.308 108.278 522.989 108.647L523.786 109.338ZM524.555 106.957C524.555 106.187 524.357 105.487 523.951 104.878L523.073 105.462C523.353 105.883 523.5 106.376 523.5 106.957H524.555ZM523.951 104.877C523.546 104.27 522.985 103.821 522.287 103.528L521.879 104.501C522.399 104.719 522.791 105.04 523.073 105.463L523.951 104.877ZM522.288 103.529C521.928 103.377 521.439 103.279 520.855 103.216C520.262 103.153 519.534 103.122 518.675 103.122V104.177C519.512 104.177 520.2 104.207 520.742 104.265C521.294 104.324 521.661 104.409 521.878 104.501L522.288 103.529ZM515.85 113.36H514.121V114.415H515.85V113.36ZM513.594 113.888V121.715H514.649V113.888H513.594ZM513.594 121.715C513.594 122.684 513.378 123.285 513.054 123.633L513.826 124.352C514.41 123.726 514.649 122.809 514.649 121.715H513.594ZM513.054 123.633C512.71 124.003 512.262 124.197 511.662 124.197V125.252C512.523 125.252 513.261 124.958 513.826 124.352L513.054 123.633ZM511.662 124.197C510.999 124.197 510.549 123.989 510.235 123.618L509.431 124.301C509.982 124.95 510.75 125.252 511.662 125.252V124.197ZM510.235 123.619C509.915 123.241 509.713 122.635 509.713 121.715H508.658C508.658 122.769 508.887 123.66 509.431 124.301L510.235 123.619ZM509.713 121.715V102.968H508.658V121.715H509.713ZM509.713 102.968C509.713 101.965 509.939 101.364 510.273 101.031L509.527 100.285C508.907 100.904 508.658 101.842 508.658 102.968H509.713ZM510.273 101.031C510.606 100.697 511.208 100.47 512.21 100.47V99.4149C511.084 99.4149 510.146 99.6649 509.526 100.285L510.273 101.031ZM512.21 100.47H520.238V99.4149H512.21V100.47ZM520.238 100.47C521.332 100.47 522.257 100.517 523.018 100.608L523.143 99.5604C522.329 99.4634 521.359 99.4149 520.238 99.4149V100.47ZM523.018 100.608C523.757 100.696 524.412 100.875 524.988 101.138L525.426 100.178C524.739 99.8642 523.976 99.6598 523.143 99.5604L523.018 100.608ZM525.003 101.144C525.702 101.438 526.319 101.857 526.858 102.407L527.611 101.668C526.975 101.019 526.241 100.52 525.411 100.172L525.003 101.144ZM526.858 102.407C527.394 102.953 527.801 103.587 528.08 104.312L529.065 103.933C528.735 103.075 528.25 102.318 527.611 101.668L526.858 102.407ZM528.08 104.312C528.361 105.042 528.502 105.816 528.502 106.641H529.557C529.557 105.693 529.394 104.79 529.065 103.933L528.08 104.312ZM528.502 106.641C528.502 108.355 528.022 109.666 527.109 110.633L527.876 111.357C529.013 110.153 529.557 108.562 529.557 106.641H528.502ZM527.108 110.633C526.182 111.616 524.74 112.35 522.718 112.791L522.943 113.821C525.088 113.354 526.753 112.548 527.876 111.357L527.108 110.633ZM522.583 113.772C523.391 114.201 524.179 114.844 524.944 115.715L525.737 115.018C524.906 114.072 524.02 113.341 523.078 112.84L522.583 113.772ZM524.944 115.714C525.722 116.601 526.416 117.543 527.026 118.542L527.926 117.992C527.284 116.941 526.555 115.95 525.737 115.018L524.944 115.714ZM527.026 118.542C527.642 119.551 528.117 120.453 528.453 121.248L529.425 120.837C529.062 119.981 528.561 119.032 527.926 117.992L527.026 118.542ZM528.453 121.247C528.623 121.651 528.747 121.982 528.827 122.243C528.91 122.514 528.935 122.672 528.935 122.746H529.99C529.99 122.51 529.927 122.23 529.835 121.933C529.741 121.625 529.603 121.259 529.425 120.837L528.453 121.247ZM528.935 122.746C528.935 122.949 528.872 123.169 528.712 123.414L529.597 123.989C529.848 123.603 529.99 123.186 529.99 122.746H528.935ZM528.712 123.415C528.56 123.649 528.351 123.838 528.073 123.981L528.558 124.919C528.988 124.696 529.339 124.386 529.597 123.988L528.712 123.415ZM528.074 123.981C527.805 124.119 527.481 124.197 527.085 124.197V125.252C527.621 125.252 528.116 125.146 528.557 124.919L528.074 123.981ZM527.085 124.197C526.616 124.197 526.26 124.087 525.989 123.9L525.389 124.767C525.871 125.101 526.447 125.252 527.085 125.252V124.197ZM525.989 123.9C525.669 123.678 525.39 123.396 525.153 123.047L524.28 123.641C524.587 124.091 524.956 124.468 525.389 124.767L525.989 123.9ZM525.153 123.047C524.89 122.661 524.528 122.085 524.064 121.312L523.159 121.854C523.626 122.633 524 123.23 524.281 123.641L525.153 123.047ZM524.064 121.311L522.086 118.02L521.182 118.563L523.16 121.855L524.064 121.311ZM522.089 118.024C521.372 116.805 520.718 115.851 520.126 115.183L519.336 115.882C519.863 116.477 520.477 117.364 521.179 118.559L522.089 118.024ZM520.126 115.183C519.53 114.511 518.898 114.019 518.225 113.747L517.829 114.725C518.308 114.919 518.812 115.291 519.336 115.883L520.126 115.183ZM518.225 113.747C517.565 113.481 516.767 113.36 515.85 113.36V114.415C516.683 114.415 517.336 114.526 517.83 114.725L518.225 113.747Z" fill="#1D1D1B"/>
<path fill-rule="evenodd" clip-rule="evenodd" d="M534.013 114.236V102.519C534.013 101.522 534.237 100.774 534.687 100.275C535.135 99.7767 535.725 99.5273 536.457 99.5273C537.221 99.5273 537.827 99.7767 538.276 100.275C538.725 100.774 538.949 101.522 538.949 102.519V114.502C538.949 115.865 539.102 117.004 539.407 117.918C539.711 118.832 540.251 119.542 541.027 120.045C541.803 120.55 542.889 120.802 544.285 120.802C546.213 120.802 547.576 120.289 548.374 119.264C549.171 118.24 549.57 116.686 549.57 114.602V102.519C549.57 101.511 549.792 100.76 550.235 100.266C550.678 99.774 551.271 99.5273 552.013 99.5273C552.756 99.5273 553.357 99.774 553.817 100.266C554.276 100.76 554.506 101.511 554.506 102.519V114.236C554.506 116.142 554.321 117.733 553.949 119.006C553.578 120.281 552.878 121.4 551.847 122.364C550.961 123.184 549.93 123.782 548.756 124.159C547.581 124.536 546.207 124.724 544.634 124.724C542.761 124.724 541.149 124.522 539.797 124.117C538.445 123.713 537.343 123.087 536.49 122.239C535.636 121.392 535.011 120.306 534.611 118.982C534.213 117.658 534.013 116.076 534.013 114.236Z" fill="#1D1D1B"/>
<path fill-rule="evenodd" clip-rule="evenodd" d="M534.013 114.236V102.519C534.013 101.522 534.237 100.774 534.687 100.275C535.135 99.7767 535.725 99.5273 536.457 99.5273C537.221 99.5273 537.827 99.7767 538.276 100.275C538.725 100.774 538.949 101.522 538.949 102.519V114.502C538.949 115.865 539.102 117.004 539.407 117.918C539.711 118.832 540.251 119.542 541.027 120.045C541.803 120.55 542.889 120.802 544.285 120.802C546.213 120.802 547.576 120.289 548.374 119.264C549.171 118.24 549.57 116.686 549.57 114.602V102.519C549.57 101.511 549.792 100.76 550.235 100.266C550.678 99.774 551.271 99.5273 552.013 99.5273C552.756 99.5273 553.357 99.774 553.817 100.266C554.276 100.76 554.506 101.511 554.506 102.519V114.236C554.506 116.142 554.321 117.733 553.949 119.006C553.578 120.281 552.878 121.4 551.847 122.364C550.961 123.184 549.93 123.782 548.756 124.159C547.581 124.536 546.207 124.724 544.634 124.724C542.761 124.724 541.149 124.522 539.797 124.117C538.445 123.713 537.343 123.087 536.49 122.239C535.636 121.392 535.011 120.306 534.611 118.982C534.213 117.658 534.013 116.076 534.013 114.236Z" stroke="#1D1D1B" stroke-width="1.055" stroke-linecap="round" stroke-linejoin="round"/>
<path fill-rule="evenodd" clip-rule="evenodd" d="M579.04 116.995C579.04 118.469 578.66 119.794 577.901 120.968C577.142 122.142 576.031 123.062 574.569 123.727C573.106 124.392 571.372 124.724 569.366 124.724C566.962 124.724 564.978 124.27 563.416 123.361C562.308 122.708 560.269 121.029 560.628 121.319C560.986 121.61 559.677 120.813 559.677 119.782C559.677 119.184 559.884 118.672 560.3 118.246C560.715 117.819 561.245 117.606 561.887 117.606C562.408 117.606 562.848 117.772 563.208 118.104C563.568 118.437 564.606 119.386 564.889 119.595C565.172 119.805 566.004 120.256 566.657 120.594C567.311 120.932 568.169 121.101 569.233 121.101C570.696 121.101 571.884 120.76 572.799 120.078C573.713 119.397 574.17 118.546 574.17 117.527C574.17 116.718 573.923 116.062 573.43 115.558C572.937 115.054 572.3 114.669 571.519 114.402C570.737 114.136 569.693 113.854 568.386 113.555C566.635 113.145 565.169 112.666 563.99 112.117C562.809 111.569 561.873 110.821 561.181 109.874C560.488 108.926 560.142 107.749 560.142 106.342C560.142 105.001 560.507 103.81 561.239 102.768C561.97 101.727 563.028 100.926 564.413 100.366C565.798 99.8069 567.428 99.5273 569.3 99.5273C570.796 99.5273 572.089 99.7127 573.181 100.084C574.272 100.455 576.297 101.257 577.296 102.137C578.295 103.018 578.42 103.946 578.42 104.589C578.42 105.176 578.213 105.705 577.797 106.176C577.381 106.647 576.864 106.882 576.243 106.882C575.678 106.882 575.248 106.741 574.955 106.458C574.661 106.176 573.529 104.699 571.959 103.807C571.102 103.336 570.341 103.034 568.967 103.034C567.693 103.034 566.665 103.314 565.885 103.874C565.103 104.433 564.713 105.106 564.713 105.893C564.713 106.38 564.845 106.802 565.112 107.156C565.377 107.51 565.743 107.815 566.209 108.07C566.674 108.325 567.145 108.525 567.621 108.669C568.097 108.813 568.884 109.023 569.981 109.3C571.355 109.622 572.599 109.976 573.713 110.364C574.826 110.752 575.773 111.223 576.555 111.777C577.336 112.331 577.945 113.031 578.383 113.879C578.82 114.727 579.04 115.765 579.04 116.995Z" fill="#1D1D1B"/>
<path fill-rule="evenodd" clip-rule="evenodd" d="M579.04 116.995C579.04 118.469 578.66 119.794 577.901 120.968C577.142 122.142 576.031 123.062 574.569 123.727C573.106 124.392 571.372 124.724 569.366 124.724C566.962 124.724 564.978 124.27 563.416 123.361C562.308 122.708 560.269 121.029 560.628 121.319C560.986 121.61 559.677 120.813 559.677 119.782C559.677 119.184 559.884 118.672 560.3 118.246C560.715 117.819 561.245 117.606 561.887 117.606C562.408 117.606 562.848 117.772 563.208 118.104C563.568 118.437 564.606 119.386 564.889 119.595C565.172 119.805 566.004 120.256 566.657 120.594C567.311 120.932 568.169 121.101 569.233 121.101C570.696 121.101 571.884 120.76 572.799 120.078C573.713 119.397 574.17 118.546 574.17 117.527C574.17 116.718 573.923 116.062 573.43 115.558C572.937 115.054 572.3 114.669 571.519 114.402C570.737 114.136 569.693 113.854 568.386 113.555C566.635 113.145 565.169 112.666 563.99 112.117C562.809 111.569 561.873 110.821 561.181 109.874C560.488 108.926 560.142 107.749 560.142 106.342C560.142 105.001 560.507 103.81 561.239 102.768C561.97 101.727 563.028 100.926 564.413 100.366C565.798 99.8069 567.428 99.5273 569.3 99.5273C570.796 99.5273 572.089 99.7127 573.181 100.084C574.272 100.455 576.297 101.257 577.296 102.137C578.295 103.018 578.42 103.946 578.42 104.589C578.42 105.176 578.213 105.705 577.797 106.176C577.381 106.647 576.864 106.882 576.243 106.882C575.678 106.882 575.248 106.741 574.955 106.458C574.661 106.176 573.529 104.699 571.959 103.807C571.102 103.336 570.341 103.034 568.967 103.034C567.693 103.034 566.665 103.314 565.885 103.874C565.103 104.433 564.713 105.106 564.713 105.893C564.713 106.38 564.845 106.802 565.112 107.156C565.377 107.51 565.743 107.815 566.209 108.07C566.674 108.325 567.145 108.525 567.621 108.669C568.097 108.813 568.884 109.023 569.981 109.3C571.355 109.622 572.599 109.976 573.713 110.364C574.826 110.752 575.773 111.223 576.555 111.777C577.336 112.331 577.945 113.031 578.383 113.879C578.82 114.727 579.04 115.765 579.04 116.995Z" stroke="#1D1D1B" stroke-width="1.055" stroke-linecap="round" stroke-linejoin="round"/>
<path fill-rule="evenodd" clip-rule="evenodd" d="M647.584 121.385C647.584 128.129 642.097 133.615 635.354 133.615H542.872H514.155C506.183 133.615 499.698 127.129 499.698 119.157V24.6325C499.698 16.6605 506.183 10.1747 514.155 10.1747H545.228H635.354C642.097 10.1747 647.584 15.6614 647.584 22.405V121.385ZM494.029 119.157C494.029 127.129 487.544 133.615 479.572 133.615H450.856H133.88C125.909 133.614 119.426 127.129 119.426 119.157V24.6325C119.426 16.6605 125.91 10.1747 133.882 10.1747H145.368H448.5H479.572C487.544 10.1747 494.029 16.6605 494.029 24.6325V119.157ZM9.53396 121.385V22.405C9.53396 15.6614 15.0202 10.1747 21.7637 10.1747H79.7464H99.2989C107.27 10.1747 113.756 16.6605 113.756 24.6325V119.157C113.756 127.129 107.272 133.614 99.3011 133.615H21.7637C15.0202 133.615 9.53396 128.129 9.53396 121.385ZM635.354 4.50586H21.7637C11.8944 4.50586 3.86462 12.5356 3.86462 22.405V121.385C3.86462 131.254 11.8944 139.284 21.7637 139.284H635.354C645.223 139.284 653.253 131.254 653.253 121.385V22.405C653.253 12.5356 645.223 4.50586 635.354 4.50586Z" fill="#020303"/>
<path fill-rule="evenodd" clip-rule="evenodd" d="M604.68 69.6305L604.541 70.6842L604.292 71.7105L603.931 72.6807L603.488 73.6238L602.933 74.5389L602.323 75.3709L601.602 76.1473L600.825 76.8682L599.994 77.478L599.106 78.0327L598.136 78.4767L597.165 78.8091L596.139 79.0865L595.113 79.2256L594.059 79.2811L593.005 79.2256L591.979 79.0865L590.953 78.8091L589.955 78.4767L589.012 78.0327L588.124 77.478L587.265 76.8682L586.488 76.1473L585.795 75.3709L585.185 74.5389L584.631 73.6238L584.187 72.6807L583.827 71.7105L583.577 70.6842L583.41 69.6305L583.383 68.6042L583.41 67.5505L583.577 66.4967L583.827 65.4985L584.187 64.5002L584.631 63.5576L585.185 62.67L585.795 61.8105L586.488 61.034L587.265 60.3407L588.124 59.7029L589.012 59.1762L589.955 58.7322L590.953 58.3718L591.979 58.122L593.005 57.9558L594.059 57.9002L595.113 57.9558L596.139 58.122L597.165 58.3718L598.136 58.7322L599.106 59.1762L599.994 59.7029L600.825 60.3407L601.602 61.034L602.323 61.8105L602.933 62.67L603.488 63.5576L603.931 64.5002L604.292 65.4985L604.541 66.4967L604.68 67.5505L604.736 68.6042L604.68 69.6305ZM585.906 37.9065L586.045 37.0745L586.267 36.2425L586.572 35.438L586.96 34.6616L587.431 33.9407L587.958 33.2753L588.568 32.6651L589.234 32.1385L589.955 31.6669L590.732 31.2789L591.536 30.9736L592.34 30.7518L593.199 30.6131L594.059 30.5576L594.919 30.6131L595.751 30.7518L596.583 30.9736L597.387 31.2789L598.163 31.6669L598.884 32.1385L599.55 32.6651L600.16 33.2753L600.687 33.9407L601.158 34.6616L601.546 35.438L601.852 36.2425L602.073 37.0745L602.212 37.9065L602.268 38.766L602.212 39.6256L602.073 40.4856L601.852 41.3171L601.546 42.1211L601.158 42.87L600.687 43.5909L600.16 44.2567L599.55 44.8665L598.884 45.394L598.163 45.8651L597.387 46.2531L596.583 46.586L595.751 46.8078L594.919 46.9189L594.059 46.974L593.199 46.9189L592.34 46.8078L591.536 46.586L590.732 46.2531L589.955 45.8651L589.234 45.394L588.568 44.8665L587.958 44.2567L587.431 43.5909L586.96 42.87L586.572 42.1211L586.267 41.3171L586.045 40.4856L585.906 39.6256L585.851 38.766L585.906 37.9065ZM616.882 67.1069L616.715 65.554L616.466 64.0287L616.105 62.5038L615.634 61.034L615.051 59.5642L614.413 58.15L613.637 56.7909L612.805 55.4878L611.862 54.2398L610.836 53.0753L610.615 52.77L610.448 52.4096L610.337 52.0491L610.309 51.6607L610.365 51.2727L610.476 50.9122L610.67 50.5793L611.474 49.3593L612.167 48.1113L612.777 46.8078L613.304 45.4767L613.72 44.0905L614.053 42.7038L614.275 41.262L614.413 39.8473L614.441 38.4056L614.358 36.9633L614.192 35.5491L613.914 34.1349L613.526 32.7487L613.055 31.3896L612.472 30.0585L611.835 28.7829L611.086 27.5629L610.254 26.398L609.339 25.2887L608.34 24.2349L607.287 23.2647L606.15 22.3771L604.957 21.5451L603.709 20.8242L602.434 20.1865L601.103 19.6593L599.744 19.1882L598.329 18.8553L596.915 18.6056L595.501 18.4393L594.059 18.3838L592.617 18.4393L591.203 18.6056L589.788 18.8553L588.374 19.1882L587.015 19.6593L585.684 20.1865L584.381 20.8242L583.161 21.5451L581.968 22.3771L580.832 23.2647L579.778 24.2349L578.779 25.2887L577.864 26.398L577.032 27.5629L576.284 28.7829L575.646 30.0585L575.063 31.3896L574.592 32.7487L574.204 34.1349L573.926 35.5491L573.76 36.9633L573.677 38.4056L573.704 39.8473L573.843 41.262L574.065 42.7038L574.398 44.0905L574.814 45.4767L575.34 46.8078L575.951 48.1113L576.644 49.3593L577.448 50.5793L577.642 50.9122L577.753 51.2727L577.809 51.6607L577.781 52.0491L577.67 52.4096L577.504 52.77L577.282 53.0753L576.256 54.2398L575.313 55.4878L574.481 56.7909L573.704 58.15L573.039 59.5642L572.484 61.034L572.013 62.5038L571.652 64.0287L571.403 65.554L571.236 67.1069L571.181 68.6598L571.264 70.2131L571.403 71.766L571.68 73.3189L572.068 74.8162L572.54 76.3136L573.095 77.7558L573.788 79.17L574.536 80.5287L575.396 81.8047L576.339 83.0522L577.365 84.2167L578.474 85.326L579.639 86.3522L580.887 87.2949L582.19 88.1549L583.549 88.9033L584.964 89.5687L586.405 90.1513L587.903 90.6225L589.428 90.9833L590.953 91.2607L592.506 91.3989L594.059 91.4545L595.612 91.3989L597.165 91.2607L598.69 90.9833L600.216 90.6225L601.713 90.1513L603.155 89.5687L604.569 88.9033L605.928 88.1549L607.231 87.2949L608.451 86.3522L609.644 85.326L610.753 84.2167L611.779 83.0522L612.722 81.8047L613.581 80.5287L614.33 79.17L614.996 77.7558L615.578 76.3136L616.05 74.8162L616.438 73.3189L616.688 71.766L616.854 70.2131L616.909 68.6598L616.882 67.1069Z" fill="#м"/>
<path fill-rule="evenodd" clip-rule="evenodd" d="M99.3171 115.295L99.134 114.561L98.8406 113.901L70.4935 64.7987L70.2735 64.3223L70.1637 63.8085L70.1269 63.2952L70.2371 62.7454L70.4571 62.2681L70.7504 61.8281L97.0802 30.4378L97.5202 29.8147L97.8135 29.1547L97.9602 28.421L97.9971 27.6876L97.8869 26.9538L97.6304 26.2574L97.2637 25.6343L96.7869 25.0836L96.2002 24.6072L95.5402 24.2774L94.8433 24.0938L94.11 24.0205H83.402L82.5584 24.0938L81.7517 24.3872L81.0184 24.8272L80.3949 25.4143L53.0015 58.0876L52.6349 58.4543L52.1584 58.7112L51.6815 58.8947L51.1682 59.005L50.618 58.9681L50.1046 58.8583L49.6277 58.601L49.2246 58.3076L48.858 57.9045L48.6011 57.4281L48.4544 56.9147L48.3811 56.401V27.9076L48.3077 27.1743L48.0877 26.4405L47.7575 25.7441L47.2442 25.157L46.6575 24.6805L45.9975 24.3138L45.2642 24.0938L44.494 24.0205H36.3531L35.5829 24.0938L34.8495 24.3138L34.1895 24.6805L33.6029 25.157L33.0891 25.7441L32.7229 26.4405L32.5024 27.1743L32.4291 27.9076V115.845L32.5024 116.615L32.7229 117.348L33.0891 118.008L33.6029 118.632L34.1895 119.109L34.8495 119.475L35.5829 119.695L36.3531 119.769H44.494L45.2642 119.695L45.9975 119.475L46.6575 119.109L47.2442 118.632L47.7575 118.008L48.0877 117.348L48.3077 116.615L48.3811 115.845V89.405L48.4544 88.965L48.5646 88.525L48.7477 88.0845L49.0046 87.7178L56.3753 78.9534L56.7055 78.6236L57.1455 78.3303L57.5855 78.1467L58.0989 78.037H58.5757L59.0891 78.1467L59.5291 78.3303L59.9691 78.5867L60.3357 78.917L60.6291 79.357L82.8153 117.788L83.2917 118.449L83.9153 118.998L84.6122 119.438L85.382 119.658L86.1886 119.769H95.43L96.1633 119.695L96.8971 119.475L97.5571 119.145L98.1437 118.669L98.6206 118.118L98.9873 117.458L99.2437 116.761L99.354 116.028L99.3171 115.295Z" fill="#1D1D1B"/>
<path fill-rule="evenodd" clip-rule="evenodd" d="M99.3171 115.295L99.134 114.561L98.8406 113.901L70.4935 64.7987L70.2735 64.3223L70.1637 63.8085L70.1269 63.2952L70.2371 62.7454L70.4571 62.2681L70.7504 61.8281L97.0802 30.4378L97.5202 29.8147L97.8135 29.1547L97.9602 28.421L97.9971 27.6876L97.8869 26.9538L97.6304 26.2574L97.2637 25.6343L96.7869 25.0836L96.2002 24.6072L95.5402 24.2774L94.8433 24.0938L94.11 24.0205H83.402L82.5584 24.0938L81.7517 24.3872L81.0184 24.8272L80.3949 25.4143L53.0015 58.0876L52.6349 58.4543L52.1584 58.7112L51.6815 58.8947L51.1682 59.005L50.618 58.9681L50.1046 58.8583L49.6277 58.601L49.2246 58.3076L48.858 57.9045L48.6011 57.4281L48.4544 56.9147L48.3811 56.401V27.9076L48.3077 27.1743L48.0877 26.4405L47.7575 25.7441L47.2442 25.157L46.6575 24.6805L45.9975 24.3138L45.2642 24.0938L44.494 24.0205H36.3531L35.5829 24.0938L34.8495 24.3138L34.1895 24.6805L33.6029 25.157L33.0891 25.7441L32.7229 26.4405L32.5024 27.1743L32.4291 27.9076V115.845L32.5024 116.615L32.7229 117.348L33.0891 118.008L33.6029 118.632L34.1895 119.109L34.8495 119.475L35.5829 119.695L36.3531 119.769H44.494L45.2642 119.695L45.9975 119.475L46.6575 119.109L47.2442 118.632L47.7575 118.008L48.0877 117.348L48.3077 116.615L48.3811 115.845V89.405L48.4544 88.965L48.5646 88.525L48.7477 88.0845L49.0046 87.7178L56.3753 78.9534L56.7055 78.6236L57.1455 78.3303L57.5855 78.1467L58.0989 78.037H58.5757L59.0891 78.1467L59.5291 78.3303L59.9691 78.5867L60.3357 78.917L60.6291 79.357L82.8153 117.788L83.2917 118.449L83.9153 118.998L84.6122 119.438L85.382 119.658L86.1886 119.769H95.43L96.1633 119.695L96.8971 119.475L97.5571 119.145L98.1437 118.669L98.6206 118.118L98.9873 117.458L99.2437 116.761L99.354 116.028L99.3171 115.295Z" stroke="#1D1D1B" stroke-linecap="round" stroke-linejoin="round"/>
<path fill-rule="evenodd" clip-rule="evenodd" d="M637.022 123.496V116.072H594.099V123.496C594.099 123.779 594.329 124.009 594.612 124.009H636.508C636.791 124.009 637.022 123.779 637.022 123.496Z" fill="#E10F17"/>
<path fill-rule="evenodd" clip-rule="evenodd" d="M594.099 116.073H637.021V108.137H594.099V116.073Z" fill="#076AB2"/>
<path fill-rule="evenodd" clip-rule="evenodd" d="M594.612 100.178C594.329 100.178 594.099 100.408 594.099 100.691V123.497C594.099 123.78 594.329 124.01 594.612 124.01H636.508C636.791 124.01 637.022 123.78 637.022 123.497V100.691C637.022 100.408 636.791 100.178 636.508 100.178H594.612ZM636.508 125.343H594.612C593.594 125.343 592.766 124.515 592.766 123.497V100.691C592.766 99.6732 593.594 98.8447 594.612 98.8447H636.508C637.526 98.8447 638.355 99.6732 638.355 100.691V123.497C638.355 124.515 637.526 125.343 636.508 125.343Z" fill="#1D1D1B"/>
</svg>
