<svg width="151" height="108" viewBox="0 0 151 108" fill="none" xmlns="http://www.w3.org/2000/svg">
<path fill-rule="evenodd" clip-rule="evenodd" d="M142.383 107.257H8.48508C4.20715 107.257 0.707031 103.757 0.707031 99.4794V8.1182C0.707031 3.84027 4.20715 0.340332 8.48508 0.340332H142.383C146.661 0.340332 150.161 3.84027 150.161 8.1182V99.4794C150.161 103.757 146.661 107.257 142.383 107.257Z" fill="#1D1D1B"/>
<path fill-rule="evenodd" clip-rule="evenodd" d="M8.48475 0.431706C4.24652 0.431706 0.798161 3.87988 0.798161 8.11829V99.4795C0.798161 103.718 4.24652 107.166 8.48475 107.166H142.383C146.621 107.166 150.069 103.718 150.069 99.4795V8.11829C150.069 3.87988 146.621 0.431706 142.383 0.431706H8.48475ZM142.383 107.349H8.48475C4.14554 107.349 0.615234 103.819 0.615234 99.4794V8.11829C0.615234 3.77908 4.14554 0.248779 8.48475 0.248779H142.383C146.722 0.248779 150.252 3.77908 150.252 8.11829V99.4794C150.252 103.819 146.722 107.349 142.383 107.349Z" fill="#020303"/>
<path fill-rule="evenodd" clip-rule="evenodd" d="M146.649 98.589C146.649 101.364 144.391 103.623 141.616 103.623H105.311H80.3901H66.1564H35.1185H9.25373C6.47818 103.623 4.22013 101.364 4.22013 98.589V9.00861C4.22013 6.23325 6.47818 3.97502 9.25373 3.97502H35.1185H66.1564H80.3901H105.311H141.616C144.391 3.97502 146.649 6.23325 146.649 9.00861V98.589ZM141.616 1.6416H80.3901H66.1564H9.25373C5.19166 1.6416 1.88672 4.94654 1.88672 9.00861V98.589C1.88672 102.651 5.19166 105.956 9.25373 105.956H66.1564H80.3901H141.616C145.678 105.956 148.983 102.651 148.983 98.589V9.00861C148.983 4.94654 145.678 1.6416 141.616 1.6416Z" fill="#FEFEFE"/>
<path fill-rule="evenodd" clip-rule="evenodd" d="M83.6535 94.9108H81.8242V64.4987C81.8242 61.4211 84.3281 58.9172 87.4057 58.9172H137.737V60.7465H87.4057C85.3366 60.7465 83.6535 62.4298 83.6535 64.4987V94.9108Z" fill="#FEFEFE"/>
<path fill-rule="evenodd" clip-rule="evenodd" d="M148.494 70.9039H146.665V63.4613C146.665 61.9644 145.447 60.7465 143.95 60.7465H134.844V58.9172H143.95C146.456 58.9172 148.494 60.9556 148.494 63.4613V70.9039Z" fill="#FEFEFE"/>
<path fill-rule="evenodd" clip-rule="evenodd" d="M143.95 60.7464H134.844V58.9172H143.95C145.447 58.9172 146.665 57.6992 146.665 56.202V30.1011H148.494V56.202C148.494 58.7077 146.456 60.7464 143.95 60.7464Z" fill="#FEFEFE"/>
<path fill-rule="evenodd" clip-rule="evenodd" d="M79.1084 105.464H71.666V103.635H79.1084C80.6056 103.635 81.8236 102.417 81.8236 100.92V91.8137H83.6528V100.92C83.6528 103.425 81.6141 105.464 79.1084 105.464Z" fill="#FEFEFE"/>
<path fill-rule="evenodd" clip-rule="evenodd" d="M93.8109 105.464H86.3685C83.8628 105.464 81.8242 103.425 81.8242 100.92V91.8137H83.6535V100.92C83.6535 102.417 84.8714 103.635 86.3685 103.635H93.8109V105.464Z" fill="#FEFEFE"/>
<path fill-rule="evenodd" clip-rule="evenodd" d="M44.8976 37.2062L44.8213 36.3825L44.6841 35.588L44.4705 34.7937L44.2264 34.0141L43.9061 33.2491L43.5247 32.5137L43.1128 31.8074L42.6247 31.1308L42.1059 30.4836L41.5416 29.8805L40.9162 29.3215L40.2602 28.7919L39.5737 28.3212L38.8568 27.8946L38.0942 27.5121L37.9111 27.4092L37.7585 27.2769L37.6211 27.1004L37.5297 26.9237L37.4839 26.7179L37.4688 26.5119L37.4991 26.3059L37.5754 26.1146L37.6974 25.9234L43.9061 17.9652L44.0892 17.6857L44.1959 17.3623L44.2416 17.0239V11.5223L44.2113 11.2132L44.1196 10.9192L43.967 10.6543L43.7536 10.4041L43.5095 10.2131L43.2196 10.066L42.9145 9.97751L42.5942 9.94824H23.4652L23.1447 9.97751L22.8244 10.066L22.5498 10.2131L22.3058 10.4041L22.0923 10.6543L21.9397 10.9192L21.8481 11.2132L21.8177 11.5223V14.8172L21.8481 15.1262L21.9397 15.4351L22.0923 15.7L22.3058 15.9501L22.5498 16.1412L22.8244 16.2883L23.1447 16.3767L23.4652 16.4059H35.3177L35.5314 16.4207L35.7449 16.4941L35.9431 16.5973L36.1111 16.7297L36.2483 16.8914L36.3397 17.0826L36.4008 17.2885L36.416 17.5092L36.3703 17.7151L36.3094 17.9211L36.1874 18.0976L30.3297 25.5998L30.0245 26.4824V31.4398L30.0549 31.7487L30.1466 32.0429L30.2991 32.3224L30.4974 32.5578L30.7566 32.749L31.0466 32.896L31.3517 32.9844L31.672 33.0137L31.9923 32.9844L32.5263 32.9109L33.0754 32.8812L33.6092 32.9109L34.1431 32.999L34.6771 33.1461L35.1805 33.3375L35.6686 33.5727L36.1111 33.8668L36.5382 34.2053L36.9194 34.5729L37.2551 34.9849L37.545 35.4263L37.7891 35.897L37.9874 36.3825L38.1245 36.8974L38.2008 37.4121L38.2162 37.9417L38.1856 38.4565L38.0942 38.9712L37.9568 39.4862L37.7585 39.9717L37.4991 40.4277L37.2094 40.8689L36.8585 41.2809L36.4771 41.6485L36.05 41.9723L35.5923 42.2517L35.1042 42.4871L34.6008 42.6782L34.0669 42.8107L33.5331 42.8842L32.9839 42.899L32.45 42.8696L31.9008 42.7814L31.382 42.649L30.8788 42.4576L30.3906 42.2076L29.9483 41.9281L29.5211 41.5898L29.1397 41.222L28.8041 40.81L28.5143 40.3688L28.2701 39.8981L28.072 39.3978L27.9348 38.8979L27.8431 38.6037L27.6906 38.324L27.4923 38.0888L27.2331 37.8974L26.9583 37.7506L26.6534 37.6622L26.3329 37.6328H22.8701L22.565 37.6622L22.26 37.7506L21.9855 37.8828L21.7414 38.0593L21.5431 38.2946L21.3752 38.5446L21.2686 38.8243L21.2227 39.1185L21.238 39.4275L21.3906 40.2364L21.5889 41.0308L21.8481 41.8104L22.1686 42.5606L22.5346 43.2962L22.9617 44.0021L23.4346 44.6789L23.9684 45.3263L24.5329 45.9294L25.1583 46.4882L25.8143 47.0032L26.5006 47.4885L27.2331 47.9004L27.9805 48.2829L28.7583 48.6065L29.5669 48.8714L30.3906 49.0774L31.2143 49.2243L32.0686 49.3273L32.9077 49.3567L33.7617 49.3421L34.6008 49.2684L35.4399 49.1215L36.2636 48.9301L37.072 48.6801L37.8653 48.3711L38.628 48.0181L39.3602 47.6063L40.0619 47.1501L40.7179 46.6353L41.3433 46.0911L41.9382 45.5026L42.4722 44.8701L42.9602 44.1934L43.4027 43.5021L43.7993 42.7664L44.1196 42.0164L44.4095 41.2514L44.623 40.457L44.7756 39.6481L44.8824 38.839L44.9281 38.0153L44.8976 37.2062Z" fill="#FEFEFE"/>
<path fill-rule="evenodd" clip-rule="evenodd" d="M72.878 11.0985L72.7884 10.7993L72.6387 10.5152L72.4443 10.2759L72.19 10.0664L71.9209 9.93181L71.6217 9.82718L71.3076 9.79736H51.1922L50.878 9.82718L50.5789 9.93181L50.3098 10.0664L50.0555 10.2759L49.8611 10.5152L49.7114 10.7993L49.6218 11.0985L49.5918 11.4126V14.7625L49.6218 15.0766L49.7114 15.3759L49.8611 15.6602L50.0555 15.8993L50.3098 16.0937L50.5789 16.2432L50.878 16.333L51.1922 16.3628H64.3083L64.5177 16.3928L64.7122 16.4528L64.8916 16.5424L65.0561 16.6769L65.1909 16.8265L65.2953 17.006L65.3552 17.2004L65.3852 17.4099L65.3703 17.6041L65.3253 17.8136L54.6768 47.0522L54.602 47.3513L54.5722 47.6504L54.617 47.9645L54.7218 48.2488L54.8712 48.5179L55.0657 48.7571L55.305 48.9516L55.5891 49.0862L55.8733 49.1758L56.1874 49.2058H59.7468L60.0759 49.1758L60.39 49.0712L60.6741 48.9218L60.9283 48.6973L61.1228 48.443L61.2574 48.1439L72.8182 16.4226L72.893 16.1385L72.908 15.8693V11.4126L72.878 11.0985Z" fill="#FEFEFE"/>
<path fill-rule="evenodd" clip-rule="evenodd" d="M101.206 11.0985L101.117 10.7993L100.967 10.5152L100.772 10.2759L100.518 10.0664L100.249 9.93181L99.9498 9.82718L99.6357 9.79736H79.5202L79.2061 9.82718L78.907 9.93181L78.6379 10.0664L78.3835 10.2759L78.1892 10.5152L78.0396 10.7993L77.9497 11.0985L77.9199 11.4126V14.7625L77.9497 15.0766L78.0396 15.3759L78.1892 15.6602L78.3835 15.8993L78.6379 16.0937L78.907 16.2432L79.2061 16.333L79.5202 16.3628H92.6364L92.8458 16.3928L93.0401 16.4528L93.2197 16.5424L93.3842 16.6769L93.519 16.8265L93.6235 17.006L93.6833 17.2004L93.7133 17.4099L93.6983 17.6041L93.6535 17.8136L83.0049 47.0522L82.9301 47.3513L82.9003 47.6504L82.9451 47.9645L83.0497 48.2488L83.1992 48.5179L83.3938 48.7571L83.6331 48.9516L83.9172 49.0862L84.2013 49.1758L84.5155 49.2058H88.0749L88.404 49.1758L88.7179 49.0712L89.0022 48.9218L89.2564 48.6973L89.4507 48.443L89.5855 48.1439L101.146 16.4226L101.221 16.1385L101.236 15.8693V11.4126L101.206 11.0985Z" fill="#FEFEFE"/>
<path fill-rule="evenodd" clip-rule="evenodd" d="M130.642 37.2062L130.565 36.3825L130.428 35.588L130.215 34.7937L129.971 34.0141L129.65 33.2491L129.269 32.5137L128.857 31.8074L128.369 31.1308L127.85 30.4836L127.286 29.8805L126.66 29.3215L126.004 28.7919L125.318 28.3212L124.601 27.8946L123.838 27.5121L123.655 27.4092L123.503 27.2769L123.365 27.1004L123.274 26.9237L123.228 26.7179L123.213 26.5119L123.243 26.3059L123.32 26.1146L123.442 25.9234L129.65 17.9652L129.833 17.6857L129.94 17.3623L129.986 17.0239V11.5223L129.955 11.2132L129.864 10.9192L129.711 10.6543L129.498 10.4041L129.254 10.2131L128.964 10.066L128.659 9.97751L128.338 9.94824H109.209L108.889 9.97751L108.569 10.066L108.294 10.2131L108.05 10.4041L107.836 10.6543L107.684 10.9192L107.592 11.2132L107.562 11.5223V14.8172L107.592 15.1262L107.684 15.4351L107.836 15.7L108.05 15.9501L108.294 16.1412L108.569 16.2883L108.889 16.3767L109.209 16.4059H121.062L121.276 16.4207L121.489 16.4941L121.687 16.5973L121.855 16.7297L121.993 16.8914L122.084 17.0826L122.145 17.2885L122.16 17.5092L122.115 17.7151L122.054 17.9211L121.931 18.0976L116.074 25.5998L115.769 26.4824V31.4398L115.799 31.7487L115.891 32.0429L116.043 32.3224L116.242 32.5578L116.501 32.749L116.791 32.896L117.096 32.9844L117.416 33.0137L117.736 32.9844L118.27 32.9109L118.82 32.8812L119.354 32.9109L119.887 32.999L120.421 33.1461L120.925 33.3375L121.413 33.5727L121.855 33.8668L122.282 34.2053L122.664 34.5729L122.999 34.9849L123.289 35.4263L123.533 35.897L123.731 36.3825L123.869 36.8974L123.945 37.4121L123.96 37.9417L123.93 38.4565L123.838 38.9712L123.701 39.4862L123.503 39.9717L123.243 40.4277L122.954 40.8689L122.603 41.2809L122.221 41.6485L121.794 41.9723L121.337 42.2517L120.848 42.4871L120.345 42.6782L119.811 42.8107L119.277 42.8842L118.728 42.899L118.194 42.8696L117.645 42.7814L117.126 42.649L116.623 42.4576L116.135 42.2076L115.692 41.9281L115.265 41.5898L114.884 41.222L114.548 40.81L114.258 40.3688L114.014 39.8981L113.816 39.3978L113.679 38.8979L113.587 38.6037L113.435 38.324L113.236 38.0888L112.977 37.8974L112.703 37.7506L112.398 37.6622L112.077 37.6328H108.614L108.309 37.6622L108.004 37.7506L107.73 37.8828L107.485 38.0593L107.287 38.2946L107.119 38.5446L107.013 38.8243L106.967 39.1185L106.982 39.4275L107.135 40.2364L107.333 41.0308L107.592 41.8104L107.913 42.5606L108.279 43.2962L108.706 44.0021L109.179 44.6789L109.713 45.3263L110.277 45.9294L110.902 46.4882L111.558 47.0032L112.245 47.4885L112.977 47.9004L113.725 48.2829L114.502 48.6065L115.311 48.8714L116.135 49.0774L116.958 49.2243L117.813 49.3273L118.652 49.3567L119.506 49.3421L120.345 49.2684L121.184 49.1215L122.008 48.9301L122.816 48.6801L123.609 48.3711L124.372 48.0181L125.104 47.6063L125.806 47.1501L126.462 46.6353L127.087 46.0911L127.682 45.5026L128.216 44.8701L128.704 44.1934L129.147 43.5021L129.543 42.7664L129.864 42.0164L130.154 41.2514L130.367 40.457L130.52 39.6481L130.627 38.839L130.672 38.0153L130.642 37.2062Z" fill="#FEFEFE"/>
<path fill-rule="evenodd" clip-rule="evenodd" d="M66.3096 69.0118L66.2353 68.7813L66.1115 68.5625L65.9379 68.3783L65.7396 68.2285L65.5166 68.1134L65.2689 68.0443L65.0086 68.0212H61.8119L61.5268 68.0443L61.2666 68.1248L61.019 68.2631L60.8082 68.4473L60.6471 68.6662L54.7742 78.745L54.6875 78.8715L54.5636 78.9868L54.4149 79.079L54.2662 79.1366L54.0926 79.1597H53.9192L53.7458 79.1366L53.5971 79.079L53.4483 78.9868L53.3245 78.8715L53.2378 78.745L47.3647 68.6662L47.2038 68.4473L46.993 68.2631L46.7452 68.1248L46.4851 68.0443L46.2001 68.0212H43.0034L42.7431 68.0443L42.4954 68.1134L42.2724 68.2285L42.0741 68.3783L41.9005 68.5625L41.7767 68.7813L41.7024 69.0118L41.6777 69.2421V96.8637L41.7024 97.1055L41.7767 97.3358L41.9005 97.5433L42.0741 97.739L42.2724 97.8886L42.4954 98.0039L42.7431 98.073L43.0034 98.0961H45.7541L46.0142 98.073L46.2621 98.0039L46.4851 97.8886L46.6833 97.739L46.8568 97.5433L46.9683 97.3358L47.0426 97.1055L47.0675 96.8637V81.924L47.0922 81.7627L47.1418 81.6015L47.2285 81.4517L47.3525 81.3251L47.4886 81.2329L47.6497 81.1523L47.8232 81.1179L48.0092 81.1062L48.1826 81.1292L48.3436 81.1868L48.5047 81.279L48.6286 81.3941L48.7277 81.5324L52.8414 88.6047L52.9899 88.8006L53.1758 88.962L53.3865 89.1001L53.6219 89.1921L53.8821 89.2382H54.1299L54.3901 89.1921L54.6255 89.1001L54.8362 88.962L55.0219 88.8006L55.1706 88.6047L59.2843 81.5324L59.3834 81.3941L59.5197 81.279L59.6684 81.1868L59.8294 81.1292L60.0028 81.1062L60.1888 81.1179L60.3622 81.1523L60.5234 81.2329L60.6595 81.3251L60.7835 81.4517L60.8702 81.6015L60.9198 81.7627L60.9445 81.924V96.8637L60.9694 97.1055L61.0436 97.3358L61.1552 97.5433L61.3286 97.739L61.5268 97.8886L61.7499 98.0039L61.9978 98.073L62.2579 98.0961H65.0086L65.2689 98.073L65.5166 98.0039L65.7396 97.8886L65.9379 97.739L66.1115 97.5433L66.2353 97.3358L66.3096 97.1055L66.3343 96.8637V69.2421L66.3096 69.0118Z" fill="#FEFEFE"/>
<path fill-rule="evenodd" clip-rule="evenodd" d="M37.7646 69.0118L37.6904 68.7813L37.5665 68.5625L37.3929 68.3783L37.1946 68.2285L36.9717 68.1134L36.724 68.0443L36.4637 68.0212H33.267L32.982 68.0443L32.7219 68.1248L32.474 68.2631L32.2633 68.4473L32.1023 68.6662L26.2293 78.745L26.1426 78.8715L26.0187 78.9868L25.87 79.079L25.7213 79.1366L25.5477 79.1597H25.3745L25.2009 79.1366L25.0521 79.079L24.9034 78.9868L24.7796 78.8715L24.6929 78.745L18.8198 68.6662L18.6588 68.4473L18.4481 68.2631L18.2003 68.1248L17.9401 68.0443L17.6551 68.0212H14.4585L14.1982 68.0443L13.9505 68.1134L13.7275 68.2285L13.5292 68.3783L13.3558 68.5625L13.2318 68.7813L13.1575 69.0118L13.1328 69.2421V96.8637L13.1575 97.1055L13.2318 97.3358L13.3558 97.5433L13.5292 97.739L13.7275 97.8886L13.9505 98.0039L14.1982 98.073L14.4585 98.0961H17.2092L17.4693 98.073L17.7171 98.0039L17.9401 97.8886L18.1384 97.739L18.3118 97.5433L18.4234 97.3358L18.4977 97.1055L18.5226 96.8637V81.924L18.5473 81.7627L18.5968 81.6015L18.6835 81.4517L18.8076 81.3251L18.9438 81.2329L19.1048 81.1523L19.2782 81.1179L19.4643 81.1062L19.6377 81.1292L19.7987 81.1868L19.9598 81.279L20.0837 81.3941L20.1828 81.5324L24.2965 88.6047L24.4452 88.8006L24.6309 88.962L24.8416 89.1001L25.077 89.1921L25.3371 89.2382H25.585L25.8451 89.1921L26.0806 89.1001L26.2913 88.962L26.477 88.8006L26.6257 88.6047L30.7393 81.5324L30.8385 81.3941L30.9748 81.279L31.1235 81.1868L31.2845 81.1292L31.4581 81.1062L31.6439 81.1179L31.8173 81.1523L31.9785 81.2329L32.1146 81.3251L32.2386 81.4517L32.3253 81.6015L32.3749 81.7627L32.3996 81.924V96.8637L32.4245 97.1055L32.4987 97.3358L32.6103 97.5433L32.7837 97.739L32.982 97.8886L33.205 98.0039L33.4529 98.073L33.713 98.0961H36.4637L36.724 98.073L36.9717 98.0039L37.1946 97.8886L37.3929 97.739L37.5665 97.5433L37.6904 97.3358L37.7646 97.1055L37.7895 96.8637V69.2421L37.7646 69.0118Z" fill="#FEFEFE"/>
<path fill-rule="evenodd" clip-rule="evenodd" d="M104.745 79.6525C109.905 79.6525 114.088 83.8355 114.088 88.9955C114.088 94.1555 109.905 98.3385 104.745 98.3385C100.09 98.3385 96.2306 94.935 95.519 90.4805L95.5168 90.4652C95.5108 90.3849 95.5064 90.3042 95.5036 90.2228C95.4753 89.3356 95.8036 88.9941 96.6861 88.9772C97.5056 88.9613 98.3255 88.9633 99.1452 88.9763C99.8319 88.9867 100.197 89.2999 100.364 89.9579C100.799 91.6741 101.834 92.8835 103.558 93.3111C105.076 93.6878 106.586 93.3999 107.751 92.3354C108.679 91.4877 109.185 90.298 109.206 89.0142C109.215 88.4358 109.001 87.8369 108.807 87.2755C108.462 86.2782 107.651 85.7365 106.799 85.168C105.994 84.6305 105.185 84.5458 104.289 84.5544C102.191 84.5746 100.094 84.5649 97.9964 84.5617C97.7573 84.5614 97.5019 84.5727 97.2822 84.497C96.5845 84.2566 96.4488 84.0316 96.4486 83.2602C96.4483 81.0179 96.4486 78.7758 96.4486 76.5336H96.4594C96.4594 74.2675 96.4576 72.0013 96.4602 69.735C96.4614 68.7732 96.9619 68.2663 97.9214 68.2657C102.43 68.2628 106.938 68.2632 111.447 68.2659C112.443 68.2664 113.05 68.8679 113.064 69.8676C113.074 70.4943 113.074 71.0312 113.074 71.7475C113.074 72.4641 112.49 73.1314 111.636 73.2302C111.328 73.2658 111.001 73.2635 110.687 73.2625C108.132 73.2552 105.577 73.2463 103.021 73.245C102.66 73.2448 102.346 73.2261 101.939 73.3085C101.532 73.3911 101.313 73.5823 101.311 74.0383C101.301 75.5811 101.296 77.1243 101.313 78.6671C101.32 79.3425 101.665 79.6503 102.355 79.6573L104.745 79.6525Z" fill="#FEFEFE"/>
<path fill-rule="evenodd" clip-rule="evenodd" d="M127.061 79.6525C132.221 79.6525 136.404 83.8355 136.404 88.9955C136.404 94.1555 132.221 98.3385 127.061 98.3385C122.407 98.3385 118.547 94.935 117.835 90.4805L117.833 90.4652C117.827 90.3849 117.823 90.3042 117.82 90.2228C117.792 89.3356 118.12 88.9941 119.002 88.9772C119.822 88.9613 120.642 88.9633 121.462 88.9763C122.148 88.9867 122.513 89.2999 122.68 89.9579C123.116 91.6741 124.151 92.8835 125.874 93.3111C127.393 93.6878 128.902 93.3999 130.068 92.3354C130.996 91.4877 131.501 90.298 131.522 89.0142C131.532 88.4358 131.317 87.8369 131.123 87.2755C130.779 86.2782 129.968 85.7365 129.116 85.168C128.31 84.6305 127.502 84.5458 126.605 84.5544C124.508 84.5746 122.41 84.5649 120.313 84.5617C120.074 84.5614 119.818 84.5727 119.599 84.497C118.901 84.2566 118.765 84.0316 118.765 83.2602C118.765 81.0179 118.765 78.7758 118.765 76.5336H118.776C118.776 74.2675 118.774 72.0013 118.777 69.735C118.778 68.7732 119.278 68.2663 120.238 68.2657C124.746 68.2628 129.255 68.2632 133.763 68.2659C134.76 68.2664 135.366 68.8679 135.381 69.8676C135.39 70.4943 135.391 71.0312 135.391 71.7475C135.391 72.4641 134.806 73.1314 133.953 73.2302C133.644 73.2658 133.317 73.2635 133.004 73.2625C130.449 73.2552 127.893 73.2463 125.338 73.245C124.977 73.2448 124.663 73.2261 124.256 73.3085C123.849 73.3911 123.63 73.5823 123.627 74.0383C123.618 75.5811 123.613 77.1243 123.629 78.6671C123.636 79.3425 123.981 79.6503 124.671 79.6573L127.061 79.6525Z" fill="#FEFEFE"/>
</svg>
