<svg width="100" height="77" viewBox="0 0 100 77" fill="none" xmlns="http://www.w3.org/2000/svg">
<path fill-rule="evenodd" clip-rule="evenodd" d="M7.95264 0.371826C3.67002 0.371826 0.185547 3.87774 0.185547 8.18714V68.9018C0.185547 73.2112 3.67002 76.7171 7.95264 76.7171H91.8669C96.1497 76.7171 99.634 73.2112 99.634 68.9018V8.18714C99.634 3.87774 96.1497 0.371826 91.8669 0.371826H7.95264Z" fill="#FEFEFE"/>
<mask id="mask0" mask-type="alpha" maskUnits="userSpaceOnUse" x="0" y="0" width="100" height="77">
<path fill-rule="evenodd" clip-rule="evenodd" d="M0 0.186035H99.8179V76.9033H0V0.186035Z" fill="white"/>
</mask>
<g mask="url(#mask0)">
<path fill-rule="evenodd" clip-rule="evenodd" d="M7.95194 0.372025C3.66932 0.372025 0.184843 3.87794 0.184843 8.18734V68.902C0.184843 73.2114 3.66932 76.7173 7.95194 76.7173H91.8662C96.149 76.7173 99.6333 73.2114 99.6333 68.902V8.18734C99.6333 3.87794 96.149 0.372025 91.8662 0.372025H7.95194ZM91.8662 76.9033H7.95194C3.56728 76.9033 0 73.3141 0 68.902V8.18734C0 3.77546 3.56728 0.186035 7.95194 0.186035H91.8662C96.2508 0.186035 99.8181 3.77546 99.8181 8.18734V68.902C99.8181 73.3141 96.2508 76.9033 91.8662 76.9033Z" fill="#020303"/>
</g>
<path fill-rule="evenodd" clip-rule="evenodd" d="M96.1756 67.9965C96.1756 70.8185 93.8937 73.1146 91.0891 73.1146H8.7272C5.92276 73.1146 3.64087 70.8185 3.64087 67.9965V9.09244C3.64087 6.27041 5.92276 3.97436 8.7272 3.97436H91.0891C93.8937 3.97436 96.1756 6.27041 96.1756 9.09244V67.9965ZM91.0891 1.60205H8.7272C4.62257 1.60205 1.2832 4.96234 1.2832 9.09244V67.9965C1.2832 72.1266 4.62257 75.4867 8.7272 75.4867H29.2226H91.0891C95.1937 75.4867 98.5333 72.1266 98.5333 67.9965V9.09244C98.5333 4.96234 95.1937 1.60205 91.0891 1.60205Z" fill="#020303"/>
<path fill-rule="evenodd" clip-rule="evenodd" d="M50.5711 37.0287H49.1592V39.1179H50.5296C50.8975 39.1179 51.2065 39.0863 51.4572 39.0221C51.7078 38.9583 51.8995 38.8493 52.0317 38.6955C52.1638 38.5419 52.2302 38.3299 52.2302 38.0604C52.2302 37.8496 52.1768 37.6636 52.0703 37.5031C51.9638 37.3424 51.8162 37.2223 51.6274 37.1427C51.4487 37.0668 51.0966 37.0287 50.5711 37.0287ZM49.6951 40.2223H49.1592V42.6642C49.1592 42.9856 49.0886 43.2225 48.9481 43.3745C48.8071 43.5266 48.6234 43.6027 48.3966 43.6027C48.1528 43.6027 47.9638 43.5231 47.8298 43.3641C47.6958 43.2052 47.6289 42.9718 47.6289 42.6642V36.8161C47.6289 36.4843 47.7027 36.244 47.8503 36.0954C47.998 35.947 48.2369 35.8726 48.5666 35.8726H51.0553C51.399 35.8726 51.6925 35.8873 51.9365 35.9166C52.1803 35.946 52.4001 36.0055 52.596 36.0954C52.8328 36.1956 53.0424 36.3392 53.2245 36.5258C53.4065 36.7125 53.5448 36.9294 53.6393 37.1764C53.7337 37.4237 53.7808 37.6854 53.7808 37.962C53.7808 38.5287 53.6221 38.9816 53.3043 39.3203C52.9864 39.6591 52.5049 39.8992 51.8592 40.0408C52.1306 40.186 52.3899 40.4003 52.6372 40.6836C52.8845 40.9672 53.1051 41.2689 53.2993 41.5886C53.4932 41.9081 53.6444 42.1968 53.7528 42.4542C53.8609 42.712 53.915 42.8889 53.915 42.9856C53.915 43.0858 53.8833 43.1853 53.8195 43.2837C53.7559 43.3823 53.6694 43.46 53.5594 43.5171C53.4494 43.574 53.3224 43.6027 53.1781 43.6027C53.0064 43.6027 52.8622 43.562 52.7454 43.4807C52.6287 43.3996 52.528 43.2967 52.4439 43.1723C52.3596 43.0477 52.2457 42.8647 52.1014 42.6227L51.4882 41.5962C51.2683 41.2194 51.0716 40.9326 50.8982 40.7356C50.7247 40.5385 50.5485 40.4037 50.3701 40.3311C50.1914 40.2586 49.9664 40.2223 49.6951 40.2223Z" fill="#1D1D1B"/>
<path fill-rule="evenodd" clip-rule="evenodd" d="M49.2324 39.0449H50.5302C50.8907 39.0449 51.1968 39.0135 51.4396 38.9514C51.6746 38.8916 51.8552 38.7895 51.9772 38.6476C52.0971 38.5083 52.1577 38.3108 52.1577 38.0605C52.1577 37.8655 52.1082 37.6918 52.0102 37.5438C51.9123 37.3961 51.7742 37.2838 51.5999 37.2107C51.4308 37.1385 51.0847 37.1022 50.5714 37.1022H49.2324V39.0449ZM50.5302 39.1913H49.1596C49.1197 39.1913 49.087 39.1584 49.087 39.1182V37.029C49.087 36.9886 49.1197 36.9559 49.1596 36.9559H50.5714C51.1119 36.9559 51.4668 36.9951 51.6561 37.0756C51.8572 37.1603 52.0171 37.2905 52.1313 37.4627C52.2454 37.6351 52.3032 37.8363 52.3032 38.0605C52.3032 38.3469 52.2306 38.5766 52.0871 38.7436C51.9454 38.9084 51.7395 39.0259 51.4755 39.0931C51.2208 39.1582 50.9027 39.1913 50.5302 39.1913ZM49.1596 40.1493H49.6955C49.9753 40.1493 50.2115 40.188 50.3979 40.2637C50.5858 40.34 50.7725 40.4824 50.9529 40.6872C51.1287 40.8868 51.33 41.1801 51.5513 41.5593L52.164 42.5852C52.3101 42.8304 52.4215 43.0089 52.5043 43.1313C52.5829 43.2474 52.6781 43.3446 52.787 43.4207C52.891 43.4931 53.0228 43.5295 53.1786 43.5295C53.3104 43.5295 53.4274 43.5037 53.5263 43.4521C53.626 43.4006 53.7019 43.3325 53.7589 43.244C53.8145 43.1581 53.8426 43.0712 53.8426 42.9857C53.8426 42.9265 53.8156 42.7913 53.6862 42.4828C53.5801 42.2304 53.4291 41.9424 53.2376 41.6268C53.0465 41.3118 52.826 41.0108 52.5829 40.7322C52.3426 40.4569 52.0877 40.246 51.8254 40.1054C51.7986 40.0911 51.7834 40.0613 51.7875 40.031C51.7918 40.0007 51.8143 39.976 51.8441 39.9696C52.4718 39.8318 52.9455 39.5967 53.2518 39.2703C53.555 38.9473 53.7086 38.507 53.7086 37.9623C53.7086 37.6957 53.6626 37.4402 53.5718 37.203C53.4812 36.9663 53.3472 36.7557 53.1729 36.577C52.9988 36.3984 52.7951 36.2591 52.5683 36.1632C52.3781 36.0759 52.1633 36.0179 51.9282 35.9895C51.6868 35.9606 51.3932 35.9459 51.0557 35.9459H48.567C48.2589 35.9459 48.035 36.0136 47.9023 36.1475C47.7694 36.2813 47.7021 36.5063 47.7021 36.8164V42.6645C47.7021 42.9529 47.7638 43.1722 47.8857 43.3171C48.0062 43.4599 48.1735 43.5295 48.3969 43.5295C48.6045 43.5295 48.7674 43.4625 48.8955 43.3247C49.0224 43.1871 49.087 42.965 49.087 42.6645V40.2226C49.087 40.1822 49.1197 40.1493 49.1596 40.1493ZM53.1786 43.6759C52.9927 43.6759 52.833 43.6305 52.7043 43.541C52.5803 43.4547 52.4727 43.3446 52.3842 43.2137C52.2997 43.0889 52.187 42.9081 52.0396 42.6604L51.4263 41.6339C51.2093 41.2625 51.0138 40.9768 50.8443 40.7843C50.6788 40.5966 50.5104 40.467 50.3433 40.3991C50.1746 40.3305 49.9565 40.2959 49.6955 40.2959H49.2324V42.6645C49.2324 43.0032 49.1548 43.2589 49.0017 43.4244C48.847 43.5913 48.6435 43.6759 48.3969 43.6759C48.1319 43.6759 47.9226 43.587 47.7748 43.4116C47.63 43.2399 47.5566 42.9885 47.5566 42.6645V36.8164C47.5566 36.466 47.6383 36.2061 47.7993 36.044C47.9605 35.8818 48.2189 35.7996 48.567 35.7996H51.0557C51.3992 35.7996 51.6984 35.8146 51.9455 35.8442C52.1956 35.8743 52.4248 35.9366 52.6265 36.0293C52.8696 36.1319 53.0888 36.2822 53.2768 36.4747C53.465 36.6678 53.6099 36.895 53.7075 37.1502C53.8047 37.4047 53.8541 37.6775 53.8541 37.9623C53.8541 38.5455 53.6871 39.0194 53.3576 39.3706C53.0609 39.6868 52.6224 39.9217 52.0526 40.0701C52.274 40.2127 52.4886 40.4024 52.6923 40.6357C52.9407 40.9208 53.1661 41.2284 53.3618 41.5506C53.557 41.8723 53.711 42.1668 53.82 42.4258C53.9332 42.6953 53.9882 42.8784 53.9882 42.9857C53.9882 43.1001 53.952 43.2137 53.8807 43.3238C53.8108 43.4326 53.7139 43.5196 53.5932 43.5823C53.4733 43.6443 53.3337 43.6759 53.1786 43.6759Z" fill="#1D1D1B"/>
<path fill-rule="evenodd" clip-rule="evenodd" d="M55.5566 40.3311V36.6762C55.5566 36.3652 55.6261 36.1318 55.7653 35.9762C55.9043 35.8207 56.0873 35.7429 56.3141 35.7429C56.5511 35.7429 56.7391 35.8207 56.8783 35.9762C57.0173 36.1318 57.0868 36.3652 57.0868 36.6762V40.4141C57.0868 40.8392 57.1341 41.1945 57.2287 41.4796C57.323 41.7647 57.4905 41.9859 57.7309 42.143C57.9712 42.3006 58.308 42.3792 58.7409 42.3792C59.3385 42.3792 59.7611 42.2193 60.0084 41.8996C60.2557 41.58 60.3794 41.095 60.3794 40.4451V36.6762C60.3794 36.3617 60.4481 36.1275 60.5855 35.9735C60.7228 35.8199 60.9065 35.7429 61.1367 35.7429C61.367 35.7429 61.5531 35.8199 61.6958 35.9735C61.8383 36.1275 61.9095 36.3617 61.9095 36.6762V40.3311C61.9095 40.9257 61.8522 41.4218 61.737 41.8192C61.6219 42.2167 61.4049 42.5658 61.0851 42.8665C60.8104 43.1223 60.4908 43.309 60.1271 43.4266C59.7627 43.5437 59.3367 43.6027 58.8491 43.6027C58.2685 43.6027 57.7688 43.5394 57.3496 43.4133C56.9306 43.2874 56.5888 43.092 56.3243 42.8275C56.0598 42.5632 55.8659 42.2245 55.742 41.8114C55.6184 41.3983 55.5566 40.9051 55.5566 40.3311Z" fill="#1D1D1B"/>
<path fill-rule="evenodd" clip-rule="evenodd" d="M56.3145 35.8163C56.1073 35.8163 55.9454 35.8846 55.8199 36.0252C55.6938 36.1661 55.6298 36.3852 55.6298 36.6763V40.3312C55.6298 40.8955 55.691 41.3861 55.8121 41.7903C55.9319 42.19 56.1215 42.5214 56.3761 42.7757C56.6308 43.0303 56.9653 43.2213 57.3709 43.3433C57.7812 43.4668 58.2786 43.5295 58.8496 43.5295C59.3276 43.5295 59.75 43.4713 60.1053 43.3569C60.4576 43.2431 60.7707 43.0599 61.0361 42.8127C61.3441 42.5235 61.5565 42.1822 61.6676 41.7987C61.7801 41.4101 61.8372 40.9165 61.8372 40.3312V36.6763C61.8372 36.3823 61.7718 36.1626 61.643 36.0235C61.5138 35.884 61.3481 35.8163 61.1372 35.8163C60.9267 35.8163 60.764 35.8836 60.6398 36.0224C60.5156 36.1619 60.4526 36.3819 60.4526 36.6763V40.4454C60.4526 41.1088 60.3226 41.6132 60.0663 41.9445C59.8056 42.2815 59.3598 42.4524 58.7413 42.4524C58.2962 42.4524 57.9432 42.3689 57.6916 42.2047C57.4382 42.039 57.2592 41.8028 57.1602 41.5026C57.0637 41.2117 57.0145 40.8453 57.0145 40.4142V36.6763C57.0145 36.3852 56.9505 36.1661 56.8249 36.0252C56.699 35.8846 56.5321 35.8163 56.3145 35.8163ZM58.8496 43.6759C58.2646 43.6759 57.753 43.611 57.3293 43.4836C56.9006 43.3545 56.5454 43.1514 56.2735 42.8797C56.0019 42.6079 55.7997 42.2557 55.6727 41.8325C55.548 41.4148 55.4844 40.9096 55.4844 40.3312V36.6763C55.4844 36.3479 55.5609 36.0958 55.7117 35.9273C55.8642 35.7566 56.067 35.6699 56.3145 35.6699C56.5722 35.6699 56.7801 35.7566 56.9328 35.9275C57.0835 36.096 57.16 36.3479 57.16 36.6763V40.4142C57.16 40.8295 57.2064 41.1803 57.2981 41.4563C57.3866 41.7245 57.5457 41.9346 57.7709 42.0819C57.9982 42.2305 58.3247 42.3061 58.7413 42.3061C59.3127 42.3061 59.7199 42.1541 59.9515 41.8548C60.1873 41.5496 60.3071 41.0755 60.3071 40.4454V36.6763C60.3071 36.3449 60.3827 36.0919 60.5317 35.9247C60.6831 35.7557 60.8866 35.6699 61.1372 35.6699C61.3871 35.6699 61.5932 35.7553 61.7493 35.9236C61.9042 36.091 61.9827 36.3441 61.9827 36.6763V40.3312C61.9827 40.9303 61.9237 41.438 61.8073 41.8398C61.6886 42.2486 61.4627 42.612 61.1352 42.9198C60.8541 43.1821 60.5225 43.3759 60.1496 43.496C59.7801 43.6154 59.3428 43.6759 58.8496 43.6759Z" fill="#1D1D1B"/>
<path fill-rule="evenodd" clip-rule="evenodd" d="M69.6532 41.1919C69.6532 41.6516 69.5352 42.0645 69.3001 42.4309C69.0648 42.7973 68.7206 43.0843 68.2672 43.2915C67.8138 43.4989 67.2761 43.6027 66.6543 43.6027C65.909 43.6027 65.2942 43.461 64.8097 43.1775C64.4663 42.9735 63.8341 42.4503 63.9452 42.5407C64.0567 42.6313 63.6504 42.3826 63.6504 42.0614C63.6504 41.8746 63.7149 41.7151 63.8437 41.5817C63.9726 41.4487 64.1365 41.3821 64.3356 41.3821C64.497 41.3821 64.6338 41.434 64.7454 41.5376C64.8569 41.6414 65.1785 41.9375 65.2665 42.0028C65.3541 42.0681 65.6119 42.2089 65.8145 42.3143C66.0171 42.42 66.2835 42.4724 66.6132 42.4724C67.0667 42.4724 67.4349 42.366 67.7184 42.1534C68.0016 41.941 68.1436 41.6758 68.1436 41.3578C68.1436 41.1054 68.067 40.9008 67.9142 40.7435C67.7615 40.5863 67.5637 40.4661 67.3217 40.383C67.0794 40.3001 66.7556 40.2119 66.3506 40.1187C65.8075 39.9909 65.3533 39.8412 64.9875 39.6701C64.6216 39.499 64.3315 39.2659 64.1167 38.9702C63.9021 38.6749 63.7949 38.3075 63.7949 37.8686C63.7949 37.4505 63.9081 37.0789 64.1349 36.754C64.3615 36.4292 64.6894 36.1794 65.119 36.0046C65.5482 35.8303 66.0532 35.7429 66.6338 35.7429C67.0975 35.7429 67.4984 35.8009 67.8369 35.9166C68.1752 36.0327 68.8029 36.2825 69.1127 36.5572C69.4225 36.8317 69.4611 37.1213 69.4611 37.3218C69.4611 37.505 69.3966 37.67 69.268 37.8169C69.1391 37.964 68.9787 38.0373 68.7863 38.0373C68.611 38.0373 68.4777 37.9932 68.3868 37.9049C68.2957 37.8169 67.9448 37.3562 67.4582 37.078C67.1923 36.931 66.9567 36.8369 66.5306 36.8369C66.1358 36.8369 65.8171 36.9243 65.575 37.0986C65.3328 37.2734 65.2118 37.4834 65.2118 37.7286C65.2118 37.8807 65.2528 38.012 65.3354 38.1227C65.4179 38.2333 65.5312 38.3284 65.6753 38.4078C65.8197 38.4874 65.9657 38.5495 66.1134 38.5945C66.2609 38.6393 66.5049 38.7052 66.8452 38.7915C67.2707 38.8917 67.6565 39.0024 68.0016 39.1233C68.3471 39.2442 68.6406 39.3911 68.8829 39.5639C69.1251 39.7369 69.3138 39.9554 69.4497 40.2197C69.5851 40.484 69.6532 40.8082 69.6532 41.1919Z" fill="#1D1D1B"/>
<path fill-rule="evenodd" clip-rule="evenodd" d="M64.0014 42.4924C64.1057 42.577 64.57 42.9501 64.8471 43.1147C65.3177 43.3898 65.926 43.5295 66.6546 43.5295C67.2633 43.5295 67.7959 43.427 68.2375 43.225C68.6757 43.0247 69.0129 42.7443 69.2395 42.3912C69.4659 42.0386 69.5809 41.6352 69.5809 41.192C69.5809 40.8224 69.5151 40.5066 69.3855 40.2533C69.2558 40.0009 69.0726 39.7889 68.8413 39.6235C68.606 39.4559 68.3156 39.3109 67.9781 39.1924C67.6386 39.0734 67.2519 38.9625 66.829 38.8628C66.4896 38.7765 66.2423 38.7101 66.0927 38.6647C65.941 38.6186 65.789 38.5537 65.6408 38.4721C65.4881 38.3878 65.3659 38.2849 65.2776 38.1667C65.1859 38.0439 65.1393 37.8966 65.1393 37.7288C65.1393 37.4595 65.2718 37.2276 65.5328 37.0396C65.7866 36.8565 66.1227 36.7637 66.5312 36.7637C66.9576 36.7637 67.207 36.8554 67.4937 37.0141C67.899 37.2458 68.212 37.5996 68.3624 37.7696C68.3957 37.8077 68.4212 37.8365 68.4376 37.8525C68.5142 37.9265 68.6315 37.9641 68.7866 37.9641C68.9585 37.9641 69.0985 37.9003 69.2138 37.7688C69.3315 37.6344 69.3888 37.4882 69.3888 37.3219C69.3888 37.1405 69.3552 36.8696 69.0652 36.6121C68.7973 36.3748 68.2432 36.1332 67.8138 35.9861C67.485 35.8734 67.0879 35.8163 66.6341 35.8163C66.0654 35.8163 65.565 35.9026 65.1465 36.0726C64.7325 36.2411 64.4123 36.4844 64.1948 36.7959C63.9779 37.1069 63.868 37.4677 63.868 37.8689C63.868 38.2898 63.9717 38.646 64.1757 38.9272C64.3824 39.2112 64.6657 39.439 65.0186 39.6042C65.3792 39.7725 65.833 39.9218 66.3676 40.0476C66.7731 40.1411 67.1022 40.2308 67.3456 40.3139C67.5973 40.4002 67.8064 40.5276 67.9665 40.6922C68.1325 40.8631 68.2168 41.0869 68.2168 41.3577C68.2168 41.6984 68.0639 41.986 67.7624 42.2123C67.467 42.4336 67.0805 42.5458 66.6136 42.5458C66.2733 42.5458 65.9935 42.4896 65.7816 42.3795C65.5711 42.27 65.314 42.1292 65.2234 42.0619C65.1162 41.9822 64.7007 41.5954 64.6964 41.5915C64.5977 41.5 64.4798 41.4555 64.3362 41.4555C64.1556 41.4555 64.0118 41.5134 63.8962 41.6328C63.7802 41.7529 63.7236 41.8932 63.7236 42.0615C63.7236 42.24 63.8816 42.4018 63.9578 42.4658C63.9657 42.4686 63.9731 42.4721 63.9796 42.4759L63.9803 42.4749C63.9807 42.4753 63.9827 42.4772 63.987 42.4807C63.9887 42.4816 63.99 42.4827 63.9912 42.4839C63.9942 42.4863 63.9977 42.4891 64.0014 42.4924ZM66.6546 43.6759C65.8999 43.6759 65.267 43.5295 64.7737 43.2408C64.7657 43.2364 64.172 42.8346 63.946 42.6304C63.8864 42.6135 63.5781 42.3622 63.5781 42.0615C63.5781 41.8561 63.6502 41.6776 63.792 41.5307C63.9345 41.3837 64.1175 41.3091 64.3362 41.3091C64.5155 41.3091 64.6698 41.3679 64.7951 41.484C64.9099 41.5909 65.2262 41.882 65.3099 41.9441C65.3937 42.0064 65.6522 42.1476 65.8484 42.2493C66.0395 42.349 66.297 42.3994 66.6136 42.3994C67.0486 42.3994 67.4059 42.2969 67.6754 42.095C67.9417 41.8952 68.0713 41.654 68.0713 41.3577C68.0713 41.1233 68.0029 40.939 67.8626 40.7947C67.7184 40.6465 67.5288 40.5313 67.2986 40.4523C67.0602 40.3708 66.7358 40.2827 66.3347 40.1902C65.7903 40.0621 65.3269 39.9094 64.9572 39.7368C64.582 39.561 64.2796 39.3178 64.0585 39.0137C63.8356 38.7068 63.7225 38.3216 63.7225 37.8689C63.7225 37.437 63.8413 37.0479 64.0755 36.712C64.3095 36.3769 64.6517 36.1161 65.092 35.9372C65.5278 35.7599 66.0467 35.6699 66.6341 35.6699C67.104 35.6699 67.5168 35.7298 67.8607 35.8475C68.0755 35.9212 68.8042 36.1859 69.1611 36.5024C69.4955 36.7989 69.5343 37.1121 69.5343 37.3219C69.5343 37.5224 69.4632 37.7054 69.3229 37.8654C69.1803 38.0281 68.9998 38.1105 68.7866 38.1105C68.5925 38.1105 68.4413 38.0592 68.3367 37.9578C68.3186 37.9403 68.2907 37.9087 68.2537 37.867C68.1084 37.7028 67.8064 37.3609 67.4227 37.1417C67.1513 36.9918 66.9284 36.9101 66.5312 36.9101C66.1537 36.9101 65.8461 36.9938 65.6175 37.1582C65.3937 37.3197 65.2848 37.5064 65.2848 37.7288C65.2848 37.8661 65.3205 37.9805 65.3938 38.0789C65.4696 38.1804 65.5765 38.2695 65.7108 38.3437C65.85 38.4205 65.9927 38.4815 66.1347 38.5245C66.2822 38.5693 66.5273 38.6354 66.8633 38.7209C67.29 38.8213 67.6816 38.9335 68.0258 39.0544C68.3765 39.1771 68.679 39.3285 68.9254 39.5043C69.1757 39.6832 69.3741 39.9127 69.5147 40.1863C69.655 40.4605 69.7264 40.799 69.7264 41.192C69.7264 41.6636 69.6036 42.0938 69.3615 42.4708C69.1195 42.8475 68.7619 43.1462 68.2977 43.3584C67.8371 43.5691 67.2844 43.6759 66.6546 43.6759Z" fill="#1D1D1B"/>
<mask id="mask1" mask-type="alpha" maskUnits="userSpaceOnUse" x="0" y="0" width="100" height="77">
<path fill-rule="evenodd" clip-rule="evenodd" d="M0 76.9033H99.8179V0.186035H0V76.9033Z" fill="white"/>
</mask>
<g mask="url(#mask1)">
<path fill-rule="evenodd" clip-rule="evenodd" d="M73.9238 41.0282H87.5562V38.405H73.9238V41.0282Z" fill="#076AB2"/>
<path fill-rule="evenodd" clip-rule="evenodd" d="M73.9238 43.6513H87.5562V41.0281H73.9238V43.6513Z" fill="#E10F17"/>
<path fill-rule="evenodd" clip-rule="evenodd" d="M74.29 35.9997C74.202 35.9997 74.1307 36.0717 74.1307 36.1601V43.2828C74.1307 43.3713 74.202 43.4433 74.29 43.4433H87.2944C87.3824 43.4433 87.4539 43.3713 87.4539 43.2828V36.1601C87.4539 36.0717 87.3824 35.9997 87.2944 35.9997H74.29ZM87.2944 43.8595H74.29C73.9739 43.8595 73.7168 43.6008 73.7168 43.2828V36.1601C73.7168 35.842 73.9739 35.5835 74.29 35.5835H87.2944C87.6105 35.5835 87.8676 35.842 87.8676 36.1601V43.2828C87.8676 43.6008 87.6105 43.8595 87.2944 43.8595Z" fill="#1D1D1B"/>
<path fill-rule="evenodd" clip-rule="evenodd" d="M98.0306 50.9179H96.1821V43.3508C96.1821 41.8287 94.9514 40.5904 93.4385 40.5904H89.5977V38.7305H93.4385C95.9705 38.7305 98.0306 40.8031 98.0306 43.3508V50.9179Z" fill="#020303"/>
<path fill-rule="evenodd" clip-rule="evenodd" d="M93.4389 40.5904H89.598C89.0875 40.5904 88.6738 40.1741 88.6738 39.6604C88.6738 39.1467 89.0875 38.7305 89.598 38.7305H93.4389C94.9518 38.7305 96.1825 37.4921 96.1825 35.97V27.6592C96.1825 27.1455 96.5962 26.7292 97.1067 26.7292C97.6171 26.7292 98.0309 27.1455 98.0309 27.6592V35.97C98.0309 38.5177 95.9709 40.5904 93.4389 40.5904Z" fill="#020303"/>
<path fill-rule="evenodd" clip-rule="evenodd" d="M48.2741 74.969H40.7539V73.1091H48.2741C49.787 73.1091 51.0177 71.8708 51.0177 70.3484V47.6987H52.8661V70.3484C52.8661 72.8961 50.806 74.969 48.2741 74.969Z" fill="#020303"/>
<path fill-rule="evenodd" clip-rule="evenodd" d="M63.8691 74.969H55.6094C53.0775 74.969 51.0176 72.8962 51.0176 70.3485V47.6988C51.0176 47.185 51.4313 46.7688 51.9418 46.7688C52.4521 46.7688 52.866 47.185 52.866 47.6988V70.3485C52.866 71.8708 54.0967 73.1091 55.6094 73.1091H63.8691C64.3797 73.1091 64.7934 73.5254 64.7934 74.0391C64.7934 74.5528 64.3797 74.969 63.8691 74.969Z" fill="#020303"/>
<path fill-rule="evenodd" clip-rule="evenodd" d="M28.766 8.53478L28.7123 8.35455L28.6228 8.19255L28.5065 8.03948L28.3544 7.9225L28.1932 7.83248L28.0145 7.77854L27.8265 7.7605H25.3477L25.1599 7.77854L24.9808 7.83248L24.811 7.9225L24.6677 8.03948L16.7219 16.0438L16.5965 16.1877L16.516 16.3501L16.4533 16.5391L16.4355 16.7282L16.4533 16.9172L16.516 17.0972L16.5965 17.2592L16.7219 17.4123L18.1355 18.8349L18.2877 18.9521L18.4489 19.0421L18.6278 19.0961L18.8156 19.1232L19.0036 19.0961L19.1825 19.0421L19.3526 18.9521L19.4958 18.8349L23.764 14.5491L23.8535 14.4681L23.9697 14.405L24.0862 14.3691L24.2113 14.36L24.3367 14.3691L24.462 14.405L24.5694 14.4681L24.6677 14.5491L24.7483 14.6483L24.8019 14.7562L24.8466 14.8824L24.8557 15.0084V30.5127L24.8734 30.7018L24.9272 30.8819L25.0167 31.053L25.1331 31.1971L25.2851 31.3231L25.4463 31.4133L25.6343 31.4672L25.813 31.4852H27.8265L28.0145 31.4672L28.1932 31.4133L28.3544 31.3231L28.5065 31.1971L28.6228 31.053L28.7123 30.8819L28.766 30.7018L28.784 30.5127V8.72393L28.766 8.53478Z" fill="#1D1D1B"/>
<path fill-rule="evenodd" clip-rule="evenodd" d="M46.0375 8.53478L45.9837 8.35455L45.8943 8.19255L45.778 8.03948L45.6259 7.9225L45.4649 7.83248L45.286 7.77854L45.098 7.7605H42.6192L42.4314 7.77854L42.2523 7.83248L42.0824 7.9225L41.9392 8.03948L33.9934 16.0438L33.868 16.1877L33.7874 16.3501L33.7248 16.5391L33.707 16.7282L33.7248 16.9172L33.7874 17.0972L33.868 17.2592L33.9934 17.4123L35.407 18.8349L35.5592 18.9521L35.7203 19.0421L35.8993 19.0961L36.0871 19.1232L36.2751 19.0961L36.454 19.0421L36.624 18.9521L36.7673 18.8349L41.0355 14.5491L41.125 14.4681L41.2412 14.405L41.3577 14.3691L41.4828 14.36L41.6081 14.3691L41.7335 14.405L41.8409 14.4681L41.9392 14.5491L42.0198 14.6483L42.0736 14.7562L42.1181 14.8824L42.1272 15.0084V30.5127L42.1451 30.7018L42.1987 30.8819L42.2882 31.053L42.4046 31.1971L42.5566 31.3231L42.7178 31.4133L42.9057 31.4672L43.0847 31.4852H45.098L45.286 31.4672L45.4649 31.4133L45.6259 31.3231L45.778 31.1971L45.8943 31.053L45.9837 30.8819L46.0375 30.7018L46.0555 30.5127V8.72393L46.0375 8.53478Z" fill="#1D1D1B"/>
<path fill-rule="evenodd" clip-rule="evenodd" d="M66.5184 24.1702L66.4727 23.6742L66.3907 23.196L66.2628 22.7177L66.1167 22.2484L65.925 21.7879L65.697 21.3452L65.4506 20.9201L65.1585 20.5127L64.8482 20.1231L64.5106 19.76L64.1361 19.4236L63.7437 19.1046L63.3332 18.8212L62.9042 18.5643L62.448 18.3342L62.3384 18.2721L62.247 18.1925L62.1648 18.0861L62.1101 17.9799L62.0827 17.8561L62.0737 17.732L62.092 17.6081L62.1376 17.493L62.2104 17.3777L65.925 12.5868L66.0347 12.4184L66.0986 12.2237L66.126 12.02V8.70793L66.1077 8.52194L66.0528 8.34488L65.9616 8.18549L65.8339 8.03483L65.6879 7.91971L65.5143 7.83117L65.3319 7.77798L65.1402 7.7605H53.6951L53.5036 7.77798L53.3119 7.83117L53.1476 7.91971L53.0016 8.03483L52.8738 8.18549L52.7824 8.34488L52.7278 8.52194L52.7095 8.70793V10.6915L52.7278 10.8775L52.7824 11.0635L52.8738 11.2231L53.0016 11.3735L53.1476 11.4885L53.3119 11.5772L53.5036 11.6302L53.6951 11.6481H60.7868L60.9145 11.657L61.0422 11.7013L61.1611 11.7632L61.2615 11.843L61.3435 11.9403L61.3982 12.0554L61.4348 12.1793L61.4439 12.3122L61.4164 12.4361L61.3799 12.5602L61.3071 12.6664L57.8023 17.183L57.6197 17.7143V20.6987L57.638 20.8847L57.6927 21.0618L57.784 21.2299L57.9027 21.3716L58.058 21.4868L58.2311 21.5755L58.4138 21.6285L58.6053 21.6464L58.7971 21.6285L59.1165 21.5844L59.445 21.5666L59.7646 21.5844L60.0838 21.6374L60.4034 21.726L60.7047 21.8411L60.9966 21.9828L61.2615 22.1599L61.5167 22.3635L61.745 22.585L61.9459 22.833L62.1193 23.0986L62.2653 23.382L62.384 23.6742L62.4661 23.9842L62.5117 24.2941L62.5208 24.6129L62.5025 24.9229L62.448 25.2328L62.3657 25.5428L62.247 25.835L62.092 26.1096L61.9184 26.3752L61.7086 26.6231L61.4803 26.8446L61.2247 27.0395L60.9511 27.2076L60.6591 27.3494L60.3578 27.4645L60.0382 27.5443L59.7189 27.5886L59.3903 27.5975L59.0709 27.5796L58.7424 27.5266L58.4321 27.4468L58.1308 27.3317L57.8387 27.1811L57.574 27.0129L57.3186 26.8091L57.0903 26.5877L56.8896 26.3398L56.7162 26.074L56.5702 25.7908L56.4515 25.4897L56.3694 25.1887L56.3147 25.0115L56.2234 24.8432L56.1047 24.7014L55.9494 24.5863L55.7853 24.498L55.6027 24.4448L55.411 24.4271H53.3393L53.1567 24.4448L52.9742 24.498L52.8099 24.5774L52.6639 24.6839L52.5452 24.8255L52.4448 24.976L52.3811 25.1443L52.3535 25.3213L52.3628 25.5073L52.4539 25.9946L52.5727 26.4726L52.7278 26.9421L52.9195 27.3936L53.1384 27.8365L53.394 28.2615L53.6768 28.6688L53.9964 29.0586L54.3341 29.4217L54.7082 29.7581L55.1007 30.0682L55.5114 30.3604L55.9494 30.6083L56.3968 30.8387L56.8622 31.0333L57.3459 31.1929L57.8387 31.3169L58.3317 31.4053L58.8428 31.4672L59.3446 31.4851L59.8557 31.4761L60.3578 31.4319L60.8598 31.3433L61.3526 31.2282L61.8363 31.0777L62.3108 30.8917L62.7672 30.6792L63.2053 30.4312L63.6252 30.1569L64.0177 29.8469L64.3918 29.5191L64.7478 29.1648L65.0672 28.7841L65.3592 28.3766L65.6239 27.9605L65.8613 27.5177L66.0528 27.0659L66.2263 26.6056L66.3541 26.1272L66.4454 25.6401L66.5092 25.1532L66.5367 24.6572L66.5184 24.1702Z" fill="#020303"/>
<path fill-rule="evenodd" clip-rule="evenodd" d="M85.1453 24.1702L85.0997 23.6742L85.0176 23.196L84.8897 22.7177L84.7437 22.2484L84.552 21.7879L84.3239 21.3452L84.0775 20.9201L83.7855 20.5127L83.4751 20.1231L83.1376 19.76L82.7631 19.4236L82.3707 19.1046L81.9601 18.8212L81.5311 18.5643L81.0749 18.3342L80.9653 18.2721L80.874 18.1925L80.7917 18.0861L80.737 17.9799L80.7097 17.8561L80.7006 17.732L80.7189 17.6081L80.7646 17.493L80.8374 17.3777L84.552 12.5868L84.6616 12.4184L84.7256 12.2237L84.7529 12.02V8.70793L84.7346 8.52194L84.6797 8.34488L84.5886 8.18549L84.4609 8.03483L84.3148 7.91971L84.1413 7.83117L83.9588 7.77798L83.7672 7.7605H72.3221L72.1306 7.77798L71.9389 7.83117L71.7746 7.91971L71.6285 8.03483L71.5008 8.18549L71.4093 8.34488L71.3548 8.52194L71.3365 8.70793V10.6915L71.3548 10.8775L71.4093 11.0635L71.5008 11.2231L71.6285 11.3735L71.7746 11.4885L71.9389 11.5772L72.1306 11.6302L72.3221 11.6481H79.4137L79.5415 11.657L79.6692 11.7013L79.788 11.7632L79.8884 11.843L79.9705 11.9403L80.0252 12.0554L80.0616 12.1793L80.0709 12.3122L80.0433 12.4361L80.0069 12.5602L79.9339 12.6664L76.4293 17.183L76.2466 17.7143V20.6987L76.2649 20.8847L76.3197 21.0618L76.411 21.2299L76.5296 21.3716L76.6849 21.4868L76.8581 21.5755L77.0407 21.6285L77.2322 21.6464L77.4241 21.6285L77.7435 21.5844L78.072 21.5666L78.3916 21.5844L78.7108 21.6374L79.0304 21.726L79.3315 21.8411L79.6235 21.9828L79.8884 22.1599L80.1437 22.3635L80.372 22.585L80.5729 22.833L80.7463 23.0986L80.8921 23.382L81.011 23.6742L81.093 23.9842L81.1385 24.2941L81.1478 24.6129L81.1295 24.9229L81.0749 25.2328L80.9927 25.5428L80.874 25.835L80.7189 26.1096L80.5453 26.3752L80.3356 26.6231L80.1073 26.8446L79.8516 27.0395L79.5781 27.2076L79.286 27.3494L78.9847 27.4645L78.6651 27.5443L78.3459 27.5886L78.0173 27.5975L77.6978 27.5796L77.3694 27.5266L77.059 27.4468L76.7577 27.3317L76.4657 27.1811L76.201 27.0129L75.9455 26.8091L75.7173 26.5877L75.5165 26.3398L75.3431 26.074L75.1971 25.7908L75.0784 25.4897L74.9964 25.1887L74.9415 25.0115L74.8503 24.8432L74.7317 24.7014L74.5764 24.5863L74.4123 24.498L74.2296 24.4448L74.038 24.4271H71.9661L71.7836 24.4448L71.6012 24.498L71.4368 24.5774L71.2908 24.6839L71.1722 24.8255L71.0718 24.976L71.008 25.1443L70.9805 25.3213L70.9895 25.5073L71.0808 25.9946L71.1995 26.4726L71.3548 26.9421L71.5465 27.3936L71.7653 27.8365L72.0209 28.2615L72.3038 28.6688L72.6234 29.0586L72.9611 29.4217L73.3352 29.7581L73.7276 30.0682L74.1383 30.3604L74.5764 30.6083L75.0237 30.8387L75.4892 31.0333L75.9729 31.1929L76.4657 31.3169L76.9585 31.4053L77.4697 31.4672L77.9716 31.4851L78.4827 31.4761L78.9847 31.4319L79.4868 31.3433L79.9795 31.2282L80.4633 31.0777L80.9378 30.8917L81.3941 30.6792L81.8322 30.4312L82.2522 30.1569L82.6446 29.8469L83.0187 29.5191L83.3747 29.1648L83.6941 28.7841L83.9862 28.3766L84.2509 27.9605L84.488 27.5177L84.6797 27.0659L84.8533 26.6056L84.981 26.1272L85.0722 25.6401L85.1361 25.1532L85.1636 24.6572L85.1453 24.1702Z" fill="#020303"/>
<path fill-rule="evenodd" clip-rule="evenodd" d="M73.3423 47.5764L73.2887 47.3964L73.1993 47.2253L73.083 47.0813L72.9307 46.9552L72.7697 46.8743L72.5907 46.8113L72.4028 46.7932H60.3676L60.1797 46.8113L60.0005 46.8743L59.8395 46.9552L59.6874 47.0813L59.5712 47.2253L59.4817 47.3964L59.4281 47.5764L59.4102 47.7656V49.7823L59.4281 49.9714L59.4817 50.1516L59.5712 50.3228L59.6874 50.4667L59.8395 50.5837L60.0005 50.6737L60.1797 50.7277L60.3676 50.7459H68.2151L68.3403 50.7639L68.4566 50.7998L68.5639 50.8538L68.6625 50.935L68.7431 51.0249L68.8057 51.1329L68.8414 51.2501L68.8593 51.376L68.8503 51.4932L68.8236 51.6191L62.4525 69.2214L62.4078 69.4015L62.3898 69.5815L62.4168 69.7706L62.4793 69.9418L62.5688 70.1038L62.6852 70.2479L62.8283 70.3649L62.9983 70.446L63.1684 70.4999L63.3564 70.518H65.4859L65.6828 70.4999L65.8706 70.4369L66.0407 70.347L66.1928 70.2118L66.309 70.0587L66.3896 69.8787L73.3066 50.7818L73.3514 50.6107L73.3602 50.4487V47.7656L73.3423 47.5764Z" fill="#1D1D1B"/>
<path fill-rule="evenodd" clip-rule="evenodd" d="M62.8692 70.2983L63.0311 70.3755L63.1914 70.4257L63.3633 70.4404L65.4855 70.44L65.6753 70.4223L65.8457 70.3628L65.9956 70.2823L66.1411 70.1534L66.247 70.0115L66.3184 69.8467L73.2331 50.7552L73.2758 50.5909L73.2823 50.4444L73.2821 47.7657L73.2653 47.5917L73.2139 47.4187L73.1302 47.2617L73.0222 47.1306L72.881 47.0155L72.7346 46.944L72.5736 46.8881L72.3949 46.8709L60.3672 46.8713L60.196 46.8881L60.0257 46.9479L59.8738 47.0249L59.7363 47.1416L59.6309 47.2745L59.5498 47.4328L59.5019 47.5989L59.4869 47.7732L59.4873 49.7824L59.5049 49.9642L59.5555 50.1293L59.6392 50.2863L59.7472 50.4174L59.8862 50.5219L60.0379 50.6054L60.2015 50.6531L60.3745 50.6681L68.2147 50.6678L68.3509 50.6865L68.479 50.7252L68.5982 50.7842L68.711 50.8744L68.8002 50.9728L68.8723 51.0935L68.9152 51.2272L68.9357 51.365L68.9272 51.4991L68.8989 51.6355L62.525 69.2482L62.4825 69.4204L62.4675 69.5798L62.493 69.7597L62.5516 69.9146L62.6361 70.0658L62.7448 70.1986L62.8692 70.2983ZM63.3559 70.5962L63.1605 70.5778L62.9744 70.5204L62.779 70.4255L62.6357 70.3083L62.5082 70.153L62.411 69.9797L62.3435 69.7978L62.3111 69.5832L62.33 69.3938L62.3768 69.2024L68.7501 51.5925L68.774 51.4768L68.7814 51.3701L68.7642 51.2612L68.7311 51.1558L68.6757 51.0645L68.6043 50.9873L68.5145 50.9144L68.4215 50.8696L68.3172 50.8385L68.2036 50.8232L60.3672 50.824L60.1718 50.8056L59.9777 50.7487L59.8013 50.6521L59.6398 50.5286L59.5104 50.3718L59.4126 50.1879L59.3533 49.9939L59.3324 49.7899L59.332 47.7657L59.3503 47.5692L59.4069 47.3741L59.5021 47.189L59.6267 47.032L59.7899 46.8949L59.9655 46.8045L60.1718 46.7335L60.3598 46.7155L72.4023 46.7151L72.6158 46.7374L72.7949 46.8005L72.9649 46.8855L73.1318 47.021L73.259 47.1762L73.3568 47.3601L73.4191 47.5692L73.437 47.7583L73.4374 50.4487L73.4283 50.6151L73.3812 50.8017L66.462 69.9055L66.3794 70.0909L66.254 70.2592L66.0764 70.416L65.9063 70.5059L65.7069 70.5741L65.4925 70.5959L63.3559 70.5962Z" fill="#1D1D1B"/>
<path fill-rule="evenodd" clip-rule="evenodd" d="M90.6548 47.5764L90.6012 47.3964L90.5118 47.2253L90.3955 47.0813L90.2432 46.9552L90.0822 46.8743L89.9032 46.8113L89.7153 46.7932H77.6801L77.4922 46.8113L77.313 46.8743L77.152 46.9552L76.9999 47.0813L76.8837 47.2253L76.7942 47.3964L76.7406 47.5764L76.7227 47.7656V49.7823L76.7406 49.9714L76.7942 50.1516L76.8837 50.3228L76.9999 50.4667L77.152 50.5837L77.313 50.6737L77.4922 50.7277L77.6801 50.7459H85.5276L85.6528 50.7639L85.7691 50.7998L85.8764 50.8538L85.975 50.935L86.0556 51.0249L86.1182 51.1329L86.1539 51.2501L86.1718 51.376L86.1628 51.4932L86.1361 51.6191L79.765 69.2214L79.7203 69.4015L79.7023 69.5815L79.7291 69.7706L79.7918 69.9418L79.8813 70.1038L79.9977 70.2479L80.1408 70.3649L80.3108 70.446L80.4809 70.4999L80.6689 70.518H82.7984L82.9953 70.4999L83.1831 70.4369L83.3532 70.347L83.5053 70.2118L83.6215 70.0587L83.7021 69.8787L90.6191 50.7818L90.6639 50.6107L90.6727 50.4487V47.7656L90.6548 47.5764Z" fill="#1D1D1B"/>
<path fill-rule="evenodd" clip-rule="evenodd" d="M80.1817 70.2983L80.3436 70.3755L80.5039 70.4257L80.6758 70.4404L82.798 70.44L82.9878 70.4223L83.1582 70.3628L83.3081 70.2823L83.4536 70.1534L83.5595 70.0115L83.6309 69.8467L90.5456 50.7552L90.5883 50.5909L90.5948 50.4444L90.5946 47.7657L90.5778 47.5917L90.5264 47.4187L90.4427 47.2617L90.3347 47.1306L90.1935 47.0155L90.0471 46.944L89.8861 46.8881L89.7074 46.8709L77.6797 46.8713L77.5085 46.8881L77.3382 46.9479L77.1863 47.0249L77.0488 47.1416L76.9434 47.2745L76.8623 47.4328L76.8144 47.5989L76.7994 47.7732L76.7998 49.7824L76.8174 49.9642L76.868 50.1293L76.9517 50.2863L77.0597 50.4174L77.1987 50.5219L77.3504 50.6054L77.514 50.6531L77.687 50.6681L85.5272 50.6678L85.6634 50.6865L85.7915 50.7252L85.9107 50.7842L86.0235 50.8744L86.1127 50.9728L86.1848 51.0935L86.2277 51.2272L86.2482 51.365L86.2397 51.4991L86.2114 51.6355L79.8375 69.2482L79.795 69.4204L79.78 69.5798L79.8055 69.7597L79.8641 69.9146L79.9486 70.0658L80.0573 70.1986L80.1817 70.2983ZM80.6684 70.5962L80.473 70.5778L80.2869 70.5204L80.0915 70.4255L79.9482 70.3083L79.8207 70.153L79.7235 69.9797L79.6558 69.7978L79.6236 69.5832L79.6425 69.3938L79.6893 69.2024L86.0626 51.5925L86.0865 51.4768L86.0939 51.3701L86.0767 51.2612L86.0436 51.1558L85.9882 51.0645L85.9168 50.9873L85.827 50.9144L85.734 50.8696L85.6297 50.8385L85.5161 50.8232L77.6797 50.824L77.4843 50.8056L77.2902 50.7487L77.1138 50.6521L76.9523 50.5286L76.8229 50.3718L76.7251 50.1879L76.6658 49.9939L76.6449 49.7899L76.6445 47.7657L76.6628 47.5692L76.7194 47.3741L76.8146 47.189L76.9392 47.032L77.1024 46.8949L77.278 46.8045L77.4843 46.7335L77.6723 46.7155L89.7148 46.7151L89.9283 46.7374L90.1074 46.8005L90.2774 46.8855L90.4443 47.021L90.5715 47.1762L90.6693 47.3601L90.7316 47.5692L90.7495 47.7583L90.7499 50.4487L90.7408 50.6151L90.6937 50.8017L83.7745 69.9055L83.6919 70.0909L83.5665 70.2592L83.3889 70.416L83.2188 70.5059L83.0194 70.5741L82.805 70.5959L80.6684 70.5962Z" fill="#1D1D1B"/>
<path fill-rule="evenodd" clip-rule="evenodd" d="M19.8921 60.5821L19.856 60.7095L19.8019 60.8274L19.7206 60.9273L19.6213 61.0092L19.5037 61.0821L19.3864 61.1183L19.2511 61.1274H15.0971L14.9706 61.1183L14.844 61.0821L14.7267 61.0092L14.6274 60.9273L14.5551 60.8274L14.4919 60.7095L14.4649 60.5821L14.4559 60.446L14.474 60.3186L16.5599 52.5133L16.605 52.3952L16.6682 52.2862L16.7586 52.1953L16.8669 52.1136L16.9843 52.0682L17.1108 52.0409H17.2372L17.3636 52.0682L17.481 52.1136L17.5893 52.1953L17.6797 52.2862L17.7518 52.3952L17.7971 52.5133L19.874 60.3186L19.8921 60.446V60.5821ZM26.2856 69.1144L20.4791 47.3251L20.4159 47.1523L20.3255 46.9979L20.2082 46.8614L20.0638 46.7526L19.9011 46.6708L19.7296 46.6254L19.549 46.6072H14.7989L14.6183 46.6254L14.4468 46.6708L14.2843 46.7526L14.1488 46.8614L14.0224 46.9979L13.932 47.1523L13.8688 47.3251L8.0712 69.1144L8.03516 69.3051L8.04421 69.5052L8.08932 69.696L8.1797 69.8686L8.29708 70.023L8.44163 70.1502L8.61316 70.2501L8.80281 70.3137L9.00151 70.3319H11.0695L11.2501 70.3137L11.4217 70.2592L11.5841 70.1775L11.7287 70.0686L11.8461 69.932L11.9363 69.7777L11.9995 69.6142L13.0832 65.5615L13.1193 65.4526L13.1825 65.3435L13.2638 65.2525L13.3631 65.18L13.4625 65.1255L13.5799 65.0982L13.6973 65.0799H20.6507L20.7681 65.0982L20.8854 65.1255L20.9938 65.18L21.0841 65.2525L21.1655 65.3435L21.2287 65.4526L21.2738 65.5615L22.3485 69.6142L22.4117 69.7777L22.5019 69.932L22.6193 70.0686L22.7638 70.1775L22.9265 70.2592L23.098 70.3137L23.2786 70.3319H25.3555L25.5451 70.3137L25.7348 70.2501L25.9065 70.1502L26.0509 70.023L26.1682 69.8686L26.2586 69.696L26.3037 69.5052L26.3128 69.3051L26.2856 69.1144Z" fill="#020303"/>
<path fill-rule="evenodd" clip-rule="evenodd" d="M40.2593 60.5821L40.2232 60.7095L40.1691 60.8274L40.0877 60.9273L39.9883 61.0092L39.8709 61.0821L39.7535 61.1183L39.6181 61.1274H35.4641L35.3376 61.1183L35.2112 61.0821L35.0938 61.0092L34.9946 60.9273L34.9223 60.8274L34.8591 60.7095L34.8319 60.5821L34.8229 60.446L34.8412 60.3186L36.9271 52.5133L36.9722 52.3952L37.0354 52.2862L37.1256 52.1953L37.2341 52.1136L37.3515 52.0682L37.4779 52.0409H37.6044L37.7308 52.0682L37.8482 52.1136L37.9565 52.1953L38.0469 52.2862L38.119 52.3952L38.1643 52.5133L40.2412 60.3186L40.2593 60.446V60.5821ZM46.6528 69.1144L40.8463 47.3251L40.7829 47.1523L40.6927 46.9979L40.5754 46.8614L40.4308 46.7526L40.2683 46.6708L40.0968 46.6254L39.9162 46.6072H35.1661L34.9855 46.6254L34.814 46.6708L34.6513 46.7526L34.516 46.8614L34.3896 46.9979L34.2992 47.1523L34.236 47.3251L28.4384 69.1144L28.4023 69.3051L28.4114 69.5052L28.4565 69.696L28.5469 69.8686L28.6643 70.023L28.8086 70.1502L28.9802 70.2501L29.1698 70.3137L29.3687 70.3319H31.4365L31.6171 70.3137L31.7887 70.2592L31.9513 70.1775L32.0957 70.0686L32.2132 69.932L32.3035 69.7777L32.3667 69.6142L33.4504 65.5615L33.4864 65.4526L33.5497 65.3435L33.631 65.2525L33.7303 65.18L33.8295 65.1255L33.9471 65.0982L34.0645 65.0799H41.0179L41.1352 65.0982L41.2526 65.1255L41.3609 65.18L41.4513 65.2525L41.5327 65.3435L41.5957 65.4526L41.641 65.5615L42.7157 69.6142L42.7787 69.7777L42.8691 69.932L42.9864 70.0686L43.131 70.1775L43.2935 70.2592L43.465 70.3137L43.6456 70.3319H45.7227L45.9123 70.3137L46.102 70.2501L46.2735 70.1502L46.4181 70.023L46.5354 69.8686L46.6256 69.696L46.6709 69.5052L46.6798 69.3051L46.6528 69.1144Z" fill="#020303"/>
</g>
</svg>
