<svg width="86" height="50" viewBox="0 0 86 50" fill="none" xmlns="http://www.w3.org/2000/svg">
<path fill-rule="evenodd" clip-rule="evenodd" d="M67.2861 42.6737H23.1816L21.0762 27.5819L24.7606 19.1315L41.3813 17.9081H67.2861V42.6737Z" fill="#FEFEFE"/>
<path fill-rule="evenodd" clip-rule="evenodd" d="M23.8888 41.8655H66.4755V18.7162H41.4119L25.3102 19.9015L21.912 27.6955L23.8888 41.8655ZM67.2869 43.4819H23.1824C22.7775 43.4819 22.4346 43.1844 22.3787 42.7849L20.2733 27.6931C20.2529 27.546 20.2734 27.3962 20.3328 27.26L24.0172 18.8096C24.1374 18.534 24.4009 18.3476 24.7016 18.3255L41.3222 17.102C41.3421 17.1006 41.362 17.0999 41.382 17.0999H67.2869C67.7349 17.0999 68.0982 17.4616 68.0982 17.908V42.6737C68.0982 43.1201 67.7349 43.4819 67.2869 43.4819Z" fill="#1D1D1B"/>
<mask id="mask0" mask-type="alpha" maskUnits="userSpaceOnUse" x="0" y="0" width="86" height="50">
<path fill-rule="evenodd" clip-rule="evenodd" d="M0 49.9016H85.9489V0.107788H0V49.9016Z" fill="white"/>
</mask>
<g mask="url(#mask0)">
<path fill-rule="evenodd" clip-rule="evenodd" d="M50.8164 23.5428H67.2902V4.85327H50.8164V23.5428Z" fill="#FEFEFE"/>
<path fill-rule="evenodd" clip-rule="evenodd" d="M51.6265 22.7346H66.4777V5.66141H51.6265V22.7346ZM67.289 24.351H50.8152C50.3672 24.351 50.0039 23.9891 50.0039 23.5428V4.85311C50.0039 4.40678 50.3672 4.04492 50.8152 4.04492H67.289C67.7372 4.04492 68.1004 4.40678 68.1004 4.85311V23.5428C68.1004 23.9891 67.7372 24.351 67.289 24.351Z" fill="#1D1D1B"/>
<path fill-rule="evenodd" clip-rule="evenodd" d="M40.8732 18.7162C40.425 18.7162 40.0619 18.3545 40.0619 17.908V5.06891C40.0619 4.96988 39.9779 4.88615 39.8785 4.88615H38.6394C38.1913 4.88615 37.8281 4.52441 37.8281 4.07797C37.8281 3.63163 38.1913 3.26978 38.6394 3.26978H39.8785C40.8744 3.26978 41.6845 4.07678 41.6845 5.06891V17.908C41.6845 18.3545 41.3213 18.7162 40.8732 18.7162Z" fill="#1D1D1B"/>
<path fill-rule="evenodd" clip-rule="evenodd" d="M41.4779 14.8182H40.2388C39.6917 14.8182 39.2441 14.3723 39.2441 13.8274V9.60963C39.2441 9.06469 39.6917 8.6189 40.2388 8.6189H41.4779C42.0249 8.6189 42.4724 9.06469 42.4724 9.60963V13.8274C42.4724 14.3723 42.0249 14.8182 41.4779 14.8182Z" fill="#FEFEFE"/>
<path fill-rule="evenodd" clip-rule="evenodd" d="M40.2376 9.42705C40.1382 9.42705 40.0543 9.51067 40.0543 9.60959V13.8274C40.0543 13.9264 40.1382 14.01 40.2376 14.01H41.4767C41.576 14.01 41.6599 13.9264 41.6599 13.8274V9.60959C41.6599 9.51067 41.576 9.42705 41.4767 9.42705H40.2376ZM41.4767 15.6264H40.2376C39.2418 15.6264 38.4316 14.8194 38.4316 13.8274V9.60959C38.4316 8.61767 39.2418 7.81067 40.2376 7.81067H41.4767C42.4725 7.81067 43.2826 8.61767 43.2826 9.60959V13.8274C43.2826 14.8194 42.4725 15.6264 41.4767 15.6264Z" fill="#1D1D1B"/>
<path fill-rule="evenodd" clip-rule="evenodd" d="M55.8501 17.9081H52.7715V6.90259H57.8711V15.5289L55.8501 17.9081Z" fill="#FEFEFE"/>
<path fill-rule="evenodd" clip-rule="evenodd" d="M53.5836 17.0999H55.4745L57.0606 15.2328V7.71074H53.5836V17.0999ZM55.8508 18.7162H52.7723C52.3241 18.7162 51.9609 18.3545 51.9609 17.908V6.90255C51.9609 6.45621 52.3241 6.09436 52.7723 6.09436H57.8719C58.32 6.09436 58.6832 6.45621 58.6832 6.90255V15.5288C58.6832 15.7199 58.6152 15.9049 58.4912 16.0509L56.4703 18.4301C56.3161 18.6115 56.0895 18.7162 55.8508 18.7162Z" fill="#1D1D1B"/>
<path fill-rule="evenodd" clip-rule="evenodd" d="M59.9395 14.1578H65.284V6.90259H59.9395V14.1578Z" fill="#FEFEFE"/>
<path fill-rule="evenodd" clip-rule="evenodd" d="M60.7496 13.3495H64.4715V7.71074H60.7496V13.3495ZM65.2828 14.9659H59.9383C59.4902 14.9659 59.127 14.6041 59.127 14.1577V6.90255C59.127 6.45611 59.4902 6.09436 59.9383 6.09436H65.2828C65.731 6.09436 66.0941 6.45611 66.0941 6.90255V14.1577C66.0941 14.6041 65.731 14.9659 65.2828 14.9659Z" fill="#1D1D1B"/>
<path fill-rule="evenodd" clip-rule="evenodd" d="M77.0024 40.9288L77.0026 40.9284L76.9951 40.9219C76.8759 40.8064 76.7507 40.6973 76.6199 40.5946L60.993 26.9664L60.9906 26.966C60.1539 26.2479 59.0655 25.8127 57.8743 25.8127C57.0555 25.8127 56.285 26.0182 55.6115 26.3797L26.2929 39.8719C26.0666 39.956 25.8484 40.0568 25.6396 40.1726L25.6327 40.1759L25.6329 40.1765C24.1708 40.9904 23.1816 42.5466 23.1816 44.3336C23.1816 46.9623 25.3209 49.0935 27.96 49.0935H73.2238L73.2332 49.0732C73.3755 49.0858 73.5192 49.0935 73.6647 49.0935C76.3037 49.0935 78.443 46.9623 78.443 44.3336C78.443 42.9988 77.8908 41.7931 77.0024 40.9288Z" fill="#FEFEFE"/>
<path fill-rule="evenodd" clip-rule="evenodd" d="M73.2338 48.2651C73.2578 48.2651 73.2819 48.2662 73.3061 48.2682C73.435 48.2797 73.5526 48.2852 73.6656 48.2852C75.853 48.2852 77.6325 46.5126 77.6325 44.3337C77.6325 43.2614 77.2078 42.2577 76.4366 41.5073C76.4344 41.5052 76.4322 41.5031 76.4304 41.5013C76.3325 41.4065 76.2275 41.3151 76.1187 41.2297C76.1077 41.221 76.0969 41.2121 76.0863 41.2028L60.4908 27.6019C60.481 27.5944 60.4714 27.5865 60.462 27.5783C59.7426 26.961 58.8238 26.621 57.875 26.621C57.2199 26.621 56.5705 26.7835 55.9972 27.0913C55.9825 27.0991 55.9678 27.1065 55.9526 27.1135L26.6341 40.6057C26.6154 40.6143 26.5962 40.6222 26.5769 40.6294C26.3945 40.6971 26.2142 40.7799 26.0408 40.8758C26.0371 40.8778 26.0333 40.88 26.0296 40.882C24.7738 41.5811 23.9937 42.9038 23.9937 44.3337C23.9937 46.5126 25.7734 48.2852 27.9608 48.2852H73.0535C73.1121 48.272 73.1724 48.2651 73.2338 48.2651ZM73.6656 49.9017C73.5622 49.9017 73.4575 49.8985 73.349 49.8922C73.3082 49.8984 73.2668 49.9017 73.2247 49.9017H27.9608C24.8786 49.9017 22.3711 47.4039 22.3711 44.3337C22.3711 42.3309 23.4566 40.4777 25.2064 39.4888C25.2256 39.4768 25.2457 39.4657 25.2661 39.4553C25.497 39.3286 25.737 39.2179 25.9805 39.1259L55.2505 25.656C56.0539 25.2297 56.9608 25.0046 57.875 25.0046C59.1977 25.0046 60.4786 25.4732 61.4872 26.325C61.5013 26.3357 61.5149 26.3468 61.5282 26.3584L77.1398 39.9734C77.2855 40.0886 77.4263 40.2118 77.5585 40.3396C77.5624 40.3432 77.5662 40.3471 77.57 40.3508L77.5701 40.3507C78.6567 41.4078 79.2552 42.8223 79.2552 44.3337C79.2552 47.4039 76.7477 49.9017 73.6656 49.9017Z" fill="#1D1D1B"/>
<path fill-rule="evenodd" clip-rule="evenodd" d="M30.6953 44.3337C30.6953 45.8385 29.4706 47.0584 27.96 47.0584C26.4492 47.0584 25.2246 45.8385 25.2246 44.3337C25.2246 42.8287 26.4492 41.6088 27.96 41.6088C29.4706 41.6088 30.6953 42.8287 30.6953 44.3337Z" fill="#FEFEFE"/>
<path fill-rule="evenodd" clip-rule="evenodd" d="M27.9607 42.4169C26.8997 42.4169 26.0367 43.2767 26.0367 44.3336C26.0367 45.3905 26.8997 46.2502 27.9607 46.2502C29.0217 46.2502 29.8847 45.3905 29.8847 44.3336C29.8847 43.2767 29.0217 42.4169 27.9607 42.4169ZM27.9607 47.8666C26.0051 47.8666 24.4141 46.2817 24.4141 44.3336C24.4141 42.3855 26.0051 40.8005 27.9607 40.8005C29.9163 40.8005 31.5074 42.3855 31.5074 44.3336C31.5074 46.2817 29.9163 47.8666 27.9607 47.8666Z" fill="#1D1D1B"/>
<path fill-rule="evenodd" clip-rule="evenodd" d="M76.4005 44.3337C76.4005 45.8385 75.1758 47.0584 73.6651 47.0584C72.1543 47.0584 70.9297 45.8385 70.9297 44.3337C70.9297 42.8287 72.1543 41.6088 73.6651 41.6088C75.1758 41.6088 76.4005 42.8287 76.4005 44.3337Z" fill="#FEFEFE"/>
<path fill-rule="evenodd" clip-rule="evenodd" d="M73.664 42.4169C72.603 42.4169 71.7398 43.2767 71.7398 44.3336C71.7398 45.3905 72.603 46.2502 73.664 46.2502C74.7249 46.2502 75.588 45.3905 75.588 44.3336C75.588 43.2767 74.7249 42.4169 73.664 42.4169ZM73.664 47.8666C71.7082 47.8666 70.1172 46.2817 70.1172 44.3336C70.1172 42.3855 71.7082 40.8005 73.664 40.8005C75.6196 40.8005 77.2106 42.3855 77.2106 44.3336C77.2106 46.2817 75.6196 47.8666 73.664 47.8666Z" fill="#1D1D1B"/>
<path fill-rule="evenodd" clip-rule="evenodd" d="M66.0257 45.8199C66.0257 46.5039 65.469 47.0585 64.7823 47.0585C64.0956 47.0585 63.5391 46.5039 63.5391 45.8199C63.5391 45.1358 64.0956 44.5814 64.7823 44.5814C65.469 44.5814 66.0257 45.1358 66.0257 45.8199Z" fill="#FEFEFE"/>
<path fill-rule="evenodd" clip-rule="evenodd" d="M64.7831 45.3896C64.5449 45.3896 64.3512 45.5826 64.3512 45.8199C64.3512 46.0571 64.5449 46.2502 64.7831 46.2502C65.0213 46.2502 65.2152 46.0571 65.2152 45.8199C65.2152 45.5826 65.0213 45.3896 64.7831 45.3896ZM64.7831 47.8666C63.6502 47.8666 62.7285 46.9485 62.7285 45.8199C62.7285 44.6914 63.6502 43.7732 64.7831 43.7732C65.9161 43.7732 66.8378 44.6914 66.8378 45.8199C66.8378 46.9485 65.9161 47.8666 64.7831 47.8666Z" fill="#1D1D1B"/>
<path fill-rule="evenodd" clip-rule="evenodd" d="M61.639 45.8199C61.639 46.5039 61.0823 47.0585 60.3957 47.0585C59.709 47.0585 59.1523 46.5039 59.1523 45.8199C59.1523 45.1358 59.709 44.5814 60.3957 44.5814C61.0823 44.5814 61.639 45.1358 61.639 45.8199Z" fill="#FEFEFE"/>
<path fill-rule="evenodd" clip-rule="evenodd" d="M60.3965 45.3896C60.1583 45.3896 59.9644 45.5826 59.9644 45.8199C59.9644 46.0571 60.1583 46.2502 60.3965 46.2502C60.6347 46.2502 60.8284 46.0571 60.8284 45.8199C60.8284 45.5826 60.6347 45.3896 60.3965 45.3896ZM60.3965 47.8666C59.2635 47.8666 58.3418 46.9485 58.3418 45.8199C58.3418 44.6914 59.2635 43.7732 60.3965 43.7732C61.5294 43.7732 62.4511 44.6914 62.4511 45.8199C62.4511 46.9485 61.5294 47.8666 60.3965 47.8666Z" fill="#1D1D1B"/>
<path fill-rule="evenodd" clip-rule="evenodd" d="M42.473 45.8199C42.473 46.5039 41.9163 47.0585 41.2297 47.0585C40.543 47.0585 39.9863 46.5039 39.9863 45.8199C39.9863 45.1358 40.543 44.5814 41.2297 44.5814C41.9163 44.5814 42.473 45.1358 42.473 45.8199Z" fill="#FEFEFE"/>
<path fill-rule="evenodd" clip-rule="evenodd" d="M41.2285 45.3896C40.9903 45.3896 40.7965 45.5826 40.7965 45.8199C40.7965 46.0571 40.9903 46.2502 41.2285 46.2502C41.4667 46.2502 41.6605 46.0571 41.6605 45.8199C41.6605 45.5826 41.4667 45.3896 41.2285 45.3896ZM41.2285 47.8666C40.0955 47.8666 39.1738 46.9485 39.1738 45.8199C39.1738 44.6914 40.0955 43.7732 41.2285 43.7732C42.3615 43.7732 43.2831 44.6914 43.2831 45.8199C43.2831 46.9485 42.3615 47.8666 41.2285 47.8666Z" fill="#1D1D1B"/>
<path fill-rule="evenodd" clip-rule="evenodd" d="M38.0863 45.8199C38.0863 46.5039 37.5296 47.0585 36.8429 47.0585C36.1562 47.0585 35.5996 46.5039 35.5996 45.8199C35.5996 45.1358 36.1562 44.5814 36.8429 44.5814C37.5296 44.5814 38.0863 45.1358 38.0863 45.8199Z" fill="#FEFEFE"/>
<path fill-rule="evenodd" clip-rule="evenodd" d="M36.8417 45.3896C36.6035 45.3896 36.4098 45.5826 36.4098 45.8199C36.4098 46.0571 36.6035 46.2502 36.8417 46.2502C37.0799 46.2502 37.2738 46.0571 37.2738 45.8199C37.2738 45.5826 37.0799 45.3896 36.8417 45.3896ZM36.8417 47.8666C35.7088 47.8666 34.7871 46.9485 34.7871 45.8199C34.7871 44.6914 35.7088 43.7732 36.8417 43.7732C37.9747 43.7732 38.8964 44.6914 38.8964 45.8199C38.8964 46.9485 37.9747 47.8666 36.8417 47.8666Z" fill="#1D1D1B"/>
<path fill-rule="evenodd" clip-rule="evenodd" d="M54.2485 45.8199C54.2485 46.5039 53.6918 47.0585 53.0051 47.0585C52.3184 47.0585 51.7617 46.5039 51.7617 45.8199C51.7617 45.1358 52.3184 44.5814 53.0051 44.5814C53.6918 44.5814 54.2485 45.1358 54.2485 45.8199Z" fill="#FEFEFE"/>
<path fill-rule="evenodd" clip-rule="evenodd" d="M53.0059 45.3896C52.7677 45.3896 52.5738 45.5826 52.5738 45.8199C52.5738 46.0571 52.7677 46.2502 53.0059 46.2502C53.2441 46.2502 53.4379 46.0571 53.4379 45.8199C53.4379 45.5826 53.2441 45.3896 53.0059 45.3896ZM53.0059 47.8666C51.8728 47.8666 50.9512 46.9485 50.9512 45.8199C50.9512 44.6914 51.8728 43.7732 53.0059 43.7732C54.1389 43.7732 55.0606 44.6914 55.0606 45.8199C55.0606 46.9485 54.1389 47.8666 53.0059 47.8666Z" fill="#1D1D1B"/>
<path fill-rule="evenodd" clip-rule="evenodd" d="M49.8636 45.8199C49.8636 46.5039 49.3069 47.0585 48.6202 47.0585C47.9335 47.0585 47.377 46.5039 47.377 45.8199C47.377 45.1358 47.9335 44.5814 48.6202 44.5814C49.3069 44.5814 49.8636 45.1358 49.8636 45.8199Z" fill="#FEFEFE"/>
<path fill-rule="evenodd" clip-rule="evenodd" d="M48.619 45.3896C48.3808 45.3896 48.1871 45.5826 48.1871 45.8199C48.1871 46.0571 48.3808 46.2502 48.619 46.2502C48.8572 46.2502 49.0511 46.0571 49.0511 45.8199C49.0511 45.5826 48.8572 45.3896 48.619 45.3896ZM48.619 47.8666C47.4861 47.8666 46.5645 46.9485 46.5645 45.8199C46.5645 44.6914 47.4861 43.7732 48.619 43.7732C49.7521 43.7732 50.6737 44.6914 50.6737 45.8199C50.6737 46.9485 49.7521 47.8666 48.619 47.8666Z" fill="#1D1D1B"/>
<path fill-rule="evenodd" clip-rule="evenodd" d="M60.6095 30.5727C60.6095 32.0775 59.3848 33.2975 57.874 33.2975C56.3633 33.2975 55.1387 32.0775 55.1387 30.5727C55.1387 29.0678 56.3633 27.8479 57.874 27.8479C59.3848 27.8479 60.6095 29.0678 60.6095 30.5727Z" fill="#FEFEFE"/>
<path fill-rule="evenodd" clip-rule="evenodd" d="M57.8748 28.6561C56.8138 28.6561 55.9508 29.5159 55.9508 30.5726C55.9508 31.6295 56.8138 32.4892 57.8748 32.4892C58.9358 32.4892 59.7989 31.6295 59.7989 30.5726C59.7989 29.5159 58.9358 28.6561 57.8748 28.6561ZM57.8748 34.1056C55.9192 34.1056 54.3281 32.5207 54.3281 30.5726C54.3281 28.6246 55.9192 27.0397 57.8748 27.0397C59.8305 27.0397 61.4216 28.6246 61.4216 30.5726C61.4216 32.5207 59.8305 34.1056 57.8748 34.1056Z" fill="#1D1D1B"/>
<path fill-rule="evenodd" clip-rule="evenodd" d="M67.2899 4.85311H50.6977L48.8555 1.68555H67.2899V4.85311Z" fill="#FEFEFE"/>
<path fill-rule="evenodd" clip-rule="evenodd" d="M51.1641 4.04501H66.4774V2.49382H50.2619L51.1641 4.04501ZM67.2888 5.66139H50.6966C50.4071 5.66139 50.1396 5.50783 49.9945 5.25837L48.1523 2.0908C48.0068 1.8408 48.0066 1.53251 48.1513 1.28208C48.2962 1.03175 48.5642 0.877441 48.8542 0.877441H67.2888C67.7368 0.877441 68.1001 1.23929 68.1001 1.68563V4.8532C68.1001 5.29964 67.7368 5.66139 67.2888 5.66139Z" fill="#1D1D1B"/>
<path fill-rule="evenodd" clip-rule="evenodd" d="M7.10624 16.8037L9.63194 24.4412L4.98242 43.5234H13.2119V24.4412L7.10624 16.8037Z" fill="#FEFEFE"/>
<path fill-rule="evenodd" clip-rule="evenodd" d="M6.01496 42.7152H12.4014V24.7236L9.29551 20.8386L10.4031 24.1883C10.4506 24.3316 10.4568 24.4852 10.421 24.6318L6.01496 42.7152ZM13.2127 44.3316H4.98318C4.73426 44.3316 4.4992 44.2178 4.34537 44.023C4.19165 43.8281 4.13605 43.5737 4.19479 43.3328L8.78946 24.4748L6.33646 17.0566C6.21346 16.6848 6.37562 16.2787 6.72124 16.0926C7.06708 15.9067 7.49687 15.994 7.74167 16.3003L13.8473 23.9378C13.9617 24.0807 14.024 24.2583 14.024 24.4412V43.5234C14.024 43.9699 13.6608 44.3316 13.2127 44.3316Z" fill="#1D1D1B"/>
<path fill-rule="evenodd" clip-rule="evenodd" d="M67.2895 42.4611L13.207 38.1792V34.4152L50.8158 33.3666L67.2895 38.2602V42.4611Z" fill="#FEFEFE"/>
<path fill-rule="evenodd" clip-rule="evenodd" d="M14.0191 37.4327L66.4789 41.5861V38.8626L50.7093 34.178L14.0191 35.2011V37.4327ZM67.2902 43.2693C67.2689 43.2693 67.2475 43.2685 67.226 43.2668L13.1435 38.9848C12.7218 38.9515 12.3965 38.6008 12.3965 38.1792V34.4152C12.3965 33.9776 12.746 33.6195 13.1851 33.6074L50.7938 32.5588C50.8797 32.556 50.9658 32.5677 51.0485 32.5921L67.5222 37.4857C67.8659 37.5879 68.1016 37.9028 68.1016 38.2603V42.4611C68.1016 42.6867 68.007 42.9019 67.8407 43.0549C67.6903 43.1932 67.4935 43.2693 67.2902 43.2693Z" fill="#1D1D1B"/>
<path fill-rule="evenodd" clip-rule="evenodd" d="M20.9993 27.6899L19.444 26.9902L17.8887 26.2906L23.9306 12.9636L27.0413 14.363L20.9993 27.6899Z" fill="#FEFEFE"/>
<path fill-rule="evenodd" clip-rule="evenodd" d="M18.9627 25.8867L20.5946 26.6207L25.9688 14.7669L24.3368 14.0328L18.9627 25.8867ZM21 28.4981C20.8859 28.4981 20.7721 28.4742 20.6661 28.4264L17.5555 27.0271C17.3595 26.9389 17.2065 26.7767 17.1306 26.5761C17.0544 26.3757 17.0614 26.1533 17.15 25.9579L23.192 12.6309C23.3763 12.2243 23.8566 12.0431 24.2653 12.2271L27.3759 13.6265C27.5721 13.7147 27.725 13.8769 27.801 14.0774C27.877 14.2779 27.8701 14.5003 27.7814 14.6956L21.7394 28.0225C21.6509 28.2179 21.488 28.3703 21.2867 28.4459C21.1942 28.4807 21.0971 28.4981 21 28.4981Z" fill="#1D1D1B"/>
<path fill-rule="evenodd" clip-rule="evenodd" d="M16.1211 34.3208L19.4446 26.9902L16.1211 34.3208Z" fill="#FEFEFE"/>
<path fill-rule="evenodd" clip-rule="evenodd" d="M16.1196 35.1293C16.008 35.1293 15.8946 35.1062 15.7862 35.0574C15.3778 34.8738 15.1963 34.3951 15.3807 33.9882L18.7042 26.6576C18.8885 26.2508 19.369 26.0697 19.7774 26.2537C20.1859 26.4374 20.3674 26.916 20.183 27.3229L16.8595 34.6535C16.724 34.9523 16.4286 35.1293 16.1196 35.1293Z" fill="#1D1D1B"/>
<path fill-rule="evenodd" clip-rule="evenodd" d="M27.2806 12.9879C26.9722 13.6681 26.1687 13.9704 25.4859 13.6633C24.8032 13.3561 24.4997 12.5557 24.8081 11.8756C25.1163 11.1954 25.9198 10.8932 26.6025 11.2003C27.2854 11.5075 27.589 12.3077 27.2806 12.9879Z" fill="#FEFEFE"/>
<path fill-rule="evenodd" clip-rule="evenodd" d="M26.0448 11.8884C25.9797 11.8884 25.9146 11.9001 25.852 11.9237C25.7158 11.975 25.6078 12.076 25.5479 12.2081C25.4241 12.4812 25.5464 12.8034 25.8203 12.9268C25.9529 12.9863 26.1012 12.991 26.2373 12.9398C26.3735 12.8885 26.4816 12.7875 26.5416 12.6552C26.6015 12.5231 26.6061 12.3756 26.5547 12.2399C26.5032 12.1041 26.4018 11.9966 26.269 11.9368C26.1974 11.9046 26.1212 11.8884 26.0448 11.8884ZM26.0437 14.5924C25.7402 14.5924 25.4373 14.528 25.1524 14.3998C24.0631 13.9097 23.577 12.628 24.069 11.5429C24.3073 11.0173 24.7368 10.6154 25.2785 10.4117C25.8204 10.2078 26.4091 10.2262 26.9369 10.4637C27.4647 10.7011 27.868 11.129 28.0726 11.6686C28.2773 12.2082 28.2587 12.7949 28.0204 13.3205C27.782 13.8463 27.3525 14.248 26.8107 14.4519C26.5615 14.5456 26.3023 14.5924 26.0437 14.5924Z" fill="#1D1D1B"/>
<path fill-rule="evenodd" clip-rule="evenodd" d="M19.4267 13.292C19.2231 13.292 19.0566 13.1262 19.0566 12.9234V9.23693C19.0566 9.03413 19.2231 8.86829 19.4267 8.86829H19.8203C21.0465 8.86829 22.0407 9.85859 22.0407 11.0801C22.0407 12.3018 21.0465 13.292 19.8203 13.292H19.4267Z" fill="#FEFEFE"/>
<path fill-rule="evenodd" clip-rule="evenodd" d="M19.8687 9.67742V12.483C20.6237 12.4579 21.2301 11.8383 21.2301 11.0802C21.2301 10.3221 20.6237 9.70253 19.8687 9.67742ZM19.821 14.1003H19.4275C18.776 14.1003 18.2461 13.5724 18.2461 12.9234V9.23701C18.2461 8.5882 18.776 8.06018 19.4275 8.06018H19.821C21.4928 8.06018 22.8528 9.41492 22.8528 11.0802C22.8528 12.7455 21.4928 14.1003 19.821 14.1003Z" fill="#1D1D1B"/>
<path fill-rule="evenodd" clip-rule="evenodd" d="M84.0982 30.4895H81.4712L77.033 22.7563H70.5176V15.5289H84.0982V30.4895Z" fill="#FEFEFE"/>
<path fill-rule="evenodd" clip-rule="evenodd" d="M81.9407 29.6814H83.2857V16.3372H71.3277V21.9482H77.0318C77.3228 21.9482 77.5918 22.1036 77.7362 22.3553L81.9407 29.6814ZM84.097 31.2978H81.4699C81.1789 31.2978 80.9101 31.1425 80.7657 30.8908L76.5612 23.5646H70.5164C70.0682 23.5646 69.7051 23.2028 69.7051 22.7564V15.529C69.7051 15.0826 70.0682 14.7208 70.5164 14.7208H84.097C84.5451 14.7208 84.9084 15.0826 84.9084 15.529V30.4896C84.9084 30.936 84.5451 31.2978 84.097 31.2978Z" fill="#1D1D1B"/>
<path fill-rule="evenodd" clip-rule="evenodd" d="M67.2891 32.2306H73.2429V18.5861H67.2891V32.2306Z" fill="#FEFEFE"/>
<path fill-rule="evenodd" clip-rule="evenodd" d="M68.1012 31.4223H72.4323V19.3942H68.1012V31.4223ZM73.2436 33.0387H67.2898C66.8418 33.0387 66.4785 32.6769 66.4785 32.2305V18.586C66.4785 18.1396 66.8418 17.7778 67.2898 17.7778H73.2436C73.6918 17.7778 74.055 18.1396 74.055 18.586V32.2305C74.055 32.6769 73.6918 33.0387 73.2436 33.0387Z" fill="#1D1D1B"/>
<path fill-rule="evenodd" clip-rule="evenodd" d="M80.0476 29.9829C80.0476 29.0467 79.9346 28.1475 79.7272 27.3099H82.2265C83.8271 27.3099 85.1369 28.6147 85.1369 30.2092V30.9559C85.1369 34.4097 82.3261 37.2095 78.8591 37.2095H76.9258C78.7818 35.8444 80.0476 33.1207 80.0476 29.9829Z" fill="#FEFEFE"/>
<path fill-rule="evenodd" clip-rule="evenodd" d="M80.717 28.1182C80.812 28.7286 80.8598 29.3525 80.8598 29.983C80.8598 32.4376 80.1248 34.7398 78.8687 36.4014C81.8789 36.3967 84.3264 33.9557 84.3264 30.956V30.2092C84.3264 29.0562 83.3848 28.1182 82.2274 28.1182H80.717ZM78.86 38.0178H76.9266C76.5764 38.0178 76.2656 37.7937 76.156 37.4623C76.0464 37.1308 76.1628 36.7668 76.4447 36.5595C78.1672 35.2925 79.2372 32.7724 79.2372 29.983C79.2372 29.1332 79.1373 28.299 78.9403 27.5036C78.8806 27.2624 78.9356 27.0071 79.0894 26.8116C79.2432 26.6162 79.4787 26.5018 79.7281 26.5018H82.2274C84.2796 26.5018 85.9491 28.165 85.9491 30.2092V30.956C85.9491 34.8499 82.7689 38.0178 78.86 38.0178Z" fill="#1D1D1B"/>
<path fill-rule="evenodd" clip-rule="evenodd" d="M68.3094 23.5427H61.1828C60.499 23.5427 59.9395 22.9854 59.9395 22.3043V18.4459C59.9395 17.7646 60.499 17.2073 61.1828 17.2073H68.3094C68.9931 17.2073 69.5526 17.7646 69.5526 18.4459V22.3043C69.5526 22.9854 68.9931 23.5427 68.3094 23.5427Z" fill="#FEFEFE"/>
<path fill-rule="evenodd" clip-rule="evenodd" d="M61.1817 18.0155C60.9474 18.0155 60.7496 18.2126 60.7496 18.4459V22.3043C60.7496 22.5375 60.9474 22.7346 61.1817 22.7346H68.3082C68.5423 22.7346 68.7401 22.5375 68.7401 22.3043V18.4459C68.7401 18.2126 68.5423 18.0155 68.3082 18.0155H61.1817ZM68.3082 24.351H61.1816C60.0486 24.351 59.127 23.4328 59.127 22.3043V18.4459C59.127 17.3174 60.0486 16.3992 61.1816 16.3992H68.3082C69.4411 16.3992 70.3628 17.3174 70.3628 18.4459V22.3043C70.3628 23.4328 69.4411 24.351 68.3082 24.351Z" fill="#1D1D1B"/>
<path fill-rule="evenodd" clip-rule="evenodd" d="M60.2176 5.11803C59.7694 5.11803 59.4062 4.75628 59.4062 4.30984V0.915978C59.4062 0.469534 59.7694 0.107788 60.2176 0.107788C60.6657 0.107788 61.0289 0.469534 61.0289 0.915978V4.30984C61.0289 4.75628 60.6657 5.11803 60.2176 5.11803Z" fill="#1D1D1B"/>
<path fill-rule="evenodd" clip-rule="evenodd" d="M64.907 5.11803C64.4589 5.11803 64.0957 4.75628 64.0957 4.30984V0.915978C64.0957 0.469534 64.4589 0.107788 64.907 0.107788C65.3552 0.107788 65.7183 0.469534 65.7183 0.915978V4.30984C65.7183 4.75628 65.3552 5.11803 64.907 5.11803Z" fill="#1D1D1B"/>
<path fill-rule="evenodd" clip-rule="evenodd" d="M62.5613 5.11803C62.1131 5.11803 61.75 4.75628 61.75 4.30984V0.915978C61.75 0.469534 62.1131 0.107788 62.5613 0.107788C63.0095 0.107788 63.3726 0.469534 63.3726 0.915978V4.30984C63.3726 4.75628 63.0095 5.11803 62.5613 5.11803Z" fill="#1D1D1B"/>
<path fill-rule="evenodd" clip-rule="evenodd" d="M30.1062 26.8983C29.6581 26.8983 29.2949 26.5365 29.2949 26.0901V22.6961C29.2949 22.2497 29.6581 21.8879 30.1062 21.8879C30.5544 21.8879 30.9176 22.2497 30.9176 22.6961V26.0901C30.9176 26.5365 30.5544 26.8983 30.1062 26.8983Z" fill="#1D1D1B"/>
<path fill-rule="evenodd" clip-rule="evenodd" d="M34.7957 26.8983C34.3475 26.8983 33.9844 26.5365 33.9844 26.0901V22.6961C33.9844 22.2497 34.3475 21.8879 34.7957 21.8879C35.2439 21.8879 35.607 22.2497 35.607 22.6961V26.0901C35.607 26.5365 35.2439 26.8983 34.7957 26.8983Z" fill="#1D1D1B"/>
<path fill-rule="evenodd" clip-rule="evenodd" d="M32.45 26.8983C32.0018 26.8983 31.6387 26.5365 31.6387 26.0901V22.6961C31.6387 22.2497 32.0018 21.8879 32.45 21.8879C32.8982 21.8879 33.2613 22.2497 33.2613 22.6961V26.0901C33.2613 26.5365 32.8982 26.8983 32.45 26.8983Z" fill="#1D1D1B"/>
<path fill-rule="evenodd" clip-rule="evenodd" d="M27.0418 34.7906C26.5936 34.7906 26.2305 34.4289 26.2305 33.9824V14.198C26.2305 13.7516 26.5936 13.3898 27.0418 13.3898C27.49 13.3898 27.8531 13.7516 27.8531 14.198V33.9824C27.8531 34.4289 27.49 34.7906 27.0418 34.7906Z" fill="#1D1D1B"/>
<path fill-rule="evenodd" clip-rule="evenodd" d="M67.2898 24.351H40.8582C40.4101 24.351 40.0469 23.9893 40.0469 23.5428C40.0469 23.0964 40.4101 22.7346 40.8582 22.7346H67.2898C67.738 22.7346 68.1012 23.0964 68.1012 23.5428C68.1012 23.9893 67.738 24.351 67.2898 24.351Z" fill="#1D1D1B"/>
<path fill-rule="evenodd" clip-rule="evenodd" d="M0.810547 43.5235H9.85504L6.66417 36.6555L0.810547 43.5235Z" fill="#FEFEFE"/>
<path fill-rule="evenodd" clip-rule="evenodd" d="M2.56443 42.7152H8.58638L6.4618 38.1424L2.56443 42.7152ZM9.85582 44.3316H0.811329C0.49513 44.3316 0.207814 44.1487 0.0749739 43.8629C-0.0577581 43.5771 -0.0116751 43.2404 0.192778 43.0004L6.0464 36.1323C6.22565 35.922 6.50031 35.8174 6.77432 35.8546C7.04865 35.8917 7.28502 36.0657 7.40131 36.3159L10.5922 43.184C10.7084 43.4343 10.6886 43.7263 10.5395 43.9587C10.3904 44.191 10.1326 44.3316 9.85582 44.3316Z" fill="#1D1D1B"/>
</g>
</svg>
