<svg width="49" height="40" viewBox="0 0 49 40" fill="none" xmlns="http://www.w3.org/2000/svg">
<path fill-rule="evenodd" clip-rule="evenodd" d="M4.33684 21.3237C3.39394 21.3237 2.62681 22.0904 2.62681 23.0329V36.4526C2.62681 37.3952 3.39394 38.1618 4.33684 38.1618H8.96644C9.90934 38.1618 10.6765 37.3952 10.6765 36.4526V23.0329C10.6765 22.0904 9.90934 21.3237 8.96644 21.3237H4.33684ZM8.96644 39.9245H4.33684C2.42153 39.9245 0.863281 38.367 0.863281 36.4526V23.0329C0.863281 21.1185 2.42153 19.561 4.33684 19.561H8.96644C10.8817 19.561 12.44 21.1185 12.44 23.0329V36.4526C12.44 38.367 10.8817 39.9245 8.96644 39.9245Z" fill="#1D1D1B"/>
<path fill-rule="evenodd" clip-rule="evenodd" d="M4.36386 26.5602C4.18045 26.5602 3.99552 26.5033 3.83727 26.3852L1.21773 24.4314C0.827522 24.1402 0.747105 23.588 1.03844 23.1979C1.32966 22.8077 1.88234 22.7277 2.27255 23.0186L4.89197 24.9725C5.2823 25.2637 5.36248 25.8159 5.07127 26.2059C4.89821 26.4379 4.63262 26.5602 4.36386 26.5602Z" fill="#1D1D1B"/>
<path fill-rule="evenodd" clip-rule="evenodd" d="M4.36386 31.5188C4.18045 31.5188 3.99552 31.4619 3.83727 31.3438L1.21773 29.39C0.827522 29.0988 0.747105 28.5466 1.03844 28.1566C1.32966 27.7663 1.88234 27.6863 2.27255 27.9772L4.89197 29.9311C5.2823 30.2223 5.36248 30.7745 5.07127 31.1645C4.89821 31.3965 4.63262 31.5188 4.36386 31.5188Z" fill="#1D1D1B"/>
<path fill-rule="evenodd" clip-rule="evenodd" d="M4.36386 36.4774C4.18045 36.4774 3.99552 36.4205 3.83727 36.3025L1.21773 34.3486C0.827522 34.0574 0.747105 33.5052 1.03844 33.1152C1.32966 32.7249 1.88234 32.6449 2.27255 32.9359L4.89197 34.8897C5.2823 35.1809 5.36248 35.7331 5.07127 36.1231C4.89821 36.3551 4.63262 36.4774 4.36386 36.4774Z" fill="#1D1D1B"/>
<path fill-rule="evenodd" clip-rule="evenodd" d="M8.92357 26.5601C8.6548 26.5601 8.38934 26.4378 8.21616 26.2058C7.92494 25.8158 8.00512 25.2636 8.39545 24.9724L11.0149 23.0186C11.4052 22.7275 11.9578 22.8076 12.249 23.1979C12.5403 23.5879 12.4599 24.1401 12.0697 24.4313L9.45015 26.3851C9.29191 26.5032 9.10697 26.5601 8.92357 26.5601Z" fill="#1D1D1B"/>
<path fill-rule="evenodd" clip-rule="evenodd" d="M8.92357 31.5189C8.6548 31.5189 8.38934 31.3965 8.21616 31.1646C7.92494 30.7745 8.00512 30.2224 8.39545 29.9312L11.0149 27.9773C11.4052 27.6862 11.9578 27.7664 12.249 28.1566C12.5403 28.5466 12.4599 29.0988 12.0697 29.39L9.45015 31.3439C9.29191 31.462 9.10697 31.5189 8.92357 31.5189Z" fill="#1D1D1B"/>
<path fill-rule="evenodd" clip-rule="evenodd" d="M8.92357 36.4775C8.6548 36.4775 8.38934 36.3551 8.21616 36.1232C7.92494 35.7332 8.00512 35.181 8.39545 34.8898L11.0149 32.9359C11.4052 32.6448 11.9578 32.725 12.249 33.1152C12.5403 33.5053 12.4599 34.0574 12.0697 34.3486L9.45015 36.3025C9.29191 36.4206 9.10697 36.4775 8.92357 36.4775Z" fill="#1D1D1B"/>
<path fill-rule="evenodd" clip-rule="evenodd" d="M40.829 21.3237C39.886 21.3237 39.119 22.0904 39.119 23.0329V36.4526C39.119 37.3952 39.886 38.1618 40.829 38.1618H45.4586C46.4014 38.1618 47.1687 37.3952 47.1687 36.4526V23.0329C47.1687 22.0904 46.4014 21.3237 45.4586 21.3237H40.829ZM45.4586 39.9245H40.829C38.9137 39.9245 37.3555 38.367 37.3555 36.4526V23.0329C37.3555 21.1185 38.9137 19.561 40.829 19.561H45.4586C47.3739 19.561 48.9322 21.1185 48.9322 23.0329V36.4526C48.9322 38.367 47.3739 39.9245 45.4586 39.9245Z" fill="#1D1D1B"/>
<path fill-rule="evenodd" clip-rule="evenodd" d="M40.8561 26.5602C40.6726 26.5602 40.4876 26.5033 40.3294 26.3852L37.7098 24.4314C37.3196 24.1402 37.2393 23.588 37.5307 23.1979C37.8218 22.8077 38.3745 22.7277 38.7647 23.0186L41.3841 24.9725C41.7744 25.2637 41.8547 25.8159 41.5635 26.2059C41.3903 26.4379 41.1248 26.5602 40.8561 26.5602Z" fill="#1D1D1B"/>
<path fill-rule="evenodd" clip-rule="evenodd" d="M40.8561 31.5188C40.6726 31.5188 40.4876 31.4619 40.3294 31.3438L37.7098 29.39C37.3196 29.0988 37.2393 28.5466 37.5307 28.1566C37.8218 27.7663 38.3745 27.6863 38.7647 27.9772L41.3841 29.9311C41.7744 30.2223 41.8547 30.7745 41.5635 31.1645C41.3903 31.3965 41.1248 31.5188 40.8561 31.5188Z" fill="#1D1D1B"/>
<path fill-rule="evenodd" clip-rule="evenodd" d="M40.8561 36.4774C40.6726 36.4774 40.4876 36.4205 40.3294 36.3025L37.7098 34.3486C37.3196 34.0574 37.2393 33.5052 37.5307 33.1152C37.8218 32.7249 38.3745 32.6449 38.7647 32.9359L41.3841 34.8897C41.7744 35.1809 41.8547 35.7331 41.5635 36.1231C41.3903 36.3551 41.1248 36.4774 40.8561 36.4774Z" fill="#1D1D1B"/>
<path fill-rule="evenodd" clip-rule="evenodd" d="M45.4177 26.5601C45.1489 26.5601 44.8834 26.4378 44.7103 26.2058C44.419 25.8158 44.4993 25.2636 44.8897 24.9724L47.5091 23.0186C47.8994 22.7275 48.4519 22.8076 48.7431 23.1979C49.0344 23.5879 48.9541 24.1401 48.5639 24.4313L45.9444 26.3851C45.7861 26.5032 45.6012 26.5601 45.4177 26.5601Z" fill="#1D1D1B"/>
<path fill-rule="evenodd" clip-rule="evenodd" d="M45.4177 31.5189C45.1489 31.5189 44.8834 31.3965 44.7103 31.1646C44.419 30.7745 44.4993 30.2224 44.8897 29.9312L47.5091 27.9773C47.8994 27.6862 48.4519 27.7664 48.7431 28.1566C49.0344 28.5466 48.9541 29.0988 48.5639 29.39L45.9444 31.3439C45.7861 31.462 45.6012 31.5189 45.4177 31.5189Z" fill="#1D1D1B"/>
<path fill-rule="evenodd" clip-rule="evenodd" d="M45.4177 36.4775C45.1489 36.4775 44.8834 36.3551 44.7103 36.1232C44.419 35.7332 44.4993 35.181 44.8897 34.8898L47.5091 32.9359C47.8994 32.6448 48.4519 32.725 48.7431 33.1152C49.0344 33.5053 48.9541 34.0574 48.5639 34.3486L45.9444 36.3025C45.7861 36.4206 45.6012 36.4775 45.4177 36.4775Z" fill="#1D1D1B"/>
<path fill-rule="evenodd" clip-rule="evenodd" d="M36.6035 25.1312V16.2145C36.6035 15.3116 36.9638 14.4918 37.5476 13.8895C38.1561 13.262 39.0075 12.8705 39.949 12.8705H41.9367H44.3355C44.7625 12.8705 45.1414 13.11 45.3242 13.4956C45.5086 13.8843 45.4573 14.3166 45.1868 14.6517L43.5605 16.677L36.7071 25.0749L32.99 28.6631C32.6024 29.0349 32.0931 29.2396 31.5557 29.2396H18.2408C17.7037 29.2396 17.1944 29.0349 16.8067 28.6631L13.0896 25.0749L6.2363 16.677L4.60997 14.6517C4.33945 14.3166 4.28807 13.8843 4.47242 13.4956C4.65536 13.11 5.03416 12.8705 5.46129 12.8705H7.85991H9.84764C10.7891 12.8705 11.6406 13.262 12.2491 13.8895C12.8327 14.4918 13.1933 15.3116 13.1933 16.2145V25.1312" fill="#FEFEFE"/>
<path fill-rule="evenodd" clip-rule="evenodd" d="M39.9488 13.7518C39.2784 13.7518 38.6503 14.0186 38.1806 14.5029C37.7321 14.9656 37.485 15.5736 37.485 16.2145V22.7271L42.8769 16.1199L44.4989 14.1001C44.5578 14.0271 44.5663 13.9556 44.5273 13.8733C44.4902 13.7948 44.422 13.7518 44.3352 13.7518H39.9488ZM5.46101 13.7518C5.37436 13.7518 5.30617 13.7948 5.26902 13.873C5.22987 13.9556 5.23857 14.0271 5.29606 14.0984L6.92379 16.1253L12.3114 22.7271V16.2145C12.3114 15.5736 12.0642 14.9656 11.6156 14.5028C11.146 14.0186 10.518 13.7518 9.84748 13.7518H5.46101ZM31.5555 30.1209H18.2407C17.4748 30.1209 16.7486 29.8289 16.196 29.2989L12.4769 25.7088C12.4519 25.6846 12.4282 25.659 12.4061 25.632L5.55283 17.234L3.92204 15.2034C3.44236 14.6091 3.34748 13.8093 3.67561 13.118C4.00551 12.4218 4.68988 11.9891 5.46101 11.9891H9.84748C10.9995 11.9891 12.0773 12.4463 12.8819 13.2761C13.6512 14.0697 14.0749 15.1132 14.0749 16.2145V24.8008L17.4191 28.0291C17.6397 28.2406 17.9322 28.3583 18.2407 28.3583H31.5555C31.864 28.3583 32.1567 28.2406 32.3791 28.0271L35.7214 24.8008V16.2145C35.7214 15.1132 36.145 14.0697 36.9142 13.2762C37.719 12.4463 38.7968 11.9891 39.9488 11.9891H44.3352C45.1064 11.9891 45.7906 12.4218 46.1208 13.1183C46.4487 13.8093 46.3538 14.6091 45.8729 15.2051L44.2478 17.2286L37.3901 25.632C37.3681 25.659 37.3445 25.6846 37.3194 25.7088L33.6023 29.2969C33.0477 29.8289 32.3215 30.1209 31.5555 30.1209Z" fill="#1D1D1B"/>
<path fill-rule="evenodd" clip-rule="evenodd" d="M18.2817 20.1583C17.3897 20.1583 16.6639 20.8837 16.6639 21.7753C16.6639 22.6668 17.3897 23.3922 18.2817 23.3922C19.1738 23.3922 19.8994 22.6668 19.8994 21.7753C19.8994 20.8837 19.1738 20.1583 18.2817 20.1583ZM18.2817 25.1549C16.4173 25.1549 14.9004 23.6388 14.9004 21.7753C14.9004 19.9116 16.4173 18.3956 18.2817 18.3956C20.1461 18.3956 21.6629 19.9116 21.6629 21.7753C21.6629 23.6388 20.1461 25.1549 18.2817 25.1549Z" fill="#1D1D1B"/>
<path fill-rule="evenodd" clip-rule="evenodd" d="M31.5141 20.1583C30.622 20.1583 29.8963 20.8837 29.8963 21.7753C29.8963 22.6668 30.622 23.3922 31.5141 23.3922C32.4061 23.3922 33.1318 22.6668 33.1318 21.7753C33.1318 20.8837 32.4061 20.1583 31.5141 20.1583ZM31.5141 25.1549C29.6497 25.1549 28.1328 23.6388 28.1328 21.7753C28.1328 19.9116 29.6497 18.3956 31.5141 18.3956C33.3785 18.3956 34.8953 19.9116 34.8953 21.7753C34.8953 23.6388 33.3785 25.1549 31.5141 25.1549Z" fill="#1D1D1B"/>
<path fill-rule="evenodd" clip-rule="evenodd" d="M8.80117 2.36338C8.37122 2.36338 8.02134 2.7131 8.02134 3.14283C8.02134 3.57257 8.37122 3.92229 8.80117 3.92229H12.8902V2.36338H8.80117ZM13.772 5.68496H8.80117C7.3987 5.68496 6.25781 4.54463 6.25781 3.14283C6.25781 1.74104 7.3987 0.600708 8.80117 0.600708H13.772C14.2589 0.600708 14.6537 0.995194 14.6537 1.48204V4.80363C14.6537 5.29036 14.2589 5.68496 13.772 5.68496Z" fill="#1D1D1B"/>
<path fill-rule="evenodd" clip-rule="evenodd" d="M21.6844 11.0349C21.3161 11.0349 20.9727 10.8024 20.8488 10.4344L19.1695 5.44612C19.1117 5.27832 18.9625 5.15246 18.7819 5.12332L13.7476 4.3018C13.2669 4.2233 12.941 3.77041 13.0195 3.28991C13.098 2.80952 13.5515 2.48472 14.0317 2.56204L19.0647 3.38345C19.8872 3.51635 20.5676 4.08934 20.8392 4.87854L22.5202 9.8722C22.6756 10.3335 22.4273 10.8333 21.9658 10.9886C21.8725 11.0199 21.7776 11.0349 21.6844 11.0349Z" fill="#1D1D1B"/>
<path fill-rule="evenodd" clip-rule="evenodd" d="M36.9041 3.92229H40.9932C41.4232 3.92229 41.773 3.57257 41.773 3.14283C41.773 2.7131 41.4232 2.36338 40.9932 2.36338H36.9041V3.92229ZM40.9932 5.68496H36.0224C35.5354 5.68496 35.1406 5.29048 35.1406 4.80363V1.48204C35.1406 0.995312 35.5354 0.600708 36.0224 0.600708H40.9932C42.3956 0.600708 43.5365 1.74104 43.5365 3.14283C43.5365 4.54463 42.3956 5.68496 40.9932 5.68496Z" fill="#1D1D1B"/>
<path fill-rule="evenodd" clip-rule="evenodd" d="M28.1106 11.0348C28.0173 11.0348 27.9225 11.0199 27.8292 10.9885C27.3677 10.8333 27.1194 10.3335 27.2749 9.87214L28.9541 4.88401C29.2274 4.08928 29.9078 3.5163 30.7317 3.38316L35.7633 2.56199C36.2438 2.48337 36.697 2.80947 36.7755 3.28985C36.854 3.77036 36.5281 4.22325 36.0474 4.30174L31.0145 5.12303C30.8325 5.15241 30.6833 5.27827 30.6236 5.4516L28.9462 10.4343C28.8223 10.8024 28.4789 11.0348 28.1106 11.0348Z" fill="#1D1D1B"/>
<path fill-rule="evenodd" clip-rule="evenodd" d="M26.1023 24.3369H23.6943C23.2073 24.3369 22.8125 23.9424 22.8125 23.4556C22.8125 22.9687 23.2073 22.5742 23.6943 22.5742H26.1023C26.5893 22.5742 26.9841 22.9687 26.9841 23.4556C26.9841 23.9424 26.5893 24.3369 26.1023 24.3369Z" fill="#1D1D1B"/>
<path fill-rule="evenodd" clip-rule="evenodd" d="M27.5118 27.2748H22.2822C21.7952 27.2748 21.4004 26.8803 21.4004 26.3934C21.4004 25.9066 21.7952 25.5121 22.2822 25.5121H27.5118C27.9988 25.5121 28.3936 25.9066 28.3936 26.3934C28.3936 26.8803 27.9988 27.2748 27.5118 27.2748Z" fill="#1D1D1B"/>
<path fill-rule="evenodd" clip-rule="evenodd" d="M36.609 17.8594H30.8915C30.4047 17.8594 30.0098 17.4649 30.0098 16.978C30.0098 16.4912 30.4047 16.0967 30.8915 16.0967H36.609C37.096 16.0967 37.4908 16.4912 37.4908 16.978C37.4908 17.4649 37.096 17.8594 36.609 17.8594Z" fill="#1D1D1B"/>
<path fill-rule="evenodd" clip-rule="evenodd" d="M23.4573 17.8594H13.2724C12.7854 17.8594 12.3906 17.4649 12.3906 16.978C12.3906 16.4912 12.7854 16.0967 13.2724 16.0967H23.4573C23.9444 16.0967 24.3391 16.4912 24.3391 16.978C24.3391 17.4649 23.9444 17.8594 23.4573 17.8594Z" fill="#1D1D1B"/>
<path fill-rule="evenodd" clip-rule="evenodd" d="M27.1583 17.8594H27.1572C26.6703 17.8594 26.2754 17.4649 26.2754 16.978C26.2754 16.4912 26.6703 16.0967 27.1572 16.0967C27.6442 16.0967 28.0395 16.4912 28.0395 16.978C28.0395 17.4649 27.6454 17.8594 27.1583 17.8594Z" fill="#1D1D1B"/>
<path fill-rule="evenodd" clip-rule="evenodd" d="M32.4682 16.8768C32.0076 16.8768 31.6199 16.5195 31.5891 16.0535L31.3617 12.6126C31.3058 11.7626 30.5944 11.0969 29.7421 11.0969H20.0541C19.2019 11.0969 18.4904 11.7626 18.4345 12.6124L18.207 16.0535C18.1749 16.5391 17.7541 16.9071 17.2692 16.8748C16.7831 16.8429 16.4153 16.4231 16.4472 15.9374L16.6747 12.4965C16.7915 10.7233 18.2759 9.33423 20.0541 9.33423H29.7421C31.5202 9.33423 33.0046 10.7233 33.1215 12.4966L33.3489 15.9374C33.381 16.4231 33.0131 16.8429 32.5271 16.8748C32.5073 16.8762 32.4877 16.8768 32.4682 16.8768Z" fill="#1D1D1B"/>
<path fill-rule="evenodd" clip-rule="evenodd" d="M27.0163 11.097C26.5914 11.097 26.2169 10.7892 26.1468 10.3563L25.7389 7.83664C25.7376 7.82865 25.7364 7.82089 25.7352 7.81302C25.7299 7.77283 25.6911 7.73887 25.6504 7.73887H24.1454C24.1046 7.73887 24.0658 7.77283 24.0604 7.81302C24.0593 7.82089 24.0581 7.82865 24.0568 7.83664L23.6488 10.3563C23.5709 10.8367 23.1177 11.1644 22.6375 11.0855C22.1568 11.0078 21.8302 10.5553 21.9079 10.0748L22.3144 7.56483C22.4431 6.65823 23.2276 5.9762 24.1454 5.9762H25.6504C26.568 5.9762 27.3527 6.65835 27.4814 7.56495L27.8878 10.0748C27.9655 10.5553 27.6389 11.0078 27.1582 11.0855C27.1106 11.0934 27.0631 11.097 27.0163 11.097Z" fill="#1D1D1B"/>
</svg>
