<svg width="84" height="40" viewBox="0 0 84 40" fill="none" xmlns="http://www.w3.org/2000/svg">
<path fill-rule="evenodd" clip-rule="evenodd" d="M81.9632 22.0118H79.7184C79.2009 22.0118 78.7812 21.5925 78.7812 21.0751C78.7812 20.5578 79.2009 20.1385 79.7184 20.1385H81.9632C82.4808 20.1385 82.9003 20.5578 82.9003 21.0751C82.9003 21.5925 82.4808 22.0118 81.9632 22.0118" fill="#1D1D1B"/>
<path fill-rule="evenodd" clip-rule="evenodd" d="M62.2275 33.8991H3.01926C1.46854 33.8991 0.207031 32.6381 0.207031 31.0881V24.2526C0.207031 22.0917 2.73593 20.0231 7.32814 18.4281C11.8703 16.8503 17.7448 15.9813 23.8695 15.9813H64.5542C64.5585 15.9814 64.5632 15.9814 64.5676 15.9814C66.1639 15.9814 67.571 15.0262 68.1582 13.5443C68.3488 13.0635 68.8931 12.8281 69.3745 13.0186C69.8557 13.2091 70.0912 13.7533 69.9006 14.2343C69.0282 16.4354 66.9377 17.8547 64.571 17.8547H64.551H23.8695C10.3534 17.8547 2.08107 21.9971 2.08107 24.2526V31.0881C2.08107 31.6052 2.50196 32.0258 3.01926 32.0258H62.2275C62.745 32.0258 63.1645 32.4451 63.1645 32.9624C63.1645 33.4798 62.745 33.8991 62.2275 33.8991" fill="#1D1D1B"/>
<path fill-rule="evenodd" clip-rule="evenodd" d="M74.9512 34.125C74.5639 34.125 74.2017 33.8832 74.0666 33.4972C73.8959 33.0089 74.1535 32.4747 74.642 32.3039L79.3366 30.6638C80.8135 30.0713 81.7632 28.6632 81.7578 27.0715V17.0337L69.3204 14.4279C69.1558 14.3933 69.0034 14.3152 68.8795 14.2016L61.4134 7.36153H57.7339C57.2164 7.36153 56.7969 6.94225 56.7969 6.42485C56.7969 5.90756 57.2164 5.48828 57.7339 5.48828H61.7779C62.0124 5.48828 62.2383 5.57618 62.4111 5.73435L69.9564 12.6472L82.8872 15.3563C83.3211 15.4473 83.632 15.8299 83.632 16.273V27.0682C83.6401 29.4389 82.2183 31.5378 80.0099 32.4122C79.998 32.4169 79.986 32.4213 79.9739 32.4256L75.2604 34.0724C75.1581 34.108 75.0538 34.125 74.9512 34.125" fill="#1D1D1B"/>
<path fill-rule="evenodd" clip-rule="evenodd" d="M63.3633 22.0097H60.937C60.4195 22.0097 60 21.5904 60 21.073C60 20.5558 60.4195 20.1365 60.937 20.1365H63.3633C63.8808 20.1365 64.3003 20.5558 64.3003 21.073C64.3003 21.5904 63.8808 22.0097 63.3633 22.0097" fill="#1D1D1B"/>
<path fill-rule="evenodd" clip-rule="evenodd" d="M44.312 33.899C43.7945 33.899 43.375 33.4798 43.375 32.9624V16.8667C43.375 16.8553 43.3751 16.844 43.3756 16.8327L43.7504 6.49313C43.7691 5.97631 44.2027 5.5669 44.7208 5.59111C45.238 5.60991 45.6421 6.04412 45.6233 6.56105L45.249 16.8837V32.9624C45.249 33.4798 44.8296 33.899 44.312 33.899" fill="#1D1D1B"/>
<path fill-rule="evenodd" clip-rule="evenodd" d="M40.0859 22.0097H37.6597C37.1421 22.0097 36.7227 21.5904 36.7227 21.073C36.7227 20.5558 37.1421 20.1365 37.6597 20.1365H40.0859C40.6035 20.1365 41.023 20.5558 41.023 21.073C41.023 21.5904 40.6035 22.0097 40.0859 22.0097" fill="#1D1D1B"/>
<path fill-rule="evenodd" clip-rule="evenodd" d="M22.0338 31.9634C22.0338 35.8735 18.8625 39.0432 14.9506 39.0432C11.0385 39.0432 7.86719 35.8735 7.86719 31.9634C7.86719 28.0533 11.0385 24.8835 14.9506 24.8835C18.8625 24.8835 22.0338 28.0533 22.0338 31.9634" fill="#FEFEFE"/>
<path fill-rule="evenodd" clip-rule="evenodd" d="M14.952 25.8202C11.563 25.8202 8.8058 28.5759 8.8058 31.9633C8.8058 35.3508 11.563 38.1066 14.952 38.1066C18.3411 38.1066 21.0983 35.3508 21.0983 31.9633C21.0983 28.5759 18.3411 25.8202 14.952 25.8202M14.952 39.9798C10.5296 39.9798 6.93164 36.3837 6.93164 31.9633C6.93164 27.543 10.5296 23.9469 14.952 23.9469C19.3745 23.9469 22.9724 27.543 22.9724 31.9633C22.9724 36.3837 19.3745 39.9798 14.952 39.9798" fill="#1D1D1B"/>
<path fill-rule="evenodd" clip-rule="evenodd" d="M19.2011 31.9634C19.2011 34.3095 17.2983 36.2112 14.9511 36.2112C12.6039 36.2112 10.7012 34.3095 10.7012 31.9634C10.7012 29.6173 12.6039 27.7155 14.9511 27.7155C17.2983 27.7155 19.2011 29.6173 19.2011 31.9634" fill="#FEFEFE"/>
<path fill-rule="evenodd" clip-rule="evenodd" d="M14.9507 28.6521C13.1239 28.6521 11.6377 30.1375 11.6377 31.9634C11.6377 33.7893 13.1239 35.2747 14.9507 35.2747C16.7774 35.2747 18.2635 33.7893 18.2635 31.9634C18.2635 30.1375 16.7774 28.6521 14.9507 28.6521M14.9507 37.148C12.0905 37.148 9.76367 34.8222 9.76367 31.9634C9.76367 29.1046 12.0905 26.7788 14.9507 26.7788C17.8108 26.7788 20.1377 29.1046 20.1377 31.9634C20.1377 34.8222 17.8108 37.148 14.9507 37.148" fill="#1D1D1B"/>
<path fill-rule="evenodd" clip-rule="evenodd" d="M77.1022 31.9634C77.1022 35.8735 73.9309 39.0432 70.0189 39.0432C66.107 39.0432 62.9355 35.8735 62.9355 31.9634C62.9355 28.0533 66.107 24.8835 70.0189 24.8835C73.9309 24.8835 77.1022 28.0533 77.1022 31.9634" fill="#FEFEFE"/>
<path fill-rule="evenodd" clip-rule="evenodd" d="M70.0184 25.8202C66.6294 25.8202 63.8722 28.5759 63.8722 31.9633C63.8722 35.3508 66.6294 38.1066 70.0184 38.1066C73.4075 38.1066 76.1647 35.3508 76.1647 31.9633C76.1647 28.5759 73.4075 25.8202 70.0184 25.8202M70.0184 39.9798C65.596 39.9798 61.998 36.3837 61.998 31.9633C61.998 27.543 65.596 23.9469 70.0184 23.9469C74.4409 23.9469 78.0388 27.543 78.0388 31.9633C78.0388 36.3837 74.4409 39.9798 70.0184 39.9798" fill="#1D1D1B"/>
<path fill-rule="evenodd" clip-rule="evenodd" d="M74.2695 31.9634C74.2695 34.3095 72.3668 36.2112 70.0195 36.2112C67.6723 36.2112 65.7695 34.3095 65.7695 31.9634C65.7695 29.6173 67.6723 27.7155 70.0195 27.7155C72.3668 27.7155 74.2695 29.6173 74.2695 31.9634" fill="#FEFEFE"/>
<path fill-rule="evenodd" clip-rule="evenodd" d="M70.019 28.6521C68.1923 28.6521 66.7062 30.1375 66.7062 31.9634C66.7062 33.7893 68.1923 35.2747 70.019 35.2747C71.8458 35.2747 73.332 33.7893 73.332 31.9634C73.332 30.1375 71.8458 28.6521 70.019 28.6521M70.019 37.148C67.1589 37.148 64.832 34.8222 64.832 31.9634C64.832 29.1046 67.1589 26.7788 70.019 26.7788C72.8792 26.7788 75.2061 29.1046 75.2061 31.9634C75.2061 34.8222 72.8792 37.148 70.019 37.148" fill="#1D1D1B"/>
<path fill-rule="evenodd" clip-rule="evenodd" d="M25.1988 15.93H63.3329L58.1996 7.36153H34.7621L25.1988 15.93ZM64.9863 17.8033H22.7496C22.3613 17.8033 22.0132 17.5638 21.8745 17.2012C21.7356 16.8387 21.835 16.4283 22.1242 16.1693L33.7781 5.72753C33.95 5.57348 34.1727 5.48828 34.4036 5.48828H58.7307C59.0601 5.48828 59.3653 5.66114 59.5346 5.94376L65.7902 16.3855C65.9636 16.6749 65.968 17.035 65.8015 17.3284C65.6351 17.6218 65.3237 17.8033 64.9863 17.8033V17.8033Z" fill="#1D1D1B"/>
<path fill-rule="evenodd" clip-rule="evenodd" d="M45.6122 5.48824H52.5752L51.6832 2.81368H46.5042L45.6122 5.48824ZM53.8752 7.36149H44.3121C44.0109 7.36149 43.728 7.21672 43.5519 6.97253C43.3758 6.72834 43.3278 6.41435 43.4231 6.12868L44.9398 1.58087C45.0673 1.19837 45.4254 0.94043 45.8287 0.94043H52.3586C52.762 0.94043 53.1201 1.19837 53.2475 1.58087L54.7642 6.12868C54.8595 6.41435 54.8116 6.72834 54.6354 6.97253C54.4593 7.21672 54.1765 7.36149 53.8752 7.36149V7.36149Z" fill="#1D1D1B"/>
<path fill-rule="evenodd" clip-rule="evenodd" d="M30.166 23.4258H32.02V21.5728H30.166V23.4258Z" fill="#1D1D1B"/>
<path fill-rule="evenodd" clip-rule="evenodd" d="M28.3105 21.5728H30.1645V19.7196H28.3105V21.5728Z" fill="#1D1D1B"/>
<path fill-rule="evenodd" clip-rule="evenodd" d="M26.457 23.4258H28.311V21.5728H26.457V23.4258Z" fill="#1D1D1B"/>
<path fill-rule="evenodd" clip-rule="evenodd" d="M22.75 23.4258H24.6039V21.5728H22.75V23.4258Z" fill="#1D1D1B"/>
<path fill-rule="evenodd" clip-rule="evenodd" d="M24.6035 21.5728H26.4575V19.7196H24.6035V21.5728Z" fill="#1D1D1B"/>
<path fill-rule="evenodd" clip-rule="evenodd" d="M55.9688 23.4258H57.8227V21.5728H55.9688V23.4258Z" fill="#1D1D1B"/>
<path fill-rule="evenodd" clip-rule="evenodd" d="M54.1133 21.5728H55.9672V19.7196H54.1133V21.5728Z" fill="#1D1D1B"/>
<path fill-rule="evenodd" clip-rule="evenodd" d="M52.2598 23.4258H54.1137V21.5728H52.2598V23.4258Z" fill="#1D1D1B"/>
<path fill-rule="evenodd" clip-rule="evenodd" d="M48.5527 23.4258H50.4067V21.5728H48.5527V23.4258Z" fill="#1D1D1B"/>
<path fill-rule="evenodd" clip-rule="evenodd" d="M50.4062 21.5728H52.2602V19.7196H50.4062V21.5728Z" fill="#1D1D1B"/>
<path fill-rule="evenodd" clip-rule="evenodd" d="M6.17233 25.1143H1.14405C0.626633 25.1143 0.207031 24.695 0.207031 24.1776C0.207031 23.6603 0.626633 23.241 1.14405 23.241H5.23531V19.8682C5.23531 19.3509 5.65479 18.9316 6.17233 18.9316C6.68986 18.9316 7.10935 19.3509 7.10935 19.8682V24.1776C7.10935 24.695 6.68986 25.1143 6.17233 25.1143" fill="#1D1D1B"/>
</svg>
