<svg width="62" height="41" viewBox="0 0 62 41" fill="none" xmlns="http://www.w3.org/2000/svg">
<path fill-rule="evenodd" clip-rule="evenodd" d="M59.6122 30.5226H21.6006C20.328 30.5226 19.293 29.4879 19.293 28.2161V17.7643C19.293 17.2774 19.6876 16.883 20.1747 16.883C20.6617 16.883 21.0565 17.2774 21.0565 17.7643V28.2161C21.0565 28.511 21.3056 28.76 21.6006 28.76H59.6122C59.9072 28.76 60.1563 28.511 60.1563 28.2161V17.6861C60.1563 17.1993 60.551 16.8048 61.0381 16.8048C61.5251 16.8048 61.9198 17.1993 61.9198 17.6861V28.2161C61.9198 29.4879 60.8846 30.5226 59.6122 30.5226Z" fill="#1D1D1B"/>
<path fill-rule="evenodd" clip-rule="evenodd" d="M50.0458 31.4921C50.0458 36.2147 46.2156 40.0432 41.4906 40.0432C36.7658 40.0432 32.9355 36.2147 32.9355 31.4921C32.9355 26.7696 36.7658 22.941 41.4906 22.941C46.2156 22.941 50.0458 26.7696 50.0458 31.4921Z" fill="#FEFEFE"/>
<path fill-rule="evenodd" clip-rule="evenodd" d="M41.4897 23.8224C37.2587 23.8224 33.8163 27.263 33.8163 31.4921C33.8163 35.7211 37.2587 39.1617 41.4897 39.1617C45.7208 39.1617 49.1632 35.7211 49.1632 31.4921C49.1632 27.263 45.7208 23.8224 41.4897 23.8224ZM41.4897 40.9244C36.2861 40.9244 32.0527 36.6931 32.0527 31.4921C32.0527 26.291 36.2861 22.0597 41.4897 22.0597C46.6933 22.0597 50.9267 26.291 50.9267 31.4921C50.9267 36.6931 46.6933 40.9244 41.4897 40.9244Z" fill="#1D1D1B"/>
<path fill-rule="evenodd" clip-rule="evenodd" d="M45.6088 31.4921C45.6088 33.7652 43.7651 35.6079 41.491 35.6079C39.2168 35.6079 37.373 33.7652 37.373 31.4921C37.373 29.2189 39.2168 27.3762 41.491 27.3762C43.7651 27.3762 45.6088 29.2189 45.6088 31.4921Z" fill="#FEFEFE"/>
<path fill-rule="evenodd" clip-rule="evenodd" d="M41.4898 28.2575C39.7054 28.2575 38.2538 29.7086 38.2538 31.4921C38.2538 33.2756 39.7054 34.7267 41.4898 34.7267C43.2743 34.7267 44.7259 33.2756 44.7259 31.4921C44.7259 29.7086 43.2743 28.2575 41.4898 28.2575ZM41.4898 36.4893C38.7331 36.4893 36.4902 34.2476 36.4902 31.4921C36.4902 28.7366 38.7331 26.4949 41.4898 26.4949C44.2466 26.4949 46.4894 28.7366 46.4894 31.4921C46.4894 34.2476 44.2466 36.4893 41.4898 36.4893Z" fill="#1D1D1B"/>
<path fill-rule="evenodd" clip-rule="evenodd" d="M12.174 35.7255H10.4731C9.45257 35.7255 8.49792 35.3207 7.78498 34.5855C7.10368 33.8825 6.72852 32.9581 6.72852 31.9826V24.975C6.72852 24.4881 7.12331 24.0936 7.61028 24.0936C8.09725 24.0936 8.49204 24.4881 8.49204 24.975V31.9826C8.49204 32.4978 8.69073 32.9865 9.05155 33.3588C9.42906 33.7484 9.93402 33.9628 10.4731 33.9628H12.174C12.661 33.9628 13.0558 34.3573 13.0558 34.8442C13.0558 35.331 12.661 35.7255 12.174 35.7255Z" fill="#1D1D1B"/>
<path fill-rule="evenodd" clip-rule="evenodd" d="M13.9654 34.8752C13.9654 35.8634 13.164 36.6647 12.1751 36.6647C11.1862 36.6647 10.3848 35.8634 10.3848 34.8752C10.3848 33.8869 11.1862 33.0856 12.1751 33.0856C13.164 33.0856 13.9654 33.8869 13.9654 34.8752Z" fill="#FEFEFE"/>
<path fill-rule="evenodd" clip-rule="evenodd" d="M12.1742 33.967C11.6731 33.967 11.2655 34.3744 11.2655 34.8753C11.2655 35.376 11.6731 35.7834 12.1742 35.7834C12.6752 35.7834 13.0828 35.376 13.0828 34.8753C13.0828 34.3744 12.6752 33.967 12.1742 33.967ZM12.1742 37.5461C10.7007 37.5461 9.50195 36.3479 9.50195 34.8753C9.50195 33.4025 10.7007 32.2043 12.1742 32.2043C13.6475 32.2043 14.8464 33.4025 14.8464 34.8753C14.8464 36.3479 13.6475 37.5461 12.1742 37.5461Z" fill="#1D1D1B"/>
<path fill-rule="evenodd" clip-rule="evenodd" d="M24.4551 30.5227H4.29973C3.81276 30.5227 3.41797 30.1282 3.41797 29.6413C3.41797 29.1545 3.81276 28.76 4.29973 28.76H24.4551C24.9421 28.76 25.3368 29.1545 25.3368 29.6413C25.3368 30.1282 24.9421 30.5227 24.4551 30.5227Z" fill="#1D1D1B"/>
<path fill-rule="evenodd" clip-rule="evenodd" d="M1.38466 30.5227H1.38372C0.896747 30.5227 0.501953 30.1282 0.501953 29.6413C0.501953 29.1545 0.896747 28.76 1.38372 28.76C1.8708 28.76 2.26595 29.1545 2.26595 29.6413C2.26595 30.1282 1.87174 30.5227 1.38466 30.5227Z" fill="#1D1D1B"/>
<path fill-rule="evenodd" clip-rule="evenodd" d="M7.61095 27.7964H1.38372C0.896747 27.7964 0.501953 27.4019 0.501953 26.915C0.501953 26.4282 0.896747 26.0337 1.38372 26.0337H7.61095C8.09804 26.0337 8.49272 26.4282 8.49272 26.915C8.49272 27.4019 8.09804 27.7964 7.61095 27.7964Z" fill="#1D1D1B"/>
<path fill-rule="evenodd" clip-rule="evenodd" d="M61.0381 19.5189H20.1747C19.6876 19.5189 19.293 19.1244 19.293 18.6376C19.293 18.1507 19.6876 17.7562 20.1747 17.7562H61.0381C61.5251 17.7562 61.9198 18.1507 61.9198 18.6376C61.9198 19.1244 61.5251 19.5189 61.0381 19.5189Z" fill="#1D1D1B"/>
<path fill-rule="evenodd" clip-rule="evenodd" d="M20.1747 19.5076C19.6876 19.5076 19.293 19.113 19.293 18.6263L19.2931 1.83917C19.2931 1.58087 19.4065 1.33551 19.6033 1.16817C19.8002 1.00072 20.0606 0.928451 20.3157 0.969228C20.3513 0.974986 23.9115 1.54539 26.595 1.54539C29.2924 1.54539 33.6359 0.97146 33.6794 0.965585C33.7601 0.954656 33.8423 0.955244 33.9229 0.967112C33.9627 0.97287 37.9295 1.54539 40.6063 1.54539C43.2856 1.54539 47.2502 0.97287 47.29 0.967112C47.3771 0.954304 47.4659 0.954891 47.5532 0.968405C47.5901 0.974163 51.2813 1.54539 54.0557 1.54539C56.8363 1.54539 60.8725 0.972518 60.913 0.966877C61.395 0.897428 61.8418 1.23245 61.9108 1.71425C61.9798 2.19617 61.6449 2.64259 61.163 2.71157C60.9929 2.73601 56.9631 3.30806 54.0557 3.30806C51.413 3.30806 48.1184 2.83602 47.4127 2.73014C46.6803 2.83308 43.1624 3.30806 40.6063 3.30806C38.039 3.30806 34.5015 2.82885 33.7907 2.72873C33.044 2.82532 29.1835 3.30806 26.595 3.30806C24.6531 3.30806 22.3546 3.03708 21.0566 2.8594L21.0565 18.6263C21.0565 19.113 20.6617 19.5076 20.1747 19.5076Z" fill="#1D1D1B"/>
<path fill-rule="evenodd" clip-rule="evenodd" d="M33.7958 19.5075C33.3087 19.5075 32.9141 19.1131 32.9141 18.6262L32.9142 1.8391C32.9142 1.35237 33.309 0.957764 33.7959 0.957764C34.283 0.957764 34.6777 1.35248 34.6777 1.8391L34.6776 18.6262C34.6776 19.1129 34.2828 19.5075 33.7958 19.5075Z" fill="#1D1D1B"/>
<path fill-rule="evenodd" clip-rule="evenodd" d="M47.4169 19.5075C46.9298 19.5075 46.5352 19.1131 46.5352 18.6262L46.5353 1.8391C46.5353 1.35237 46.9301 0.957764 47.417 0.957764C47.9041 0.957764 48.2988 1.35248 48.2988 1.8391L48.2987 18.6262C48.2987 19.1129 47.9039 19.5075 47.4169 19.5075Z" fill="#1D1D1B"/>
<path fill-rule="evenodd" clip-rule="evenodd" d="M61.038 18.3154C60.5509 18.3154 60.1562 17.9208 60.1562 17.4341L60.1564 1.83922C60.1564 1.35249 60.5512 0.957886 61.0381 0.957886C61.5252 0.957886 61.9199 1.35249 61.9199 1.83922L61.9198 17.4341C61.9198 17.9208 61.525 18.3154 61.038 18.3154Z" fill="#1D1D1B"/>
</svg>
