<svg width="99" height="98" viewBox="0 0 99 98" fill="none" xmlns="http://www.w3.org/2000/svg">
<g opacity="0.724946">
<path fill-rule="evenodd" clip-rule="evenodd" d="M90.8932 97.9665C88.9203 97.9582 87.03 97.1727 85.6321 95.7804L65.6127 75.8304C47.9501 88.207 23.7635 85.0687 9.84445 68.5943C-4.07462 52.1198 -3.13034 27.7488 12.0217 12.4007C27.1738 -2.94736 51.5307 -4.20478 68.1827 9.50141C84.8347 23.2076 88.2835 47.3519 76.1349 65.172L96.1544 85.1887C98.276 87.3306 98.9089 90.5346 97.7611 93.3223C96.6133 96.11 93.9079 97.9394 90.8932 97.9665ZM42.2488 15.7082C27.7973 15.7082 16.0821 27.4234 16.0821 41.8748C16.0821 56.3263 27.7973 68.0415 42.2488 68.0415C56.7002 68.0415 68.4155 56.3263 68.4155 41.8748C68.3895 27.4342 56.6895 15.7341 42.2488 15.7082ZM59.1238 45.5637C60.1344 45.5445 60.949 44.7299 60.9682 43.7193L60.9794 43.7165V40.0276C60.9601 39.017 60.1455 38.2024 59.1349 38.1832H46.0182V25.0665C45.999 24.0559 45.1844 23.2413 44.1738 23.222H40.4016C39.391 23.2413 38.5764 24.0559 38.5571 25.0665V38.1859H25.4405C24.4299 38.2052 23.6152 39.0198 23.596 40.0304V43.7804C23.6152 44.791 24.4299 45.6056 25.4405 45.6248H38.5599V58.6804C38.5791 59.691 39.3938 60.5056 40.4044 60.5248H44.1627C45.1733 60.5056 45.9879 59.691 46.0071 58.6804V45.5637H59.1238Z" fill="white"/>
</g>
</svg>
