<svg width="40" height="40" viewBox="0 0 40 40" fill="none" xmlns="http://www.w3.org/2000/svg">
<path fill-rule="evenodd" clip-rule="evenodd" d="M38.6666 37.6272L21.215 24.073C20.5001 23.5161 19.4984 23.5161 18.7836 24.073L1.33132 37.6272V16.3471L12.2566 24.8311C12.5477 25.0567 12.9666 25.0038 13.1923 24.7126C13.4181 24.4215 13.3651 24.0026 13.074 23.777L1.97471 15.1583L6.66496 11.5134V16.6651C6.66496 17.0333 6.96349 17.3318 7.33164 17.3318C7.69986 17.3318 7.99831 17.0332 7.99831 16.6651V4.66426C7.99831 4.29603 8.29677 3.99757 8.66499 3.99757H31.3328C31.701 3.99757 31.9995 4.29603 31.9995 4.66426V16.6651C31.9995 17.0333 32.2979 17.3318 32.6661 17.3318C33.0344 17.3318 33.3328 17.0332 33.3328 16.6651V11.5134L38.0231 15.1583L26.9045 23.7923C26.7133 23.9372 26.6146 24.1739 26.6462 24.4118C26.678 24.6496 26.8351 24.8521 27.0578 24.942C27.2803 25.0316 27.534 24.9949 27.7219 24.8456L38.6665 16.3471V37.6272H38.6666ZM2.16605 38.6667L19.599 25.125C19.832 24.9403 20.1615 24.9403 20.3944 25.125L37.8318 38.6667H2.16605ZM19.5989 1.47006C19.8317 1.28505 20.1615 1.28505 20.3943 1.47006L21.9323 2.66412H18.0655L19.5989 1.47006ZM39.992 15.2917C39.9879 15.2458 39.9788 15.2004 39.9647 15.1564C39.9555 15.1171 39.9428 15.0787 39.9267 15.0417C39.908 15.0055 39.8857 14.9713 39.86 14.9396C39.8343 14.9021 39.8045 14.8674 39.7714 14.8363C39.7607 14.827 39.756 14.8142 39.7448 14.8049L33.333 9.82531V4.66434C33.333 3.55973 32.4375 2.6642 31.333 2.6642H24.1079L21.215 0.418036C20.5003 -0.139345 19.4982 -0.139345 18.7836 0.418036L15.8901 2.6642H8.66499C7.5604 2.6642 6.66488 3.55965 6.66488 4.66434V9.82539L0.255248 14.805C0.243919 14.8144 0.239231 14.8271 0.228606 14.8364C0.195401 14.8674 0.165634 14.9021 0.139929 14.9397C0.114303 14.9714 0.091958 15.0055 0.0732851 15.0418C0.0571124 15.0787 0.0444555 15.1172 0.0353144 15.1565C0.0214074 15.1998 0.0122663 15.2445 0.00796917 15.2898C0.00796917 15.3038 0 15.3158 0 15.3298V37.9999C0.000937549 38.424 0.138132 38.8366 0.391349 39.1766C0.395333 39.1826 0.396037 39.1899 0.400646 39.1953C0.405334 39.2006 0.415334 39.2066 0.421975 39.214C0.796526 39.7068 1.37906 39.9973 1.99807 40H38C38.6214 39.9982 39.2064 39.7062 39.5814 39.2107C39.5866 39.2041 39.5947 39.202 39.5994 39.1953C39.604 39.1887 39.6047 39.1827 39.6087 39.1767C39.8619 38.8366 39.9991 38.424 40 37.9999V15.3317C39.9999 15.3177 39.9927 15.3057 39.992 15.2917Z" fill="black"/>
<path fill-rule="evenodd" clip-rule="evenodd" d="M27.9245 15.849V13.2075C27.9245 8.83095 24.3766 5.28302 20 5.28302C15.6234 5.28302 12.0754 8.83095 12.0754 13.2075C12.0754 17.5841 15.6234 21.1321 20 21.1321C20.3647 21.1321 20.6603 20.8365 20.6603 20.4717C20.6603 20.107 20.3646 19.8114 20 19.8114C16.3528 19.8114 13.3962 16.8548 13.3962 13.2076C13.3962 9.56049 16.3528 6.60388 20 6.60388C23.6471 6.60388 26.6037 9.56049 26.6037 13.2076V15.8491C26.6037 16.5786 26.0124 17.1699 25.2829 17.1699C24.5535 17.1699 23.9621 16.5786 23.9621 15.8491V13.2076C23.9621 12.8429 23.6665 12.5473 23.3018 12.5473C22.9371 12.5473 22.6414 12.8429 22.6414 13.2076C22.6414 14.6665 21.4588 15.8491 20 15.8491C18.5411 15.8491 17.3585 14.6665 17.3585 13.2076C17.3585 11.7488 18.5411 10.5661 20 10.5661C20.3647 10.5661 20.6603 10.2705 20.6603 9.90579C20.6603 9.54106 20.3647 9.24544 20 9.24544C18.2266 9.24149 16.6666 10.4163 16.1806 12.1218C15.6946 13.8273 16.4009 15.648 17.9099 16.5794C19.419 17.5109 21.3631 17.3262 22.6698 16.1272C22.8136 17.5238 24.0275 18.5622 25.4294 18.488C26.8315 18.4137 27.9289 17.253 27.9245 15.849Z" fill="black"/>
</svg>
