<svg width="10" height="17" viewBox="0 0 10 17" fill="none" xmlns="http://www.w3.org/2000/svg">
<mask id="mask0" mask-type="alpha" maskUnits="userSpaceOnUse" x="0" y="0" width="10" height="17">
<path fill-rule="evenodd" clip-rule="evenodd" d="M10 0.000366211H0.976833V16.4154H10V0.000366211Z" fill="white"/>
</mask>
<g mask="url(#mask0)">
<path fill-rule="evenodd" clip-rule="evenodd" d="M3.34 8.20784L9.70667 1.69344C9.90333 1.50814 10 1.27524 10 0.996444C10 0.717644 9.90333 0.484744 9.70667 0.299444C9.525 0.0988441 9.29667 0.000244141 9.02333 0.000244141C8.75 0.000244141 8.52167 0.0988441 8.34 0.299444L1.27 7.51084C1.165 7.60434 1.09 7.70974 1.045 7.82874C1 7.94944 0.976666 8.07524 0.976666 8.20784C0.976666 8.34044 1 8.46624 1.045 8.58694C1.09 8.70595 1.165 8.81134 1.27 8.90484L8.34 16.1162C8.52167 16.3168 8.75 16.4154 9.02333 16.4154C9.29667 16.4154 9.525 16.3168 9.70667 16.1162C9.90333 15.9309 10 15.698 10 15.4192C10 15.1404 9.90333 14.9075 9.70667 14.7222L3.34 8.20784Z" fill="#1D1D1B"/>
</g>
</svg>
