<svg width="49" height="49" viewBox="0 0 49 49" fill="none" xmlns="http://www.w3.org/2000/svg">
<path fill-rule="evenodd" clip-rule="evenodd" d="M28.8624 17.9669C29.3377 18.4423 29.5775 19.027 29.5775 19.7169C29.5775 20.4069 29.3377 20.9916 28.8624 21.4669C28.387 21.9423 27.8023 22.1821 27.1124 22.1821H22.1821V27.1124C22.1821 27.8023 21.9423 28.387 21.4669 28.8624C20.9916 29.3377 20.4069 29.5775 19.7169 29.5775C19.027 29.5775 18.4423 29.3377 17.9669 28.8624C17.4916 28.387 17.2518 27.8023 17.2518 27.1124V22.1821H12.3215C11.6316 22.1821 11.0511 21.9423 10.5715 21.4669C10.0962 20.9916 9.85637 20.4069 9.85637 19.7169C9.85637 19.027 10.0962 18.4423 10.5715 17.9669C11.0511 17.4916 11.6316 17.2518 12.3215 17.2518H17.2518V12.3215C17.2518 11.6316 17.4916 11.0469 17.9669 10.5715C18.4423 10.0962 19.027 9.85637 19.7169 9.85637C20.4069 9.85637 20.9916 10.0962 21.4669 10.5715C21.9423 11.0469 22.1821 11.6316 22.1821 12.3215V17.2518H27.1124C27.8023 17.2518 28.387 17.4916 28.8624 17.9669ZM6.11238 25.4844C6.86538 27.2596 7.91707 28.8203 9.26743 30.1665C10.6136 31.5168 12.1743 32.5685 13.9495 33.3215C15.7584 34.1124 17.6809 34.5078 19.7169 34.5078C21.7572 34.5078 23.6797 34.1124 25.4844 33.3215C27.2596 32.5685 28.8203 31.5168 30.1707 30.1665C31.5168 28.8203 32.5685 27.2596 33.3257 25.4844C34.1124 23.6755 34.5078 21.753 34.5078 19.7169C34.5078 17.6809 34.1124 15.7584 33.3257 13.9495C32.5685 12.1743 31.5168 10.6136 30.1707 9.26743C28.8203 7.91707 27.2596 6.86538 25.4844 6.11238C23.6797 5.32151 21.7572 4.92608 19.7169 4.92608C17.6809 4.92608 15.7584 5.32151 13.9495 6.11238C12.1743 6.86538 10.6136 7.91707 9.26743 9.26743C7.91707 10.6136 6.86538 12.1743 6.11238 13.9495C5.32151 15.7584 4.93029 17.6809 4.93029 19.7169C4.93029 21.753 5.32151 23.6755 6.11238 25.4844ZM49 46.5349C49 47.2248 48.756 47.8011 48.2596 48.2596C48.0325 48.5246 47.7674 48.7139 47.473 48.8275C47.1785 48.9411 46.863 49 46.5349 49C46.2067 49 45.8954 48.9411 45.601 48.8275C45.3023 48.7139 45.0415 48.5246 44.8101 48.2596L31.7945 35.2945C30.1202 36.5775 28.2524 37.5871 26.1995 38.3275C24.1466 39.0679 21.9844 39.4381 19.7169 39.4381C16.991 39.4381 14.4249 38.9249 12.027 37.9069C9.66286 36.8552 7.58053 35.4333 5.79267 33.6454C4.0006 31.8534 2.57873 29.7752 1.52704 27.4069C0.509014 25.009 0 22.4429 0 19.7169C0 16.991 0.509014 14.4249 1.52704 12.027C2.57873 9.65865 4.0006 7.58053 5.79267 5.78846C7.58053 4.0006 9.66286 2.57873 12.027 1.52704C14.4249 0.509014 16.991 0 19.7169 0C22.4471 0 25.009 0.509014 27.4069 1.52704C29.7752 2.57873 31.8534 4.0006 33.6454 5.78846C35.4333 7.58053 36.8552 9.65865 37.9069 12.027C38.9291 14.4249 39.4381 16.991 39.4381 19.7169C39.4381 21.9844 39.0679 24.1466 38.3275 26.1995C37.5871 28.2524 36.5775 30.1202 35.2945 31.7945L48.2596 44.8101C48.756 45.2686 49 45.845 49 46.5349Z" fill="white"/>
</svg>
