<svg width="198" height="186" viewBox="0 0 198 186" fill="none" xmlns="http://www.w3.org/2000/svg">
<g opacity="0.066236">
<path fill-rule="evenodd" clip-rule="evenodd" d="M155 168C156.655 168 158 166.655 158 165C158 163.343 156.655 162 155 162C153.343 162 152 163.343 152 165C152 166.655 153.343 168 155 168" fill="#1D1D1B"/>
<path fill-rule="evenodd" clip-rule="evenodd" d="M90 168C91.6552 168 93 166.655 93 165C93 163.343 91.6552 162 90 162C88.3448 162 87 163.343 87 165C87 166.655 88.3448 168 90 168" fill="#1D1D1B"/>
<mask id="mask0" mask-type="alpha" maskUnits="userSpaceOnUse" x="0" y="0" width="198" height="186">
<path fill-rule="evenodd" clip-rule="evenodd" d="M0 0H197.808V186H0V0Z" fill="white"/>
</mask>
<g mask="url(#mask0)">
<path fill-rule="evenodd" clip-rule="evenodd" d="M176.206 105.561C175.774 107.291 174.233 108.5 172.454 108.5H154.663L157.561 85.2498H181.269L176.206 105.561ZM168.445 139.5C170.575 139.5 172.309 141.237 172.309 143.375C172.309 145.511 170.575 147.25 168.445 147.25H65.678C63.8782 147.25 62.3314 146.02 61.9165 144.262L31.7109 15.4998H11.5902C9.4586 15.4998 7.72683 13.7613 7.72683 11.6248C7.72683 9.48672 9.4586 7.74976 11.5902 7.74976H34.7707C36.5706 7.74976 38.1174 8.97813 38.5322 10.7374L62.5579 113.15C62.5579 113.157 62.5598 113.164 62.5617 113.171L68.7379 139.5H168.445ZM164.582 166.625C164.582 173.035 159.383 178.25 152.992 178.25C146.6 178.25 141.401 173.035 141.401 166.625C141.401 160.214 146.6 155 152.992 155C159.383 155 164.582 160.214 164.582 166.625V166.625ZM100.449 166.625C100.449 173.035 95.2496 178.25 88.8585 178.25C82.4675 178.25 77.2683 173.035 77.2683 166.625C77.2683 160.214 82.4675 155 88.8585 155C95.2496 155 100.449 160.214 100.449 166.625V166.625ZM82.7428 54.2498L85.6403 77.4998H62.1295L56.6777 54.2498H82.7428ZM69.4019 108.5L63.9482 85.2498H86.6062L89.5037 108.5H69.4019ZM137.538 85.2498H149.773L146.876 108.5H125.948V96.8748C125.948 94.7348 124.218 92.9998 122.084 92.9998C119.951 92.9998 118.221 94.7348 118.221 96.8748V108.5H97.2909L94.3934 85.2498H106.631C108.764 85.2498 110.494 83.5147 110.494 81.3748C110.494 79.2348 108.764 77.4998 106.631 77.4998H93.4275L90.5299 54.2498H118.221V65.8748C118.221 68.0147 119.951 69.7498 122.084 69.7498C124.218 69.7498 125.948 68.0147 125.948 65.8748V54.2498H153.637L150.739 77.4998H137.538C135.404 77.4998 133.675 79.2348 133.675 81.3748C133.675 83.5147 135.404 85.2498 137.538 85.2498V85.2498ZM183.199 77.4998H158.527L161.424 54.2498H188.994L183.199 77.4998ZM196.989 47.9911C196.257 47.0486 195.132 46.4998 193.944 46.4998H54.8595L46.0534 8.96069C44.8122 3.68343 40.1718 -0.000244141 34.7707 -0.000244141H11.5902C5.19919 -0.000244141 0 5.21454 0 11.6248C0 18.035 5.19919 23.2498 11.5902 23.2498H25.5913L54.3954 146.039C55.6365 151.316 60.277 155 65.678 155H73.416C70.9844 158.241 69.5415 162.267 69.5415 166.625C69.5415 177.307 78.2076 186 88.8585 186C99.5095 186 108.176 177.307 108.176 166.625C108.176 162.267 106.733 158.241 104.301 155H137.547C135.118 158.241 133.675 162.267 133.675 166.625C133.675 177.307 142.339 186 152.992 186C163.642 186 172.309 177.307 172.309 166.625C172.309 162.267 170.865 158.241 168.434 155H168.445C174.836 155 180.036 149.785 180.036 143.375C180.036 136.964 174.836 131.75 168.445 131.75H74.8575L71.2206 116.25H172.456C177.781 116.25 182.407 112.629 183.702 107.442L197.692 51.3149C197.981 50.1573 197.721 48.9308 196.989 47.9911V47.9911Z" fill="#1D1D1B"/>
</g>
<path fill-rule="evenodd" clip-rule="evenodd" d="M127 80C125.343 80 124 81.3433 124 83C124 84.6552 125.343 86 127 86C128.655 86 130 84.6552 130 83C130 81.3433 128.655 80 127 80" fill="#1D1D1B"/>
</g>
</svg>
