<svg width="285" height="167" viewBox="0 0 285 167" fill="none" xmlns="http://www.w3.org/2000/svg">
<path fill-rule="evenodd" clip-rule="evenodd" d="M267.823 165.81H14.8703C6.84005 165.81 0.296875 159.267 0.296875 151.237V14.7221C0.296875 6.69186 6.84005 0.148682 14.8703 0.148682H267.823C275.854 0.148682 282.397 6.69186 282.397 14.7221V151.237C282.397 159.267 275.854 165.81 267.823 165.81Z" fill="white"/>
<path fill-rule="evenodd" clip-rule="evenodd" d="M14.8711 165.959H267.824C276.003 165.959 282.546 159.415 282.546 151.237V14.7221C282.546 6.69188 276.003 0 267.824 0H14.8711C6.69209 0 0.000207394 6.69188 0.148916 14.7221V151.237C0.148916 159.267 6.69209 165.959 14.8711 165.959ZM0.446333 14.7221C0.446333 6.84059 6.98951 0.297417 14.8711 0.297417H267.824C275.706 0.297417 282.249 6.84059 282.249 14.7221V151.237C282.249 159.118 275.706 165.661 267.824 165.661H14.8711C6.98951 165.661 0.446333 159.118 0.446333 151.237V14.7221Z" fill="#020203"/>
<path fill-rule="evenodd" clip-rule="evenodd" d="M194.064 149.155H195.105C195.26 149.155 195.414 149.172 195.563 149.19C195.843 149.222 196.1 149.252 196.295 149.155C196.741 149.303 197.038 149.452 197.336 149.898C197.633 150.344 197.93 150.79 198.377 151.534L199.566 153.467C199.864 153.913 200.012 154.211 200.161 154.508C200.265 154.715 200.441 154.851 200.588 154.964C200.652 155.013 200.711 155.058 200.756 155.103C200.905 155.252 201.202 155.4 201.499 155.4C201.797 155.4 202.094 155.4 202.243 155.252L202.689 154.805C202.838 154.508 202.838 154.359 202.838 154.211C202.838 153.993 202.758 153.775 202.657 153.499C202.62 153.398 202.58 153.289 202.54 153.17C202.243 152.724 201.946 152.129 201.648 151.534C201.443 151.123 201.167 150.783 200.868 150.417C200.735 150.252 200.597 150.082 200.458 149.898C200.098 149.418 199.641 149.131 199.244 148.882C199.149 148.823 199.057 148.766 198.971 148.708C200.161 148.411 201.053 147.965 201.648 147.37C202.243 146.775 202.54 145.883 202.54 144.842C202.54 144.247 202.392 143.801 202.243 143.355C202.094 142.909 201.797 142.463 201.499 142.165C201.202 141.868 200.756 141.57 200.31 141.422C200.012 141.273 199.566 141.124 199.12 141.124C198.674 140.976 198.079 140.976 197.484 140.976H192.874C192.28 140.976 191.833 141.124 191.536 141.422C191.239 141.719 191.09 142.165 191.09 142.76V153.616C191.09 154.211 191.239 154.657 191.536 154.954C191.833 155.252 192.131 155.4 192.577 155.4C193.023 155.4 193.32 155.252 193.618 154.954C193.915 154.657 194.064 154.211 194.064 153.616V149.155ZM194.064 143.206H196.741C197.782 143.206 198.377 143.355 198.525 143.504C198.971 143.504 199.269 143.801 199.418 144.098C199.566 144.396 199.715 144.693 199.715 145.139C199.715 145.586 199.715 146.032 199.418 146.329C199.269 146.627 198.823 146.775 198.377 146.924C197.93 147.073 197.336 147.073 196.592 147.073H194.064V143.206Z" fill="black"/>
<path d="M194.064 149.155V149.063C194.014 149.063 193.973 149.104 193.973 149.155H194.064ZM195.563 149.19L195.573 149.099L195.563 149.19ZM196.295 149.155L196.324 149.068C196.301 149.06 196.275 149.062 196.254 149.073L196.295 149.155ZM198.377 151.534L198.298 151.581L198.299 151.582L198.377 151.534ZM199.566 153.467L199.488 153.515L199.49 153.518L199.566 153.467ZM200.161 154.508L200.079 154.549V154.549L200.161 154.508ZM200.588 154.964L200.644 154.891L200.644 154.891L200.588 154.964ZM202.243 155.252L202.178 155.187L202.243 155.252ZM202.689 154.805L202.754 154.87C202.761 154.863 202.766 154.855 202.771 154.846L202.689 154.805ZM202.657 153.499L202.743 153.468V153.468L202.657 153.499ZM202.54 153.17L202.627 153.141C202.624 153.133 202.621 153.126 202.616 153.119L202.54 153.17ZM201.648 151.534L201.566 151.575L201.648 151.534ZM200.868 150.417L200.939 150.359L200.868 150.417ZM200.458 149.898L200.385 149.953V149.953L200.458 149.898ZM199.244 148.882L199.292 148.805L199.244 148.882ZM198.971 148.708L198.949 148.62C198.914 148.629 198.888 148.657 198.881 148.693C198.875 148.728 198.891 148.764 198.921 148.784L198.971 148.708ZM201.499 142.165L201.435 142.23L201.499 142.165ZM200.31 141.422L200.269 141.504L200.281 141.508L200.31 141.422ZM199.12 141.124L199.091 141.211C199.101 141.214 199.11 141.216 199.12 141.216V141.124ZM194.064 143.206V143.115C194.014 143.115 193.973 143.156 193.973 143.206H194.064ZM198.525 143.504L198.461 143.568C198.478 143.585 198.501 143.595 198.525 143.595V143.504ZM199.418 144.098L199.336 144.139L199.418 144.098ZM199.418 146.329L199.353 146.264C199.346 146.271 199.34 146.279 199.336 146.288L199.418 146.329ZM194.064 147.073H193.973C193.973 147.123 194.014 147.164 194.064 147.164V147.073ZM195.105 149.063H194.064V149.246H195.105V149.063ZM195.573 149.099C195.426 149.082 195.266 149.063 195.105 149.063V149.246C195.254 149.246 195.403 149.263 195.552 149.28L195.573 149.099ZM196.254 149.073C196.174 149.113 196.077 149.129 195.96 149.129C195.843 149.13 195.714 149.115 195.573 149.099L195.552 149.28C195.691 149.296 195.831 149.313 195.961 149.312C196.092 149.311 196.221 149.294 196.335 149.236L196.254 149.073ZM197.412 149.847C197.257 149.616 197.1 149.458 196.922 149.339C196.744 149.22 196.549 149.143 196.324 149.068L196.266 149.241C196.487 149.315 196.663 149.386 196.82 149.491C196.976 149.595 197.117 149.734 197.26 149.949L197.412 149.847ZM198.455 151.487C198.008 150.741 197.709 150.294 197.412 149.847L197.26 149.949C197.557 150.395 197.853 150.839 198.298 151.581L198.455 151.487ZM199.644 153.419L198.454 151.486L198.299 151.582L199.488 153.515L199.644 153.419ZM200.243 154.467C200.094 154.169 199.943 153.867 199.642 153.416L199.49 153.518C199.784 153.959 199.931 154.253 200.079 154.549L200.243 154.467ZM200.644 154.891C200.494 154.777 200.336 154.653 200.243 154.467L200.079 154.549C200.194 154.778 200.387 154.924 200.533 155.036L200.644 154.891ZM200.82 155.038C200.77 154.988 200.706 154.939 200.644 154.891L200.533 155.036C200.598 155.086 200.651 155.128 200.691 155.167L200.82 155.038ZM201.499 155.309C201.228 155.309 200.953 155.171 200.82 155.038L200.691 155.167C200.856 155.332 201.176 155.492 201.499 155.492V155.309ZM202.178 155.187C202.125 155.24 202.038 155.274 201.914 155.291C201.792 155.309 201.65 155.309 201.499 155.309V155.492C201.646 155.492 201.802 155.492 201.94 155.472C202.077 155.453 202.212 155.412 202.308 155.316L202.178 155.187ZM202.625 154.741L202.178 155.187L202.308 155.316L202.754 154.87L202.625 154.741ZM202.746 154.211C202.746 154.285 202.746 154.351 202.73 154.434C202.713 154.518 202.679 154.621 202.607 154.765L202.771 154.846C202.848 154.692 202.888 154.573 202.909 154.47C202.929 154.368 202.929 154.285 202.929 154.211H202.746ZM202.571 153.531C202.674 153.811 202.746 154.012 202.746 154.211H202.929C202.929 153.973 202.842 153.739 202.743 153.468L202.571 153.531ZM202.454 153.199C202.494 153.32 202.534 153.43 202.571 153.531L202.743 153.468C202.706 153.367 202.666 153.259 202.627 153.141L202.454 153.199ZM201.566 151.575C201.863 152.168 202.163 152.768 202.464 153.22L202.616 153.119C202.323 152.679 202.028 152.09 201.73 151.493L201.566 151.575ZM200.798 150.474C201.097 150.842 201.366 151.174 201.566 151.575L201.73 151.493C201.519 151.072 201.236 150.725 200.939 150.359L200.798 150.474ZM200.385 149.953C200.525 150.139 200.664 150.31 200.798 150.474L200.939 150.359C200.805 150.194 200.668 150.026 200.532 149.843L200.385 149.953ZM199.195 148.96C199.594 149.209 200.037 149.488 200.385 149.953L200.532 149.843C200.16 149.348 199.689 149.053 199.292 148.805L199.195 148.96ZM198.921 148.784C199.008 148.843 199.1 148.901 199.195 148.96L199.292 148.805C199.197 148.745 199.107 148.689 199.022 148.632L198.921 148.784ZM201.584 147.305C201.005 147.884 200.13 148.325 198.949 148.62L198.994 148.797C200.192 148.497 201.102 148.045 201.713 147.435L201.584 147.305ZM202.449 144.842C202.449 145.867 202.156 146.733 201.584 147.305L201.713 147.435C202.33 146.818 202.632 145.899 202.632 144.842H202.449ZM202.156 143.384C202.305 143.83 202.449 144.263 202.449 144.842H202.632C202.632 144.231 202.478 143.772 202.33 143.326L202.156 143.384ZM201.435 142.23C201.723 142.518 202.013 142.953 202.156 143.384L202.33 143.326C202.176 142.865 201.87 142.407 201.564 142.101L201.435 142.23ZM200.281 141.508C200.712 141.652 201.146 141.941 201.435 142.23L201.564 142.101C201.258 141.794 200.8 141.489 200.339 141.335L200.281 141.508ZM199.12 141.216C199.548 141.216 199.98 141.359 200.269 141.503L200.351 141.34C200.045 141.187 199.584 141.033 199.12 141.033V141.216ZM197.484 141.067C198.084 141.067 198.662 141.068 199.091 141.211L199.149 141.038C198.686 140.883 198.074 140.884 197.484 140.884V141.067ZM192.874 141.067H197.484V140.884H192.874V141.067ZM191.601 141.486C191.875 141.212 192.294 141.067 192.874 141.067V140.884C192.265 140.884 191.792 141.037 191.471 141.357L191.601 141.486ZM191.181 142.76C191.181 142.179 191.326 141.761 191.601 141.486L191.471 141.357C191.151 141.678 190.998 142.151 190.998 142.76H191.181ZM191.181 153.616V142.76H190.998V153.616H191.181ZM191.601 154.89C191.326 154.615 191.181 154.197 191.181 153.616H190.998C190.998 154.225 191.151 154.698 191.471 155.019L191.601 154.89ZM192.577 155.309C192.365 155.309 192.192 155.274 192.038 155.205C191.884 155.137 191.744 155.033 191.601 154.89L191.471 155.019C191.625 155.173 191.783 155.292 191.964 155.372C192.144 155.453 192.343 155.492 192.577 155.492V155.309ZM193.553 154.89C193.41 155.033 193.27 155.137 193.116 155.205C192.962 155.274 192.789 155.309 192.577 155.309V155.492C192.811 155.492 193.01 155.453 193.19 155.372C193.371 155.292 193.528 155.173 193.682 155.019L193.553 154.89ZM193.973 153.616C193.973 154.197 193.828 154.615 193.553 154.89L193.682 155.019C194.003 154.698 194.155 154.225 194.155 153.616H193.973ZM193.973 149.155V153.616H194.155V149.155H193.973ZM196.741 143.115H194.064V143.298H196.741V143.115ZM198.59 143.439C198.539 143.388 198.459 143.345 198.362 143.309C198.263 143.272 198.137 143.238 197.984 143.209C197.68 143.152 197.265 143.115 196.741 143.115V143.298C197.257 143.298 197.66 143.334 197.951 143.389C198.096 143.416 198.211 143.447 198.298 143.48C198.387 143.513 198.437 143.545 198.461 143.568L198.59 143.439ZM199.499 144.058C199.341 143.742 199.018 143.412 198.525 143.412V143.595C198.925 143.595 199.196 143.861 199.336 144.139L199.499 144.058ZM199.806 145.139C199.806 144.67 199.648 144.356 199.499 144.058L199.336 144.139C199.484 144.436 199.624 144.717 199.624 145.139H199.806ZM199.482 146.394C199.648 146.228 199.728 146.022 199.768 145.806C199.807 145.592 199.806 145.361 199.806 145.139H199.624C199.624 145.364 199.623 145.579 199.588 145.774C199.553 145.967 199.484 146.133 199.353 146.264L199.482 146.394ZM198.405 147.011C198.627 146.937 198.857 146.86 199.049 146.764C199.241 146.668 199.412 146.545 199.499 146.37L199.336 146.288C199.275 146.41 199.148 146.511 198.968 146.601C198.789 146.69 198.572 146.762 198.348 146.837L198.405 147.011ZM196.592 147.164C197.33 147.164 197.942 147.165 198.405 147.011L198.348 146.837C197.919 146.98 197.342 146.981 196.592 146.981V147.164ZM194.064 147.164H196.592V146.981H194.064V147.164ZM193.973 143.206V147.073H194.155V143.206H193.973Z" fill="black"/>
<path fill-rule="evenodd" clip-rule="evenodd" d="M206.258 149.303V142.463C206.258 141.868 206.407 141.422 206.704 141.124C207.001 140.827 207.299 140.678 207.745 140.678C208.191 140.678 208.488 140.827 208.786 141.124C209.083 141.422 209.232 141.868 209.232 142.463V149.452C209.232 150.196 209.381 150.939 209.529 151.385C209.678 151.98 209.976 152.277 210.422 152.575C210.868 152.872 211.463 153.021 212.355 153.021C213.545 153.021 214.288 152.724 214.734 152.129C215.18 151.534 215.478 150.642 215.478 149.452V142.463C215.478 141.868 215.626 141.422 215.924 141.124C216.221 140.827 216.519 140.678 216.965 140.678C217.411 140.678 217.708 140.827 218.006 141.124C218.303 141.422 218.452 141.868 218.452 142.463V149.303C218.452 150.344 218.303 151.385 218.154 152.129C218.006 152.872 217.56 153.467 216.965 154.062C216.519 154.508 215.924 154.954 215.18 155.103C214.437 155.252 213.693 155.4 212.801 155.4C211.76 155.4 210.719 155.252 209.976 155.103C209.232 154.954 208.488 154.508 208.042 154.062C207.596 153.616 207.15 152.872 207.001 152.129C206.407 151.385 206.258 150.493 206.258 149.303Z" fill="black" stroke="black" stroke-width="0.1827" stroke-linecap="round" stroke-linejoin="round"/>
<path fill-rule="evenodd" clip-rule="evenodd" d="M232.43 150.939C232.43 151.831 232.282 152.575 231.836 153.17C231.39 153.913 230.795 154.359 229.902 154.805C229.01 155.252 228.118 155.4 226.928 155.4C225.59 155.4 224.4 155.103 223.508 154.657C222.913 154.211 221.723 153.318 221.872 153.467C222.021 153.616 221.277 153.17 221.277 152.575C221.277 152.277 221.426 151.98 221.575 151.683C221.872 151.385 222.17 151.385 222.467 151.385C222.764 151.385 223.062 151.534 223.211 151.683C223.359 151.831 223.954 152.426 224.252 152.575C224.4 152.724 224.846 153.021 225.292 153.17C225.739 153.318 226.185 153.467 226.78 153.467C227.672 153.467 228.267 153.318 228.861 152.872C229.456 152.426 229.605 151.98 229.605 151.385C229.605 150.939 229.456 150.493 229.159 150.196C228.861 149.898 228.564 149.749 228.118 149.601C227.672 149.452 227.077 149.303 226.333 149.155C225.292 148.857 224.4 148.708 223.805 148.262C223.062 147.965 222.616 147.519 222.17 146.924C221.723 146.329 221.575 145.734 221.575 144.842C221.575 144.098 221.723 143.355 222.17 142.76C222.616 142.165 223.211 141.719 223.954 141.422C224.698 141.124 225.739 140.976 226.78 140.976C227.672 140.976 228.415 141.124 229.01 141.273C229.605 141.422 230.795 142.017 231.39 142.463C231.984 142.909 231.984 143.504 231.984 143.95C231.984 144.247 231.836 144.545 231.687 144.842C231.39 145.139 231.092 145.288 230.795 145.288C230.497 145.288 230.2 145.139 230.051 144.991C229.902 144.842 229.159 143.95 228.267 143.504C227.821 143.206 227.374 143.058 226.482 143.058C225.739 143.058 225.144 143.206 224.698 143.504C224.252 143.801 223.954 144.247 223.954 144.693C223.954 144.991 224.103 145.288 224.252 145.437C224.4 145.586 224.549 145.883 224.846 146.032C225.144 146.18 225.441 146.329 225.739 146.329C226.036 146.329 226.482 146.478 227.077 146.627C227.821 146.775 228.564 147.073 229.308 147.221C229.902 147.519 230.497 147.667 230.943 148.114C231.39 148.411 231.687 148.857 231.984 149.303C232.282 149.601 232.43 150.196 232.43 150.939Z" fill="black" stroke="black" stroke-width="0.1827" stroke-linecap="round" stroke-linejoin="round"/>
<path fill-rule="evenodd" clip-rule="evenodd" d="M221.576 94.1326V93.8352L221.428 93.5378L221.13 93.2403L220.833 92.9429L220.535 92.7942H220.238L219.941 92.6455H197.486L197.188 92.7942H196.891L196.593 92.9429L196.296 93.2403L195.999 93.5378L195.85 93.8352V94.1326L195.701 94.43V98.1477L195.85 98.5938V98.8913L195.999 99.1887L196.296 99.4861L196.593 99.6348L196.891 99.7835L197.188 99.9322H197.486H212.059L212.357 100.081H212.505L212.803 100.23L212.951 100.378L213.1 100.527L213.249 100.676V100.973V101.122V101.419V101.568L201.352 134.135V134.433V134.73V135.176L201.501 135.474L201.65 135.771L201.798 135.92L202.096 136.217L202.393 136.366L202.69 136.515H203.137H207.003H207.449L207.747 136.366L208.044 136.217L208.341 135.92L208.49 135.622L208.639 135.325L221.576 100.081V99.7835L221.725 99.4861V94.43L221.576 94.1326Z" fill="#ffffff"/>
<path fill-rule="evenodd" clip-rule="evenodd" d="M255.927 121.941L255.778 121.049L255.63 120.157L255.481 119.264L255.184 118.372L254.886 117.48L254.44 116.588L253.994 115.844L253.548 115.1L252.953 114.357L252.358 113.613L252.209 113.465L252.061 113.316V113.167V112.87V112.572V112.424L252.209 112.275L252.655 111.531L253.102 110.788L253.399 110.044L253.696 109.301L253.994 108.409L254.143 107.516L254.291 106.624L254.44 105.732V104.84V103.947L254.291 103.055L254.143 102.163L253.845 101.271L253.548 100.527L253.25 99.7835L252.804 99.0399L252.358 98.2964L251.912 97.5529L251.317 96.958L250.722 96.3632L250.127 95.7684L249.384 95.1735L248.64 94.7274L247.897 94.2813L247.153 93.8351L246.41 93.5377L245.666 93.2403L244.774 93.0916L243.882 92.9429L242.989 92.7942H242.097H241.205L240.313 92.9429L239.42 93.0916L238.528 93.2403L237.785 93.5377L237.041 93.8351L236.298 94.2813L235.554 94.7274L234.81 95.1735L234.067 95.7684L233.472 96.3632L232.877 96.958L232.282 97.5529L231.985 98.1477L231.539 98.8912L231.093 99.6348L230.795 100.378L230.498 101.122L230.201 102.014L230.052 102.906L229.903 103.799V104.691V105.583L230.052 106.475L230.201 107.368L230.349 108.26L230.647 109.152L230.944 109.896L231.241 110.639L231.688 111.383L232.134 112.126L232.282 112.275V112.424V112.721V113.019V113.167L232.134 113.316L231.985 113.465L231.39 114.208L230.795 114.952L230.349 115.695L229.903 116.439L229.457 117.331L229.16 118.223L228.862 119.116L228.713 120.008L228.565 120.9L228.416 121.792V122.685V123.577L228.565 124.469L228.713 125.361L229.011 126.254L229.308 127.146L229.606 128.038L230.052 128.93L230.498 129.674L230.944 130.417L231.539 131.161L232.134 131.905L232.729 132.499L233.472 133.094L234.216 133.689L234.959 134.135L235.703 134.581L236.595 135.027L237.487 135.325L238.379 135.622L239.272 135.771L240.164 135.92L241.056 136.068H241.948H242.841L243.733 135.92L244.625 135.771L245.517 135.622L246.41 135.325L247.302 135.027L248.194 134.581L248.938 134.135L249.681 133.689L250.425 133.094L251.168 132.499L251.763 131.905L252.358 131.161L252.953 130.417L253.399 129.674L253.845 128.93L254.291 128.038L254.589 127.146L254.886 126.254L255.184 125.361L255.332 124.469L255.481 123.577V122.685L255.927 121.941ZM237.339 104.393L237.487 103.947L237.636 103.501L237.785 103.055L238.082 102.609L238.379 102.163L238.677 101.717L238.974 101.419L239.42 101.122L239.867 100.824L240.313 100.527L240.759 100.378L241.205 100.23L241.651 100.081H242.097H242.543L242.989 100.23L243.436 100.378L243.882 100.527L244.328 100.824L244.774 101.122L245.22 101.419L245.517 101.717L245.815 102.163L246.112 102.609L246.41 103.055L246.558 103.501L246.707 103.947L246.856 104.393V104.84V105.286L246.707 105.732L246.558 106.178L246.41 106.624L246.112 107.07L245.815 107.516L245.517 107.962L245.22 108.26L244.774 108.557L244.328 108.855L243.882 109.152L243.436 109.301L242.989 109.45H242.543H242.097H241.651H241.205L240.759 109.301L240.313 109.152L239.867 108.855L239.42 108.557L238.974 108.26L238.677 107.962L238.379 107.516L238.082 107.07L237.785 106.624L237.636 106.178L237.487 105.732L237.339 105.286V104.84V104.393ZM248.343 124.023L248.492 123.428V122.833V122.238L248.343 121.644L248.194 121.049L248.046 120.454L247.748 119.859L247.451 119.264L247.153 118.818L246.707 118.372L246.261 117.926L245.815 117.48L245.22 117.182L244.625 116.885L244.03 116.736L243.436 116.588L242.841 116.439H242.246H241.651L241.056 116.588L240.461 116.736L239.867 116.885L239.272 117.182L238.677 117.48L238.231 117.926L237.785 118.372L237.339 118.818L237.041 119.264L236.744 119.859L236.446 120.454L236.298 121.049L236.149 121.644L236 122.238V122.833V123.428L236.149 124.023L236.298 124.618L236.446 125.213L236.744 125.807L237.041 126.402L237.339 126.848L237.785 127.295L238.231 127.741L238.677 128.038L239.272 128.336L239.867 128.633L240.461 128.782L241.056 128.93L241.651 129.079H242.246H242.841L243.436 128.93L244.03 128.782L244.625 128.633L245.22 128.336L245.815 128.038L246.261 127.741L246.707 127.295L247.153 126.848L247.451 126.402L247.748 125.807L248.046 125.213L248.194 124.618L248.343 124.023Z" fill="#ffffff"/>
<path fill-rule="evenodd" clip-rule="evenodd" d="M194.957 17.9937L194.809 17.5476L194.511 17.1015L194.214 16.8041L193.916 16.5066L193.47 16.3579L193.024 16.2092H192.578H186.481H186.035L185.44 16.3579L184.994 16.6554L184.696 16.9528L184.399 17.3989L173.246 36.2849L173.097 36.5823L172.948 36.731L172.651 36.8797L172.354 37.0284H172.056H171.759H171.313L171.164 36.8797L170.867 36.731L170.569 36.5823L170.42 36.2849L159.416 17.3989L159.119 16.9528L158.672 16.6554L158.226 16.3579L157.78 16.2092H157.185H151.237H150.791L150.196 16.3579L149.899 16.5066L149.453 16.8041L149.155 17.1015L148.858 17.5476L148.709 17.9937V18.4399V70.3391V70.7852L148.858 71.2314L149.155 71.5288L149.453 71.9749L149.899 72.2723L150.196 72.421L150.791 72.5697H151.237H156.442H156.888L157.334 72.421L157.78 72.2723L158.078 71.9749L158.375 71.5288L158.672 71.2314L158.821 70.7852V70.3391V42.2332V41.9358L158.97 41.6384L159.119 41.341L159.416 41.1923L159.565 40.8948L159.862 40.7461H160.308H160.606H160.903L161.2 40.8948L161.498 41.0435L161.795 41.1923L161.944 41.4897L169.677 54.7247L169.974 55.1709L170.272 55.4683L170.718 55.7657L171.164 55.9144H171.61H172.056H172.651L173.097 55.7657L173.395 55.4683L173.841 55.1709L173.989 54.7247L181.722 41.4897L182.02 41.1923L182.168 41.0435L182.466 40.8948L182.763 40.7461H183.061H183.507H183.804L184.102 40.8948L184.399 41.1923L184.548 41.341L184.696 41.6384L184.845 41.9358V42.2332V70.3391L184.994 70.7852L185.143 71.2314L185.291 71.5288L185.589 71.9749L186.035 72.2723L186.332 72.421L186.927 72.5697H187.373H192.578H193.024L193.47 72.421L193.916 72.2723L194.214 71.9749L194.511 71.5288L194.809 71.2314L194.957 70.7852V70.3391V18.4399V17.9937Z" fill="#ffffff" stroke="#ffffff" stroke-width="0.2513" stroke-linecap="round" stroke-linejoin="round"/>
<path fill-rule="evenodd" clip-rule="evenodd" d="M251.764 17.9937L251.615 17.5476L251.318 17.1015L251.02 16.8041L250.574 16.5066L250.277 16.3579L249.682 16.2092H249.236H243.288H242.693L242.247 16.3579L241.8 16.6554L241.354 16.9528L241.057 17.3989L230.053 36.2849L229.904 36.5823L229.606 36.731L229.309 36.8797L229.16 37.0284H228.714H228.417H228.119L227.822 36.8797L227.524 36.731L227.376 36.5823L227.227 36.2849L216.074 17.3989L215.777 16.9528L215.479 16.6554L215.033 16.3579L214.438 16.2092H213.992H207.895H207.449L207.003 16.3579L206.557 16.5066L206.259 16.8041L205.962 17.1015L205.664 17.5476L205.516 17.9937V18.4399V70.3391V70.7852L205.664 71.2314L205.962 71.5288L206.259 71.9749L206.557 72.2723L207.003 72.421L207.449 72.5697H207.895H213.1H213.546L214.141 72.421L214.438 72.2723L214.884 71.9749L215.182 71.5288L215.33 71.2314L215.479 70.7852L215.628 70.3391V42.2332V41.9358L215.777 41.6384L215.925 41.341L216.074 41.1923L216.371 40.8948L216.669 40.7461H216.966H217.412H217.71L218.007 40.8948L218.305 41.0435L218.453 41.1923L218.751 41.4897L226.484 54.7247L226.632 55.1709L227.078 55.4683L227.376 55.7657L227.822 55.9144H228.417H228.863H229.309L229.755 55.7657L230.201 55.4683L230.499 55.1709L230.796 54.7247L238.529 41.4897L238.678 41.1923L238.975 41.0435L239.272 40.8948L239.57 40.7461H239.867H240.165H240.611L240.908 40.8948L241.057 41.1923L241.354 41.341L241.503 41.6384L241.652 41.9358V42.2332V70.3391V70.7852L241.8 71.2314L242.098 71.5288L242.395 71.9749L242.693 72.2723L243.139 72.421L243.585 72.5697H244.031H249.236H249.682L250.277 72.421L250.574 72.2723L251.02 71.9749L251.318 71.5288L251.615 71.2314L251.764 70.7852V70.3391V18.4399V17.9937Z" fill="#ffffff" stroke="#ffffff" stroke-width="0.2513" stroke-linecap="round" stroke-linejoin="round"/>
<path fill-rule="evenodd" clip-rule="evenodd" d="M65.1338 109.152L65.2825 110.342L65.1338 111.829V113.911L64.9851 115.993L64.8364 118.075L64.5389 120.156L64.2415 122.238L63.7954 124.32L63.3493 126.402L62.7544 128.484L62.1596 130.417L61.4161 132.351L60.6725 134.284L59.7803 136.217L58.888 138.15L57.8471 139.935L56.8061 141.719L55.6164 143.504L54.4268 145.288L53.0884 146.924L51.75 148.56L51.4526 148.857L51.0065 149.155L50.5603 149.303H50.1142H43.7198H43.2736L42.8275 149.155L42.3814 149.006L42.084 148.709L41.7865 148.411L41.6378 147.965L41.4891 147.519V147.073V146.627L41.6378 146.18L41.7865 145.734L42.084 145.437L43.4223 143.95L44.7607 142.463L46.0991 140.976L47.2888 139.489L48.4784 137.853L49.5194 136.068L50.5603 134.284L51.6013 132.797L52.4936 131.012L52.6423 130.715V130.417V130.12L52.4936 129.823L52.3449 129.525L52.1961 129.228L52.0474 129.079L51.75 128.93L51.4526 128.782H51.1552H50.8578L49.6681 128.93H48.4784H47.2888L46.0991 128.782L44.9094 128.633L43.7198 128.335L42.6788 128.038L41.6378 127.592L40.5969 127.146L39.5559 126.551L38.515 125.956L37.6227 125.213L36.7305 124.469L35.8382 123.577L35.0947 122.685L34.3511 121.792L33.7563 120.751L33.1615 119.71L32.7153 118.669L32.2692 117.628L31.9718 116.439L31.6744 115.249L31.5257 114.059L31.377 112.87V111.68V110.49L31.5257 109.301L31.6744 108.111L31.9718 106.921L32.2692 105.732L32.7153 104.691L33.1615 103.65L33.7563 102.609L34.0537 101.865L34.7972 100.973L35.5408 100.081L36.433 99.1886L37.3253 98.4451L38.2175 97.7015L39.2585 97.1067L40.2995 96.5119L41.3404 95.917L42.3814 95.4709L43.4223 95.0248L44.612 94.7273L45.8017 94.5786L46.9913 94.4299H48.181H49.3707L50.5603 94.5786L51.75 94.7273L52.9397 95.0248L53.9806 95.3222L55.0216 95.7683L55.9139 96.2144L56.9548 96.8093L57.9958 97.4041L58.888 98.1476L59.7803 98.8912L60.6725 99.7834L61.4161 100.676L62.1596 101.568L62.7544 102.609L63.498 103.65L63.9441 104.691L64.3902 105.583L64.6877 106.773L64.9851 107.962L65.1338 109.152ZM56.6574 113.018V112.126L56.9548 111.68V110.788L56.8061 110.044L56.6574 109.301L56.36 108.557L55.9139 107.814L55.4677 107.07L55.0216 106.475L54.4268 105.88L53.8319 105.286L53.0884 104.84L52.3448 104.393L51.6013 104.096L50.8578 103.799L49.9655 103.65L49.0733 103.501H48.181L47.4375 103.65L46.6939 103.799L45.9504 104.096L45.2068 104.393L44.4633 104.691L43.7198 105.137L43.1249 105.583L42.5301 106.178L41.9353 106.773L41.4891 107.368L41.043 108.111L40.7456 108.855L40.4482 109.598L40.2995 110.342L40.1508 111.085V111.829V112.572L40.2995 113.316L40.4482 114.059L40.7456 114.803L41.043 115.547L41.4891 116.29L41.9353 116.885L42.5301 117.48L43.1249 118.075L43.7198 118.521L44.4633 118.967L45.3556 119.264L46.0991 119.562L46.6939 119.71L47.4375 119.859H48.181H49.0733L49.9655 119.71L50.8578 119.562L51.6013 119.264L52.3448 118.967L53.0884 118.521L53.8319 118.075L54.4268 117.48L55.0216 116.736L55.4677 115.993L55.9139 115.249L56.2113 114.506L56.5087 113.762L56.6574 113.018Z" fill="#ffffff"/>
<path fill-rule="evenodd" clip-rule="evenodd" d="M117.033 136.366L116.885 135.176V133.838V131.756L117.033 129.674L117.182 127.592L117.48 125.51L117.777 123.428L118.372 121.197L118.818 119.115L119.413 117.034L120.008 115.1L120.751 113.167L121.495 111.234L122.387 109.301L123.279 107.368L124.32 105.583L125.361 103.799L126.551 102.014L127.74 100.23L129.079 98.5937L130.417 96.9579L130.715 96.6605L131.309 96.2144L131.756 96.0657H132.202H138.596H139.042L139.488 96.2144L139.935 96.3631L140.232 96.6605L140.529 96.9579L140.678 97.4041L140.827 97.8502V98.2963V98.7424L140.678 99.1886L140.381 99.6347L140.083 99.9321L138.745 101.419L137.407 102.906L136.068 104.393L134.878 106.029L133.689 107.665L132.648 109.449L131.607 111.234L130.715 113.018L129.822 114.803L129.674 115.1V115.398V115.695L129.822 115.993L129.674 116.141L129.822 116.439L129.971 116.587L130.269 116.736L130.566 116.885H130.863H131.161L132.35 116.736H133.54H134.73L135.919 116.885L137.109 117.034L138.299 117.331L139.34 117.628L140.381 118.075L141.422 118.521L142.463 119.115L143.504 119.71L144.396 120.454L145.288 121.197L146.18 122.09L146.924 122.982L147.667 123.874L148.262 124.915L149.155 125.51L149.601 126.551L150.047 127.592L150.344 128.782L150.642 129.971L150.79 131.161L150.939 132.351V133.54V134.73L150.79 135.92L150.642 137.109L150.344 138.299L150.047 139.489L149.601 140.53L149.155 141.57L148.56 142.611L147.965 143.652L147.221 144.545L146.478 145.437L145.586 146.329L144.693 147.073L143.801 147.816L142.76 148.411L141.719 149.006L140.678 149.601L139.637 150.047L138.596 150.493L137.407 150.79L136.217 150.939L135.027 151.088H133.838H132.648L131.458 150.939L130.269 150.79L129.079 150.493L128.038 150.196L126.997 149.749L125.956 149.303L124.915 148.708L124.023 148.262L123.131 147.519L122.238 146.775L121.346 145.883L120.602 144.991L119.859 144.099L119.264 143.058L118.669 142.017L118.223 140.976L117.777 139.935L117.48 138.745L117.182 137.555L117.033 136.366ZM125.51 132.499L125.361 133.392V134.284V135.176L125.51 135.92L125.659 136.663L125.956 137.407L126.402 138.15L126.997 138.894L127.443 139.489L128.038 140.083L128.633 140.678L129.376 141.124L130.12 141.57L130.863 141.868L131.458 142.165L132.35 142.314L133.243 142.463H134.135L134.878 142.314L135.622 142.165L136.366 141.868L137.109 141.57L137.853 141.273L138.596 140.827L139.191 140.381L139.786 139.786L140.232 138.894L140.678 138.299L141.124 137.555L141.422 136.812L141.719 136.068L141.868 135.325L142.016 134.581V133.838V133.094L141.868 132.351L141.719 131.607L141.422 130.863L141.124 130.12L140.678 129.376L140.232 128.782L139.637 128.187L139.042 127.592L138.447 127.146L137.704 126.7L136.96 126.402L136.217 126.105L135.473 125.956L134.73 125.807H133.986H133.094L132.202 125.956L131.309 126.105L130.566 126.402L129.822 126.7L129.079 127.146L128.335 127.592L127.74 128.187L127.146 128.782L126.7 129.525L126.253 130.269L125.956 131.012L125.659 131.756L125.51 132.499Z" fill="#ffffff"/>
<path fill-rule="evenodd" clip-rule="evenodd" d="M106.03 96.3631V95.917L105.732 95.6196L105.435 95.3222L105.138 95.0247L104.691 94.7273L104.394 94.5786H103.948H75.842H75.3958L74.9497 94.7273L74.6523 95.0247L74.2062 95.3222L74.0575 95.6196L73.76 95.917L73.6113 96.3631V96.8092V101.568V102.014L73.76 102.311L74.0575 102.758L74.2062 103.055L74.6523 103.352L74.9497 103.65H75.3958L75.842 103.799H94.1331H94.4305H94.7279L95.0254 103.947L95.1741 104.245L95.3228 104.393L95.4715 104.691L95.6202 104.839V105.137V105.434V105.732L80.7493 146.478L80.6006 146.924V147.37V147.816L80.7493 148.262L81.0468 148.56L81.1955 148.857L81.6416 149.155L81.939 149.303L82.3851 149.452L82.8313 149.601H87.7386L88.1848 149.452L88.6309 149.303L89.077 149.155L89.3744 148.857L89.6718 148.411L89.8206 148.114L106.03 103.799L106.178 103.501V103.055V96.8092L106.03 96.3631Z" fill="#ffffff"/>
<path fill-rule="evenodd" clip-rule="evenodd" d="M77.4781 69.5957L77.3294 69.1495L77.1806 68.8521L60.5253 39.854L60.3766 39.5565L60.2279 39.2591V38.9617L60.3766 38.6643V38.3669L60.674 38.0695L76.1397 19.6296L76.4371 19.1835L76.5858 18.8861L76.7345 18.4399V17.9938L76.5858 17.5477L76.4371 17.1016L76.2884 16.8041L75.991 16.5067L75.6936 16.2093L75.2474 15.9119H74.8013L74.3552 15.7632H68.1094L67.5146 15.9119L67.0685 16.0606L66.6223 16.358L66.3249 16.6554L50.1157 35.8388L49.967 36.1362L49.6696 36.285L49.3722 36.4337H49.0747H48.7773L48.4799 36.285L48.1825 36.1362L47.8851 35.9875L47.7364 35.8388L47.5877 35.5414L47.4389 35.244V34.9466V18.1425V17.6964L47.2902 17.2503L47.1415 16.8041L46.6954 16.5067L46.398 16.2093L46.1006 15.9119H45.6544L45.2083 15.7632H40.3009L39.8548 15.9119H39.4087L39.1113 16.2093L38.6651 16.5067L38.3677 16.8041L38.219 17.2503L38.0703 17.6964V18.1425V69.8931V70.3392L38.219 70.7853L38.3677 71.2314L38.6651 71.5289L39.1113 71.8263L39.4087 72.1237L39.8548 72.2724H40.3009H45.2083H45.6544L46.1006 72.1237L46.398 71.8263L46.6954 71.5289L47.1415 71.2314L47.2902 70.7853L47.4389 70.3392V69.8931V54.2787V54.13L47.5877 53.8326V53.5351L47.7364 53.3864L52.1976 48.1816L52.3463 48.0329L52.6437 47.8842L52.7925 47.7355L53.0899 47.5868H53.3873L53.6847 47.7355L53.9821 47.8842L54.2795 48.0329L54.4282 48.1816L54.7257 48.479L67.6633 71.0827L67.9607 71.5289L68.4068 71.8263L68.853 72.1237H69.2991L69.7452 72.2724H75.0987H75.5448L75.991 72.1237L76.4371 71.8263L76.7345 71.5289L77.0319 71.2314L77.3294 70.934L77.4781 70.4879V70.0418V69.5957Z" fill="black" stroke="black" stroke-width="0.2309" stroke-linecap="round" stroke-linejoin="round"/>
<path fill-rule="evenodd" clip-rule="evenodd" d="M16.2088 2.67676H266.336C274.069 2.67676 280.166 8.77381 280.166 16.5066V149.601C280.166 157.185 273.921 163.431 266.336 163.431H16.2088C8.62466 163.431 2.37891 157.185 2.37891 149.601V16.5066C2.37891 8.92251 8.62466 2.67676 16.2088 2.67676ZM66.4723 6.9893H16.2088C11.004 6.9893 6.84016 11.3018 6.84016 16.3579V75.8413C6.98887 78.3694 9.2195 80.4513 11.8962 80.4513H103.501C107.367 80.4513 110.49 77.3284 110.49 73.462V12.0454C110.49 9.36864 108.557 7.28672 106.029 6.9893H66.4723ZM275.854 149.601C275.854 154.806 271.69 159.118 266.336 159.118H176.665C174.137 158.821 172.055 156.739 172.055 154.062V92.6454C172.055 88.779 175.178 85.6561 179.045 85.6561H270.798C273.474 85.6561 275.556 87.5893 275.854 90.2661V149.601ZM270.798 82.0871C273.474 82.0871 275.556 80.0052 275.854 77.4771V16.5066C275.854 11.1531 271.541 6.9893 266.336 6.9893H198.228H151.385H124.617H118.372C115.843 7.28672 113.91 9.36864 113.91 12.0454V73.6107C113.91 79.2616 109.3 84.0203 103.501 84.0203H11.7475C9.07079 84.0203 6.84016 85.9535 6.69145 88.6303V149.452C6.69145 154.806 11.004 158.969 16.2088 158.969H164.025C166.553 158.821 168.635 156.59 168.635 153.913V92.4967C168.635 86.8458 173.245 82.0871 179.045 82.0871H270.798Z" fill="#020203"/>
<path fill-rule="evenodd" clip-rule="evenodd" d="M238.678 155.995H262.917C263.512 155.995 263.958 155.4 263.958 154.954V141.719C263.958 141.124 263.512 140.678 262.917 140.678H238.678C238.083 140.678 237.637 141.124 237.637 141.719V154.954C237.637 155.549 238.083 155.995 238.678 155.995ZM238.38 141.719C238.38 141.57 238.529 141.422 238.678 141.422H262.917C263.066 141.422 263.215 141.57 263.215 141.719V154.954C263.215 155.103 263.066 155.252 262.917 155.252H238.678C238.529 155.252 238.38 155.103 238.38 154.954V141.719Z" fill="black"/>
<path fill-rule="evenodd" clip-rule="evenodd" d="M238.678 155.103H262.918C263.066 155.103 263.215 154.954 263.215 154.805V150.642H238.381V154.805C238.381 155.103 238.53 155.103 238.678 155.103Z" fill="#E20E17"/>
<rect x="238.381" y="145.883" width="24.8343" height="4.90738" fill="#076AB3"/>
</svg>
