<svg width="150" height="115" viewBox="0 0 150 115" fill="none" xmlns="http://www.w3.org/2000/svg">
<path fill-rule="evenodd" clip-rule="evenodd" d="M11.8685 0.555176C5.47629 0.555176 0.275391 5.78808 0.275391 12.2203V102.843C0.275391 109.275 5.47629 114.508 11.8685 114.508H137.118C143.511 114.508 148.711 109.275 148.711 102.843V12.2203C148.711 5.78808 143.511 0.555176 137.118 0.555176H11.8685Z" fill="#FEFEFE"/>
<mask id="mask0" mask-type="alpha" maskUnits="userSpaceOnUse" x="0" y="0" width="149" height="115">
<path fill-rule="evenodd" clip-rule="evenodd" d="M0 0.277588H148.988V114.785H0V0.277588Z" fill="white"/>
</mask>
<g mask="url(#mask0)">
<path fill-rule="evenodd" clip-rule="evenodd" d="M11.869 0.555196C5.47679 0.555196 0.275895 5.7881 0.275895 12.2203V102.843C0.275895 109.275 5.47679 114.508 11.869 114.508H137.119C143.511 114.508 148.712 109.275 148.712 102.843V12.2203C148.712 5.7881 143.511 0.555196 137.119 0.555196H11.869ZM137.119 114.785H11.869C5.3245 114.785 0 109.428 0 102.843V12.2203C0 5.63514 5.3245 0.277588 11.869 0.277588H137.119C143.663 0.277588 148.988 5.63514 148.988 12.2203V102.843C148.988 109.428 143.663 114.785 137.119 114.785Z" fill="#020303"/>
</g>
<path fill-rule="evenodd" clip-rule="evenodd" d="M143.552 101.491C143.552 105.703 140.146 109.13 135.96 109.13H13.0269C8.84098 109.13 5.43506 105.703 5.43506 101.491V13.5712C5.43506 9.35907 8.84098 5.932 13.0269 5.932H135.96C140.146 5.932 143.552 9.35907 143.552 13.5712V101.491ZM135.96 2.39111H13.0269C6.90034 2.39111 1.91602 7.40665 1.91602 13.5712V101.491C1.91602 107.656 6.90034 112.671 13.0269 112.671H43.6181H135.96C142.086 112.671 147.071 107.656 147.071 101.491V13.5712C147.071 7.40665 142.086 2.39111 135.96 2.39111Z" fill="#020303"/>
<path fill-rule="evenodd" clip-rule="evenodd" d="M75.4832 55.2688H73.3759V58.3872H75.4214C75.9705 58.3872 76.4317 58.34 76.8059 58.2442C77.18 58.149 77.4661 57.9863 77.6633 57.7567C77.8606 57.5274 77.9597 57.211 77.9597 56.8087C77.9597 56.4942 77.8799 56.2166 77.721 55.977C77.5621 55.7371 77.3416 55.5578 77.06 55.439C76.7932 55.3257 76.2676 55.2688 75.4832 55.2688ZM74.1758 60.0356H73.3759V63.6803C73.3759 64.16 73.2705 64.5137 73.0609 64.7405C72.8504 64.9676 72.5761 65.0811 72.2376 65.0811C71.8737 65.0811 71.5917 64.9623 71.3917 64.725C71.1917 64.4879 71.0918 64.1395 71.0918 63.6803V54.9515C71.0918 54.4563 71.2019 54.0976 71.4223 53.8758C71.6428 53.6543 71.9992 53.5432 72.4914 53.5432H76.2061C76.719 53.5432 77.1571 53.5651 77.5213 53.609C77.8852 53.6529 78.2132 53.7417 78.5057 53.8758C78.8591 54.0254 79.1719 54.2397 79.4437 54.5182C79.7155 54.7969 79.9218 55.1206 80.0628 55.4892C80.2038 55.8585 80.2741 56.2491 80.2741 56.6619C80.2741 57.5077 80.0371 58.1837 79.5629 58.6892C79.0883 59.195 78.3696 59.5534 77.4059 59.7647C77.8109 59.9815 78.198 60.3013 78.5672 60.7241C78.9363 61.1474 79.2655 61.5977 79.5554 62.0749C79.8448 62.5519 80.0705 62.9827 80.2322 63.3669C80.3936 63.7517 80.4744 64.0157 80.4744 64.16C80.4744 64.3097 80.427 64.4582 80.3318 64.6051C80.2369 64.7522 80.1078 64.8682 79.9436 64.9534C79.7795 65.0384 79.5899 65.0811 79.3744 65.0811C79.1181 65.0811 78.9029 65.0204 78.7286 64.899C78.5545 64.778 78.4041 64.6245 78.2786 64.4388C78.1528 64.2528 77.9828 63.9796 77.7674 63.6184L76.8522 62.0863C76.5239 61.5239 76.2303 61.0958 75.9716 60.8018C75.7125 60.5076 75.4496 60.3063 75.1833 60.198C74.9165 60.0898 74.5808 60.0356 74.1758 60.0356Z" fill="#1D1D1B"/>
<path fill-rule="evenodd" clip-rule="evenodd" d="M73.4856 58.2781H75.4227C75.9607 58.2781 76.4176 58.2311 76.7801 58.1384C77.1308 58.0493 77.4003 57.8969 77.5824 57.6851C77.7615 57.4772 77.852 57.1823 77.852 56.8087C77.852 56.5177 77.778 56.2585 77.6318 56.0375C77.4856 55.8171 77.2795 55.6494 77.0193 55.5403C76.7669 55.4326 76.2504 55.3784 75.4842 55.3784H73.4856V58.2781ZM75.4227 58.4965H73.3769C73.3173 58.4965 73.2685 58.4474 73.2685 58.3874V55.2691C73.2685 55.2088 73.3173 55.16 73.3769 55.16H75.4842C76.2909 55.16 76.8207 55.2185 77.1032 55.3387C77.4034 55.4651 77.642 55.6594 77.8125 55.9165C77.9827 56.1738 78.0691 56.4742 78.0691 56.8087C78.0691 57.2362 77.9607 57.579 77.7466 57.8283C77.535 58.0743 77.2276 58.2497 76.8336 58.35C76.4534 58.4471 75.9786 58.4965 75.4227 58.4965ZM73.3769 59.9265H74.1768C74.5945 59.9265 74.9471 59.9842 75.2252 60.0972C75.5057 60.211 75.7844 60.4237 76.0537 60.7293C76.316 61.0272 76.6165 61.465 76.9467 62.031L77.8613 63.5623C78.0793 63.9282 78.2457 64.1947 78.3693 64.3774C78.4865 64.5506 78.6286 64.6958 78.7911 64.8093C78.9464 64.9173 79.1431 64.9717 79.3757 64.9717C79.5724 64.9717 79.7471 64.9332 79.8947 64.8563C80.0434 64.7794 80.1568 64.6778 80.2418 64.5456C80.3248 64.4174 80.3667 64.2877 80.3667 64.16C80.3667 64.0717 80.3265 63.8699 80.1333 63.4094C79.975 63.0326 79.7496 62.6029 79.4637 62.1318C79.1785 61.6615 78.8493 61.2124 78.4865 60.7965C78.1279 60.3857 77.7474 60.0709 77.3559 59.861C77.3159 59.8396 77.2933 59.7952 77.2993 59.7499C77.3057 59.7047 77.3393 59.6678 77.3838 59.6583C78.3207 59.4526 79.0278 59.1017 79.485 58.6145C79.9374 58.1323 80.1667 57.4752 80.1667 56.6621C80.1667 56.2643 80.098 55.8829 79.9626 55.5289C79.8274 55.1755 79.6273 54.8613 79.3672 54.5945C79.1073 54.328 78.8032 54.1201 78.4647 53.9768C78.1808 53.8466 77.8602 53.76 77.5093 53.7175C77.149 53.6745 76.7109 53.6526 76.2071 53.6526H72.4924C72.0325 53.6526 71.6984 53.7536 71.5003 53.9535C71.3019 54.1531 71.2015 54.489 71.2015 54.9518V63.6806C71.2015 64.1112 71.2937 64.4385 71.4755 64.6547C71.6554 64.8679 71.905 64.9717 72.2386 64.9717C72.5484 64.9717 72.7915 64.8718 72.9827 64.6661C73.1722 64.4607 73.2685 64.1292 73.2685 63.6806V60.0359C73.2685 59.9756 73.3173 59.9265 73.3769 59.9265ZM79.3757 65.1902C79.0982 65.1902 78.8598 65.1225 78.6678 64.989C78.4827 64.8601 78.3221 64.6958 78.1899 64.5004C78.0638 64.3141 77.8955 64.0443 77.6757 63.6745L76.7602 62.1424C76.4363 61.588 76.1444 61.1616 75.8914 60.8742C75.6445 60.5941 75.3932 60.4007 75.1438 60.2993C74.8919 60.1969 74.5663 60.1453 74.1768 60.1453H73.4856V63.6806C73.4856 64.1861 73.3698 64.5678 73.1413 64.8149C72.9104 65.0639 72.6066 65.1902 72.2386 65.1902C71.843 65.1902 71.5306 65.0575 71.3099 64.7957C71.0939 64.5395 70.9844 64.1642 70.9844 63.6806V54.9518C70.9844 54.4288 71.1063 54.0409 71.3466 53.7989C71.5872 53.5568 71.9729 53.4341 72.4924 53.4341H76.2071C76.7197 53.4341 77.1664 53.4566 77.5352 53.5007C77.9085 53.5457 78.2506 53.6387 78.5516 53.7769C78.9144 53.9302 79.2416 54.1545 79.5222 54.4418C79.8031 54.73 80.0194 55.0692 80.1651 55.4501C80.3102 55.8298 80.3838 56.2371 80.3838 56.6621C80.3838 57.5327 80.1347 58.24 79.6428 58.7642C79.2 59.2361 78.5456 59.5867 77.695 59.8082C78.0255 60.0212 78.3458 60.3043 78.6498 60.6524C79.0206 61.078 79.357 61.5372 79.6491 62.018C79.9405 62.4983 80.1703 62.9377 80.3331 63.3244C80.5019 63.7267 80.5841 63.9998 80.5841 64.16C80.5841 64.3307 80.5301 64.5004 80.4236 64.6647C80.3193 64.8271 80.1747 64.957 79.9946 65.0506C79.8155 65.143 79.6072 65.1902 79.3757 65.1902Z" fill="#1D1D1B"/>
<path fill-rule="evenodd" clip-rule="evenodd" d="M82.9238 60.1979V54.7426C82.9238 54.2785 83.0276 53.9301 83.2353 53.6977C83.4428 53.4656 83.7159 53.3496 84.0544 53.3496C84.4081 53.3496 84.6887 53.4656 84.8965 53.6977C85.104 53.9301 85.2077 54.2785 85.2077 54.7426V60.3217C85.2077 60.9563 85.2783 61.4866 85.4196 61.9121C85.5603 62.3377 85.8102 62.6678 86.1692 62.9024C86.5278 63.1375 87.0305 63.2549 87.6767 63.2549C88.5686 63.2549 89.1993 63.0162 89.5685 62.539C89.9376 62.0621 90.1222 61.3381 90.1222 60.3681V54.7426C90.1222 54.2732 90.2248 53.9237 90.4298 53.6938C90.6348 53.4645 90.9091 53.3496 91.2526 53.3496C91.5963 53.3496 91.8741 53.4645 92.0871 53.6938C92.2998 53.9237 92.4061 54.2732 92.4061 54.7426V60.1979C92.4061 61.0854 92.3205 61.8258 92.1487 62.4191C91.9768 63.0123 91.6529 63.5334 91.1756 63.9823C90.7656 64.364 90.2886 64.6427 89.7456 64.8181C89.2018 64.993 88.5659 65.081 87.8381 65.081C86.9715 65.081 86.2257 64.9867 85.6 64.7984C84.9746 64.6105 84.4644 64.3187 84.0696 63.924C83.6748 63.5295 83.3854 63.024 83.2006 62.4074C83.016 61.7908 82.9238 61.0546 82.9238 60.1979Z" fill="#1D1D1B"/>
<path fill-rule="evenodd" clip-rule="evenodd" d="M84.0535 53.4592C83.7442 53.4592 83.5025 53.5611 83.3152 53.771C83.127 53.9814 83.0316 54.3084 83.0316 54.7429V60.1981C83.0316 61.0404 83.1229 61.7727 83.3036 62.376C83.4824 62.9725 83.7655 63.4672 84.1454 63.8467C84.5256 64.2268 85.0249 64.5119 85.6302 64.694C86.2427 64.8783 86.9852 64.9719 87.8374 64.9719C88.5509 64.9719 89.1813 64.885 89.7116 64.7143C90.2374 64.5444 90.7048 64.2709 91.101 63.902C91.5606 63.4703 91.8776 62.9609 92.0434 62.3885C92.2114 61.8085 92.2967 61.0718 92.2967 60.1981V54.7429C92.2967 54.304 92.199 53.9761 92.0067 53.7685C91.8139 53.5602 91.5667 53.4592 91.2519 53.4592C90.9376 53.4592 90.6948 53.5597 90.5094 53.7668C90.324 53.975 90.23 54.3034 90.23 54.7429V60.3686C90.23 61.3588 90.036 62.1117 89.6533 62.6061C89.2643 63.1091 88.5989 63.3642 87.6757 63.3642C87.0114 63.3642 86.4844 63.2396 86.1089 62.9945C85.7307 62.7471 85.4636 62.3946 85.3157 61.9465C85.1717 61.5123 85.0983 60.9654 85.0983 60.3219V54.7429C85.0983 54.3084 85.0029 53.9814 84.8152 53.771C84.6274 53.5611 84.3782 53.4592 84.0535 53.4592ZM87.8374 65.1904C86.9642 65.1904 86.2005 65.0935 85.5682 64.9033C84.9284 64.7106 84.3981 64.4075 83.9922 64.0019C83.587 63.5963 83.2851 63.0705 83.0956 62.439C82.9094 61.8155 82.8145 61.0615 82.8145 60.1981V54.7429C82.8145 54.2526 82.9287 53.8764 83.1538 53.6249C83.3814 53.3701 83.6841 53.2407 84.0535 53.2407C84.4381 53.2407 84.7485 53.3701 84.9764 53.6252C85.2012 53.8767 85.3154 54.2526 85.3154 54.7429V60.3219C85.3154 60.9418 85.3847 61.4654 85.5215 61.8774C85.6537 62.2777 85.8912 62.5914 86.2273 62.8113C86.5666 63.0331 87.0539 63.1458 87.6757 63.1458C88.5285 63.1458 89.1363 62.919 89.482 62.4723C89.8341 62.0167 90.0128 61.3091 90.0128 60.3686V54.7429C90.0128 54.2482 90.1257 53.8706 90.348 53.621C90.574 53.3687 90.8778 53.2407 91.2519 53.2407C91.6249 53.2407 91.9325 53.3681 92.1654 53.6194C92.3966 53.8692 92.5138 54.2471 92.5138 54.7429V60.1981C92.5138 61.0923 92.4258 61.8502 92.252 62.4498C92.0749 63.06 91.7377 63.6024 91.2488 64.0619C90.8292 64.4533 90.3343 64.7426 89.7778 64.9219C89.2263 65.1001 88.5735 65.1904 87.8374 65.1904Z" fill="#1D1D1B"/>
<path fill-rule="evenodd" clip-rule="evenodd" d="M103.964 61.4827C103.964 62.1689 103.788 62.7852 103.437 63.3321C103.085 63.879 102.572 64.3073 101.895 64.6166C101.218 64.9261 100.416 65.081 99.4875 65.081C98.3751 65.081 97.4574 64.8695 96.7343 64.4464C96.2217 64.1419 95.2781 63.361 95.444 63.4959C95.6103 63.6311 95.0039 63.2599 95.0039 62.7805C95.0039 62.5018 95.1002 62.2636 95.2925 62.0646C95.4848 61.8661 95.7295 61.7667 96.0266 61.7667C96.2675 61.7667 96.4717 61.8441 96.6383 61.9988C96.8047 62.1537 97.2847 62.5956 97.4161 62.6931C97.5468 62.7905 97.9317 63.0006 98.2341 63.158C98.5365 63.3157 98.934 63.394 99.4262 63.394C100.103 63.394 100.653 63.2352 101.076 62.9179C101.498 62.6009 101.71 62.205 101.71 61.7303C101.71 61.3536 101.596 61.0482 101.368 60.8134C101.14 60.5788 100.845 60.3995 100.484 60.2754C100.122 60.1516 99.6387 60.02 99.0342 59.8809C98.2236 59.6902 97.5457 59.4667 96.9997 59.2113C96.4535 58.9559 96.0206 58.6081 95.7 58.1667C95.3797 57.7258 95.2197 57.1775 95.2197 56.5224C95.2197 55.8983 95.3885 55.3437 95.727 54.8587C96.0653 54.374 96.5547 54.0012 97.1959 53.7402C97.8365 53.4801 98.5903 53.3496 99.4569 53.3496C100.149 53.3496 100.747 53.4362 101.253 53.6089C101.758 53.7821 102.694 54.1549 103.157 54.565C103.619 54.9747 103.677 55.407 103.677 55.7062C103.677 55.9797 103.581 56.2259 103.389 56.4452C103.196 56.6648 102.957 56.7742 102.67 56.7742C102.408 56.7742 102.209 56.7084 102.073 56.5765C101.937 56.4452 101.414 55.7576 100.687 55.3423C100.291 55.123 99.9388 54.9825 99.3029 54.9825C98.7136 54.9825 98.2379 55.113 97.8765 55.3731C97.5151 55.634 97.3344 55.9475 97.3344 56.3134C97.3344 56.5404 97.3956 56.7364 97.519 56.9016C97.642 57.0668 97.8111 57.2086 98.0263 57.3272C98.2418 57.446 98.4598 57.5387 98.6802 57.6059C98.9004 57.6728 99.2646 57.7711 99.7725 57.8999C100.408 58.0495 100.983 58.2147 101.498 58.3951C102.014 58.5756 102.452 58.7949 102.814 59.0528C103.175 59.311 103.457 59.6371 103.66 60.0316C103.862 60.4261 103.964 60.91 103.964 61.4827Z" fill="#1D1D1B"/>
<path fill-rule="evenodd" clip-rule="evenodd" d="M95.5263 63.4239C95.6819 63.5502 96.375 64.1071 96.7886 64.3528C97.491 64.7634 98.399 64.9719 99.4865 64.9719C100.395 64.9719 101.19 64.8189 101.849 64.5174C102.503 64.2184 103.006 63.7998 103.345 63.2729C103.683 62.7466 103.854 62.1444 103.854 61.4829C103.854 60.9313 103.756 60.4599 103.563 60.0818C103.369 59.7051 103.096 59.3886 102.75 59.1418C102.399 58.8917 101.966 58.6752 101.462 58.4983C100.955 58.3207 100.378 58.1552 99.7467 58.0064C99.2402 57.8776 98.871 57.7785 98.6478 57.7108C98.4213 57.6419 98.1945 57.545 97.9732 57.4232C97.7454 57.2974 97.563 57.1439 97.4311 56.9673C97.2943 56.7841 97.2247 56.5642 97.2247 56.3138C97.2247 55.9119 97.4226 55.5657 97.8121 55.285C98.1909 55.0119 98.6925 54.8733 99.3022 54.8733C99.9387 54.8733 100.311 55.0102 100.739 55.247C101.344 55.5929 101.811 56.1209 102.036 56.3746C102.085 56.4315 102.123 56.4746 102.148 56.4985C102.262 56.6089 102.437 56.665 102.669 56.665C102.925 56.665 103.134 56.5698 103.306 56.3735C103.482 56.1728 103.568 55.9546 103.568 55.7064C103.568 55.4358 103.517 55.0313 103.084 54.6471C102.685 54.2929 101.858 53.9322 101.217 53.7127C100.726 53.5444 100.133 53.4592 99.4559 53.4592C98.607 53.4592 97.8601 53.588 97.2355 53.8417C96.6175 54.0933 96.1396 54.4564 95.8149 54.9214C95.4913 55.3855 95.3271 55.9241 95.3271 56.5229C95.3271 57.1511 95.4819 57.6827 95.7865 58.1025C96.095 58.5264 96.5179 58.8664 97.0446 59.113C97.5829 59.3642 98.2602 59.5871 99.0581 59.7748C99.6634 59.9144 100.154 60.0482 100.518 60.1723C100.894 60.3011 101.206 60.4913 101.445 60.737C101.692 60.9921 101.818 61.326 101.818 61.7302C101.818 62.2388 101.59 62.668 101.14 63.0059C100.699 63.3362 100.122 63.5036 99.4253 63.5036C98.9174 63.5036 98.4997 63.4198 98.1835 63.2554C97.8692 63.0919 97.4855 62.8818 97.3503 62.7813C97.1903 62.6625 96.57 62.085 96.5637 62.0792C96.4164 61.9426 96.2403 61.8763 96.026 61.8763C95.7564 61.8763 95.5418 61.9626 95.3693 62.1408C95.1961 62.3202 95.1117 62.5295 95.1117 62.7807C95.1117 63.0472 95.3476 63.2887 95.4612 63.3842C95.4731 63.3884 95.4841 63.3937 95.4938 63.3992L95.4949 63.3978C95.4954 63.3984 95.4985 63.4012 95.5048 63.4064C95.5073 63.4078 95.5092 63.4095 95.5112 63.4112C95.5156 63.4148 95.5208 63.4189 95.5263 63.4239ZM99.4865 65.1904C98.3601 65.1904 97.4154 64.9719 96.679 64.541C96.6672 64.5344 95.781 63.9347 95.4436 63.6299C95.3547 63.6047 94.8945 63.2296 94.8945 62.7807C94.8945 62.4742 95.0021 62.2077 95.2137 61.9884C95.4265 61.7691 95.6996 61.6578 96.026 61.6578C96.2936 61.6578 96.524 61.7455 96.711 61.9187C96.8824 62.0784 97.3544 62.5128 97.4794 62.6055C97.6044 62.6985 97.9904 62.9092 98.2831 63.0611C98.5684 63.2099 98.9527 63.2851 99.4253 63.2851C100.074 63.2851 100.608 63.1322 101.01 62.8307C101.408 62.5325 101.601 62.1725 101.601 61.7302C101.601 61.3805 101.499 61.1054 101.29 60.8899C101.074 60.6687 100.791 60.4968 100.448 60.3789C100.092 60.2573 99.6076 60.1257 99.009 59.9877C98.1964 59.7964 97.5048 59.5685 96.953 59.3109C96.3929 59.0486 95.9416 58.6854 95.6116 58.2316C95.2789 57.7735 95.11 57.1986 95.11 56.5229C95.11 55.8783 95.2874 55.2975 95.637 54.7962C95.9862 54.2959 96.4969 53.9067 97.1541 53.6396C97.8047 53.3751 98.5791 53.2407 99.4559 53.2407C100.157 53.2407 100.773 53.3301 101.287 53.5058C101.607 53.6158 102.695 54.0108 103.228 54.4833C103.727 54.9258 103.785 55.3933 103.785 55.7064C103.785 56.0057 103.678 56.2789 103.469 56.5176C103.256 56.7605 102.987 56.8835 102.669 56.8835C102.379 56.8835 102.153 56.8069 101.997 56.6556C101.97 56.6295 101.928 56.5823 101.873 56.5201C101.656 56.275 101.206 55.7647 100.633 55.4374C100.228 55.2137 99.8951 55.0918 99.3022 55.0918C98.7389 55.0918 98.2798 55.2167 97.9385 55.4621C97.6044 55.7031 97.4419 55.9818 97.4419 56.3138C97.4419 56.5187 97.4951 56.6894 97.6046 56.8363C97.7178 56.9879 97.8772 57.1208 98.0778 57.2316C98.2856 57.3463 98.4985 57.4373 98.7104 57.5014C98.9306 57.5684 99.2964 57.6669 99.798 57.7946C100.435 57.9445 101.019 58.1119 101.533 58.2924C102.056 58.4756 102.508 58.7015 102.876 58.9639C103.249 59.2309 103.545 59.5735 103.755 59.9819C103.965 60.3911 104.071 60.8963 104.071 61.4829C104.071 62.1869 103.888 62.829 103.527 63.3917C103.166 63.9539 102.632 64.3997 101.939 64.7165C101.251 65.031 100.427 65.1904 99.4865 65.1904Z" fill="#1D1D1B"/>
<mask id="mask1" mask-type="alpha" maskUnits="userSpaceOnUse" x="0" y="0" width="149" height="115">
<path fill-rule="evenodd" clip-rule="evenodd" d="M0 114.785H148.988V0.277588H0V114.785Z" fill="white"/>
</mask>
<g mask="url(#mask1)">
<path fill-rule="evenodd" clip-rule="evenodd" d="M110.338 61.2384H130.685V57.323H110.338V61.2384Z" fill="#076AB2"/>
<path fill-rule="evenodd" clip-rule="evenodd" d="M110.338 65.1537H130.685V61.2383H110.338V65.1537Z" fill="#E10F17"/>
<path fill-rule="evenodd" clip-rule="evenodd" d="M110.885 53.7331C110.754 53.7331 110.647 53.8405 110.647 53.9724V64.6037C110.647 64.7358 110.754 64.8432 110.885 64.8432H130.295C130.427 64.8432 130.533 64.7358 130.533 64.6037V53.9724C130.533 53.8405 130.427 53.7331 130.295 53.7331H110.885ZM130.295 65.4645H110.885C110.413 65.4645 110.029 65.0784 110.029 64.6037V53.9724C110.029 53.4977 110.413 53.1118 110.885 53.1118H130.295C130.767 53.1118 131.151 53.4977 131.151 53.9724V64.6037C131.151 65.0784 130.767 65.4645 130.295 65.4645Z" fill="#1D1D1B"/>
<path fill-rule="evenodd" clip-rule="evenodd" d="M146.319 75.9996H143.56V64.7052C143.56 62.4332 141.723 60.5849 139.465 60.5849H133.732V57.8088H139.465C143.244 57.8088 146.319 60.9025 146.319 64.7052V75.9996Z" fill="#020303"/>
<path fill-rule="evenodd" clip-rule="evenodd" d="M139.466 60.585H133.733C132.971 60.585 132.354 59.9637 132.354 59.197C132.354 58.4302 132.971 57.8089 133.733 57.8089H139.466C141.724 57.8089 143.561 55.9606 143.561 53.6887V41.284C143.561 40.5173 144.178 39.896 144.94 39.896C145.702 39.896 146.32 40.5173 146.32 41.284V53.6887C146.32 57.4913 143.245 60.585 139.466 60.585Z" fill="#020303"/>
<path fill-rule="evenodd" clip-rule="evenodd" d="M72.0546 111.898H60.8301V109.122H72.0546C74.3128 109.122 76.1497 107.274 76.1497 105.002V71.1948H78.9087V105.002C78.9087 108.804 75.8338 111.898 72.0546 111.898Z" fill="#020303"/>
<path fill-rule="evenodd" clip-rule="evenodd" d="M95.3306 111.898H83.0022C79.223 111.898 76.1484 108.804 76.1484 105.001V71.1947C76.1484 70.4279 76.7659 69.8066 77.5279 69.8066C78.2897 69.8066 78.9074 70.4279 78.9074 71.1947V105.001C78.9074 107.274 80.7443 109.122 83.0022 109.122H95.3306C96.0926 109.122 96.7101 109.743 96.7101 110.51C96.7101 111.277 96.0926 111.898 95.3306 111.898Z" fill="#020303"/>
<path fill-rule="evenodd" clip-rule="evenodd" d="M42.9357 12.7389L42.8554 12.4699L42.7218 12.2281L42.5483 11.9997L42.3212 11.825L42.0807 11.6907L41.8139 11.6102L41.5333 11.5833H37.8335L37.5532 11.6102L37.2859 11.6907L37.0323 11.825L36.8185 11.9997L24.9586 23.9468L24.7716 24.1617L24.6513 24.404L24.5577 24.6861L24.5312 24.9684L24.5577 25.2504L24.6513 25.5192L24.7716 25.761L24.9586 25.9894L27.0687 28.1129L27.2957 28.2877L27.5363 28.4221L27.8034 28.5026L28.0837 28.5431L28.3643 28.5026L28.6313 28.4221L28.8852 28.2877L29.099 28.1129L35.4697 21.7159L35.6032 21.5949L35.7767 21.5008L35.9505 21.4472L36.1373 21.4336L36.3244 21.4472L36.5114 21.5008L36.6717 21.5949L36.8185 21.7159L36.9388 21.8639L37.0188 22.0249L37.0856 22.2134L37.0991 22.4014V45.543L37.1256 45.8253L37.2059 46.0941L37.3394 46.3495L37.5132 46.5646L37.74 46.7526L37.9806 46.8872L38.2612 46.9677L38.528 46.9946H41.5333L41.8139 46.9677L42.0807 46.8872L42.3212 46.7526L42.5483 46.5646L42.7218 46.3495L42.8554 46.0941L42.9357 45.8253L42.9624 45.543V13.0213L42.9357 12.7389Z" fill="#ffffff"/>
<path fill-rule="evenodd" clip-rule="evenodd" d="M68.7169 12.7389L68.6366 12.4699L68.5031 12.2281L68.3296 11.9997L68.1025 11.825L67.8622 11.6907L67.5951 11.6102L67.3145 11.5833H63.6148L63.3345 11.6102L63.0671 11.6907L62.8136 11.825L62.5998 11.9997L50.7399 23.9468L50.5528 24.1617L50.4325 24.404L50.339 24.6861L50.3125 24.9684L50.339 25.2504L50.4325 25.5192L50.5528 25.761L50.7399 25.9894L52.8499 28.1129L53.077 28.2877L53.3175 28.4221L53.5846 28.5026L53.8649 28.5431L54.1455 28.5026L54.4126 28.4221L54.6664 28.2877L54.8802 28.1129L61.2509 21.7159L61.3844 21.5949L61.558 21.5008L61.7318 21.4472L61.9186 21.4336L62.1056 21.4472L62.2927 21.5008L62.453 21.5949L62.5998 21.7159L62.7201 21.8639L62.8003 22.0249L62.8668 22.2134L62.8804 22.4014V45.543L62.9071 45.8253L62.9871 46.0941L63.1207 46.3495L63.2945 46.5646L63.5213 46.7526L63.7618 46.8872L64.0424 46.9677L64.3095 46.9946H67.3145L67.5951 46.9677L67.8622 46.8872L68.1025 46.7526L68.3296 46.5646L68.5031 46.3495L68.6366 46.0941L68.7169 45.8253L68.7437 45.543V13.0213L68.7169 12.7389Z" fill="#ffffff"/>
<path fill-rule="evenodd" clip-rule="evenodd" d="M99.285 36.0766L99.2168 35.3362L99.0943 34.6224L98.9034 33.9084L98.6855 33.208L98.3993 32.5207L98.0589 31.86L97.6911 31.2254L97.2552 30.6174L96.792 30.0358L96.2882 29.4939L95.7292 28.9917L95.1435 28.5156L94.5307 28.0926L93.8904 27.7092L93.2095 27.3658L93.0459 27.2731L92.9096 27.1542L92.7868 26.9954L92.7052 26.8369L92.6643 26.652L92.6508 26.4669L92.6781 26.282L92.7463 26.1102L92.855 25.938L98.3993 18.7871L98.563 18.5359L98.6584 18.2453L98.6992 17.9413V12.9976L98.6719 12.72L98.59 12.4557L98.454 12.2178L98.2633 11.993L98.0454 11.8211L97.7863 11.689L97.514 11.6096L97.2279 11.5835H80.145L79.8592 11.6096L79.5731 11.689L79.3278 11.8211L79.1099 11.993L78.9192 12.2178L78.7827 12.4557L78.7013 12.72L78.674 12.9976V15.9583L78.7013 16.2359L78.7827 16.5135L78.9192 16.7517L79.1099 16.9763L79.3278 17.1479L79.5731 17.2803L79.8592 17.3594L80.145 17.3861H90.73L90.9207 17.3994L91.1113 17.4655L91.2887 17.5579L91.4385 17.677L91.561 17.8222L91.6427 17.994L91.6973 18.1789L91.7108 18.3774L91.6697 18.5623L91.6154 18.7474L91.5067 18.906L86.2754 25.6474L86.0028 26.4405V30.895L86.0301 31.1726L86.1118 31.4369L86.2481 31.6879L86.4252 31.8994L86.657 32.0712L86.9155 32.2036L87.1881 32.2828L87.4739 32.3094L87.7603 32.2828L88.237 32.217L88.7273 32.1903L89.2043 32.217L89.6808 32.2961L90.1578 32.4282L90.6075 32.6001L91.0432 32.8116L91.4385 33.0759L91.8195 33.3799L92.1603 33.7105L92.4602 34.0806L92.7189 34.477L92.9369 34.9001L93.114 35.3362L93.2365 35.7989L93.3047 36.2614L93.3182 36.7373L93.2909 37.2L93.2095 37.6625L93.0867 38.1253L92.9096 38.5614L92.6781 38.9712L92.419 39.3676L92.1059 39.7376L91.7652 40.0683L91.3836 40.3592L90.9753 40.6102L90.5394 40.8217L90.0897 40.9935L89.6126 41.1126L89.1362 41.1787L88.6456 41.192L88.1689 41.1654L87.6786 41.0863L87.2154 40.9672L86.7657 40.7953L86.3298 40.5705L85.9347 40.3195L85.5534 40.0153L85.2127 39.6849L84.913 39.3148L84.6543 38.9181L84.4363 38.4954L84.2592 38.0459L84.1367 37.5967L84.055 37.3322L83.9187 37.0809L83.7416 36.8694L83.5098 36.6976L83.2648 36.5657L82.9923 36.4863L82.7062 36.4599H79.6139L79.3413 36.4863L79.069 36.5657L78.8238 36.6842L78.6058 36.8433L78.4287 37.0546L78.2789 37.2792L78.1837 37.5304L78.1426 37.7947L78.1564 38.0723L78.2924 38.7996L78.4698 39.5131L78.7013 40.2137L78.9874 40.8878L79.314 41.5488L79.6956 42.1831L80.1177 42.7911L80.5947 43.3729L81.0988 43.9148L81.6572 44.417L82.2429 44.8798L82.856 45.3159L83.5098 45.6859L84.1775 46.0299L84.8722 46.3203L85.5942 46.5585L86.3298 46.7436L87.0656 46.8755L87.8284 46.9679L88.5775 46.9946L89.3403 46.9813L90.0897 46.9152L90.839 46.7831L91.5745 46.6112L92.2965 46.3866L93.0048 46.109L93.686 45.7917L94.3398 45.4217L94.9667 45.0122L95.5524 44.5494L96.1108 44.0603L96.6422 43.5314L97.1189 42.9632L97.5548 42.3549L97.9499 41.7339L98.3042 41.0729L98.59 40.3986L98.8491 39.7116L99.0397 38.9975L99.176 38.2705L99.2712 37.5437L99.3123 36.8033L99.285 36.0766Z" fill="#ffffff"/>
<path fill-rule="evenodd" clip-rule="evenodd" d="M127.086 36.0766L127.018 35.3362L126.895 34.6224L126.704 33.9084L126.486 33.208L126.2 32.5207L125.86 31.86L125.492 31.2254L125.056 30.6174L124.593 30.0358L124.089 29.4939L123.53 28.9917L122.944 28.5156L122.332 28.0926L121.691 27.7092L121.01 27.3658L120.847 27.2731L120.71 27.1542L120.588 26.9954L120.506 26.8369L120.465 26.652L120.452 26.4669L120.479 26.282L120.547 26.1102L120.656 25.938L126.2 18.7871L126.364 18.5359L126.459 18.2453L126.5 17.9413V12.9976L126.473 12.72L126.391 12.4557L126.255 12.2178L126.064 11.993L125.846 11.8211L125.587 11.689L125.315 11.6096L125.029 11.5835H107.946L107.66 11.6096L107.374 11.689L107.129 11.8211L106.911 11.993L106.72 12.2178L106.583 12.4557L106.502 12.72L106.475 12.9976V15.9583L106.502 16.2359L106.583 16.5135L106.72 16.7517L106.911 16.9763L107.129 17.1479L107.374 17.2803L107.66 17.3594L107.946 17.3861H118.531L118.721 17.3994L118.912 17.4655L119.089 17.5579L119.239 17.677L119.362 17.8222L119.443 17.994L119.498 18.1789L119.512 18.3774L119.47 18.5623L119.416 18.7474L119.307 18.906L114.076 25.6474L113.804 26.4405V30.895L113.831 31.1726L113.913 31.4369L114.049 31.6879L114.226 31.8994L114.458 32.0712L114.716 32.2036L114.989 32.2828L115.275 32.3094L115.561 32.2828L116.038 32.217L116.528 32.1903L117.005 32.217L117.482 32.2961L117.959 32.4282L118.408 32.6001L118.844 32.8116L119.239 33.0759L119.62 33.3799L119.961 33.7105L120.261 34.0806L120.52 34.477L120.737 34.9001L120.915 35.3362L121.037 35.7989L121.105 36.2614L121.119 36.7373L121.092 37.2L121.01 37.6625L120.887 38.1253L120.71 38.5614L120.479 38.9712L120.22 39.3676L119.907 39.7376L119.566 40.0683L119.184 40.3592L118.776 40.6102L118.34 40.8217L117.89 40.9935L117.413 41.1126L116.937 41.1787L116.446 41.192L115.97 41.1654L115.479 41.0863L115.016 40.9672L114.566 40.7953L114.131 40.5705L113.735 40.3195L113.354 40.0153L113.013 39.6849L112.714 39.3148L112.455 38.9181L112.237 38.4954L112.06 38.0459L111.937 37.5967L111.856 37.3322L111.719 37.0809L111.542 36.8694L111.311 36.6976L111.066 36.5657L110.793 36.4863L110.507 36.4599H107.414L107.142 36.4863L106.87 36.5657L106.625 36.6842L106.407 36.8433L106.229 37.0546L106.08 37.2792L105.984 37.5304L105.943 37.7947L105.957 38.0723L106.093 38.7996L106.27 39.5131L106.502 40.2137L106.788 40.8878L107.115 41.5488L107.496 42.1831L107.918 42.7911L108.396 43.3729L108.9 43.9148L109.458 44.417L110.044 44.8798L110.657 45.3159L111.311 45.6859L111.978 46.0299L112.673 46.3203L113.395 46.5585L114.131 46.7436L114.866 46.8755L115.629 46.9679L116.378 46.9946L117.141 46.9813L117.89 46.9152L118.64 46.7831L119.375 46.6112L120.097 46.3866L120.806 46.109L121.487 45.7917L122.141 45.4217L122.767 45.0122L123.353 44.5494L123.912 44.0603L124.443 43.5314L124.92 42.9632L125.356 42.3549L125.751 41.7339L126.105 41.0729L126.391 40.3986L126.65 39.7116L126.84 38.9975L126.976 38.2705L127.072 37.5437L127.113 36.8033L127.086 36.0766Z" fill="#ffffff"/>
<path fill-rule="evenodd" clip-rule="evenodd" d="M109.471 71.0123L109.391 70.7435L109.257 70.4881L109.084 70.2733L108.856 70.0851L108.616 69.9643L108.349 69.8702L108.068 69.8433H90.1049L89.8243 69.8702L89.557 69.9643L89.3167 70.0851L89.0896 70.2733L88.9161 70.4881L88.7826 70.7435L88.7025 71.0123L88.6758 71.2946V74.3047L88.7025 74.587L88.7826 74.856L88.9161 75.1114L89.0896 75.3263L89.3167 75.5009L89.557 75.6353L89.8243 75.7158L90.1049 75.743H101.818L102.005 75.7699L102.178 75.8235L102.339 75.904L102.486 76.0253L102.606 76.1594L102.7 76.3207L102.753 76.4956L102.78 76.6835L102.766 76.8584L102.726 77.0464L93.2167 103.319L93.15 103.588L93.1232 103.857L93.1635 104.139L93.2567 104.395L93.3903 104.636L93.5641 104.852L93.7776 105.026L94.0315 105.147L94.2853 105.228L94.5659 105.255H97.7445L98.0383 105.228L98.3186 105.134L98.5724 105L98.7995 104.798L98.973 104.569L99.0933 104.3L109.418 75.7966L109.484 75.5412L109.498 75.2994V71.2946L109.471 71.0123Z" fill="#ffffff"/>
<path fill-rule="evenodd" clip-rule="evenodd" d="M93.8381 104.927L94.0798 105.042L94.319 105.117L94.5756 105.139L97.7431 105.138L98.0265 105.112L98.2809 105.023L98.5046 104.903L98.7217 104.71L98.8798 104.499L98.9863 104.253L109.307 75.7568L109.371 75.5116L109.381 75.2929L109.38 71.2948L109.355 71.0349L109.279 70.7768L109.154 70.5425L108.992 70.3467L108.782 70.1749L108.563 70.0683L108.323 69.9847L108.056 69.9592L90.1036 69.9598L89.8481 69.9847L89.594 70.0741L89.3672 70.1891L89.162 70.3631L89.0047 70.5616L88.8836 70.7979L88.8121 71.0458L88.7898 71.3059L88.7903 74.3049L88.8166 74.5761L88.8922 74.8226L89.0171 75.0569L89.1783 75.2526L89.3857 75.4086L89.6122 75.5333L89.8564 75.6044L90.1146 75.6268L101.817 75.6263L102.02 75.6543L102.211 75.7121L102.389 75.8001L102.558 75.9347L102.691 76.0816L102.798 76.2617L102.862 76.4613L102.893 76.667L102.88 76.8672L102.838 77.0707L93.3244 103.359L93.261 103.616L93.2386 103.854L93.2767 104.123L93.3641 104.354L93.4902 104.58L93.6524 104.778L93.8381 104.927ZM94.5646 105.371L94.2729 105.344L93.9951 105.258L93.7035 105.117L93.4897 104.942L93.2993 104.71L93.1542 104.451L93.0535 104.18L93.0052 103.859L93.0333 103.577L93.1031 103.291L102.616 77.0065L102.652 76.8339L102.663 76.6745L102.637 76.5121L102.588 76.3547L102.505 76.2184L102.398 76.1032L102.264 75.9944L102.125 75.9275L101.97 75.8811L101.8 75.8584L90.1036 75.8595L89.812 75.832L89.5223 75.747L89.2591 75.603L89.018 75.4186L88.8248 75.1846L88.6789 74.9101L88.5903 74.6205L88.5591 74.316L88.5586 71.2948L88.5859 71.0013L88.6703 70.7101L88.8124 70.4339L88.9984 70.1996L89.242 69.995L89.5041 69.8601L89.812 69.754L90.0926 69.7271L108.067 69.7266L108.386 69.7599L108.653 69.854L108.907 69.9809L109.156 70.1832L109.346 70.4148L109.492 70.6893L109.585 71.0013L109.612 71.2837L109.612 75.2993L109.599 75.5477L109.528 75.8262L99.2007 104.34L99.0774 104.617L98.8903 104.868L98.6252 105.102L98.3714 105.236L98.0737 105.338L97.7536 105.371L94.5646 105.371Z" fill="#ffffff"/>
<path fill-rule="evenodd" clip-rule="evenodd" d="M135.309 71.0123L135.229 70.7435L135.095 70.4881L134.922 70.2733L134.694 70.0851L134.454 69.9643L134.187 69.8702L133.906 69.8433H115.943L115.662 69.8702L115.395 69.9643L115.155 70.0851L114.928 70.2733L114.754 70.4881L114.62 70.7435L114.54 71.0123L114.514 71.2946V74.3047L114.54 74.587L114.62 74.856L114.754 75.1114L114.928 75.3263L115.155 75.5009L115.395 75.6353L115.662 75.7158L115.943 75.743H127.656L127.843 75.7699L128.016 75.8235L128.177 75.904L128.324 76.0253L128.444 76.1594L128.537 76.3207L128.591 76.4956L128.617 76.6835L128.604 76.8584L128.564 77.0464L119.055 103.319L118.988 103.588L118.961 103.857L119.001 104.139L119.095 104.395L119.228 104.636L119.402 104.852L119.616 105.026L119.869 105.147L120.123 105.228L120.404 105.255H123.582L123.876 105.228L124.156 105.134L124.41 105L124.637 104.798L124.811 104.569L124.931 104.3L135.255 75.7966L135.322 75.5412L135.335 75.2994V71.2946L135.309 71.0123Z" fill="#ffffff"/>
<path fill-rule="evenodd" clip-rule="evenodd" d="M119.678 104.927L119.92 105.042L120.159 105.117L120.415 105.139L123.583 105.138L123.866 105.112L124.121 105.023L124.344 104.903L124.562 104.71L124.72 104.499L124.826 104.253L135.147 75.7568L135.211 75.5116L135.221 75.2929L135.22 71.2948L135.195 71.0349L135.118 70.7768L134.993 70.5425L134.832 70.3467L134.622 70.1749L134.403 70.0683L134.163 69.9847L133.896 69.9592L115.943 69.9598L115.688 69.9847L115.434 70.0741L115.207 70.1891L115.002 70.3631L114.845 70.5616L114.723 70.7979L114.652 71.0458L114.63 71.3059L114.63 74.3049L114.656 74.5761L114.732 74.8226L114.857 75.0569L115.018 75.2526L115.226 75.4086L115.452 75.5333L115.696 75.6044L115.954 75.6268L127.657 75.6263L127.86 75.6543L128.051 75.7121L128.229 75.8001L128.397 75.9347L128.531 76.0816L128.638 76.2617L128.702 76.4613L128.733 76.667L128.72 76.8672L128.678 77.0707L119.164 103.359L119.101 103.616L119.078 103.854L119.117 104.123L119.204 104.354L119.33 104.58L119.492 104.778L119.678 104.927ZM120.404 105.371L120.113 105.344L119.835 105.258L119.543 105.117L119.33 104.942L119.139 104.71L118.994 104.451L118.893 104.18L118.845 103.859L118.873 103.577L118.943 103.291L128.456 77.0065L128.491 76.8339L128.502 76.6745L128.477 76.5121L128.427 76.3547L128.345 76.2184L128.238 76.1032L128.104 75.9944L127.965 75.9275L127.81 75.8811L127.64 75.8584L115.943 75.8595L115.652 75.832L115.362 75.747L115.099 75.603L114.858 75.4186L114.665 75.1846L114.519 74.9101L114.43 74.6205L114.399 74.316L114.398 71.2948L114.426 71.0013L114.51 70.7101L114.652 70.4339L114.838 70.1996L115.082 69.995L115.344 69.8601L115.652 69.754L115.932 69.7271L133.907 69.7266L134.226 69.7599L134.493 69.854L134.747 69.9809L134.996 70.1832L135.186 70.4148L135.332 70.6893L135.425 71.0013L135.451 71.2837L135.452 75.2993L135.438 75.5477L135.368 75.8262L125.041 104.34L124.917 104.617L124.73 104.868L124.465 105.102L124.211 105.236L123.914 105.338L123.593 105.371L120.404 105.371Z" fill="#ffffff"/>
<path fill-rule="evenodd" clip-rule="evenodd" d="M29.6917 90.4246L29.6379 90.6147L29.5571 90.7907L29.4357 90.9398L29.2875 91.062L29.1121 91.1708L28.9369 91.2249L28.7349 91.2385H22.5347L22.346 91.2249L22.157 91.1708L21.9818 91.062L21.8337 90.9398L21.7258 90.7907L21.6314 90.6147L21.5912 90.4246L21.5776 90.2214L21.6047 90.0312L24.7181 78.3811L24.7855 78.2048L24.8798 78.0422L25.0147 77.9064L25.1764 77.7845L25.3516 77.7168L25.5403 77.676H25.729L25.9177 77.7168L26.0929 77.7845L26.2546 77.9064L26.3895 78.0422L26.4971 78.2048L26.5647 78.3811L29.6647 90.0312L29.6917 90.2214V90.4246ZM39.2346 103.16L30.568 70.6372L30.4736 70.3793L30.3387 70.1489L30.1635 69.9452L29.948 69.7828L29.7052 69.6606L29.4492 69.5929L29.1796 69.5657H22.0897L21.8201 69.5929L21.5641 69.6606L21.3216 69.7828L21.1194 69.9452L20.9307 70.1489L20.7957 70.3793L20.7014 70.6372L12.0479 103.16L11.9941 103.444L12.0077 103.743L12.075 104.028L12.2099 104.286L12.3851 104.516L12.6008 104.706L12.8569 104.855L13.1399 104.95L13.4365 104.977H16.5232L16.7928 104.95L17.0488 104.869L17.2913 104.747L17.5071 104.584L17.6823 104.38L17.8169 104.15L17.9113 103.906L19.5288 97.8567L19.5826 97.6943L19.677 97.5313L19.7984 97.3956L19.9465 97.2873L20.095 97.206L20.2702 97.1652L20.4454 97.138H30.824L30.9992 97.1652L31.1744 97.206L31.336 97.2873L31.471 97.3956L31.5924 97.5313L31.6867 97.6943L31.754 97.8567L33.3581 103.906L33.4524 104.15L33.5871 104.38L33.7623 104.584L33.978 104.747L34.2208 104.869L34.4768 104.95L34.7464 104.977H37.8463L38.1294 104.95L38.4125 104.855L38.6688 104.706L38.8843 104.516L39.0595 104.286L39.1944 104.028L39.2617 103.743L39.2752 103.444L39.2346 103.16Z" fill="#ffffff"/>
<path fill-rule="evenodd" clip-rule="evenodd" d="M60.0901 90.4246L60.0363 90.6147L59.9555 90.7907L59.8341 90.9398L59.6857 91.062L59.5105 91.1708L59.3353 91.2249L59.1331 91.2385H52.9329L52.7442 91.2249L52.5555 91.1708L52.3803 91.062L52.2321 90.9398L52.1242 90.7907L52.0299 90.6147L51.9893 90.4246L51.9758 90.2214L52.0031 90.0312L55.1166 78.3811L55.1839 78.2048L55.2783 78.0422L55.4129 77.9064L55.5748 77.7845L55.75 77.7168L55.9388 77.676H56.1275L56.3162 77.7168L56.4914 77.7845L56.653 77.9064L56.788 78.0422L56.8956 78.2048L56.9632 78.3811L60.0631 90.0312L60.0901 90.2214V90.4246ZM69.6331 103.16L60.9664 70.6372L60.8718 70.3793L60.7371 70.1489L60.5619 69.9452L60.3462 69.7828L60.1037 69.6606L59.8476 69.5929L59.5781 69.5657H52.4881L52.2186 69.5929L51.9626 69.6606L51.7198 69.7828L51.5178 69.9452L51.3291 70.1489L51.1942 70.3793L51.0998 70.6372L42.4464 103.16L42.3926 103.444L42.4061 103.743L42.4734 104.028L42.6083 104.286L42.7835 104.516L42.999 104.706L43.255 104.855L43.5381 104.95L43.835 104.977H46.9214L47.1909 104.95L47.447 104.869L47.6898 104.747L47.9052 104.584L48.0807 104.38L48.2153 104.15L48.3097 103.906L49.9273 97.8567L49.9811 97.6943L50.0754 97.5313L50.1968 97.3956L50.345 97.2873L50.4931 97.206L50.6686 97.1652L50.8438 97.138H61.2224L61.3976 97.1652L61.5728 97.206L61.7345 97.2873L61.8694 97.3956L61.9908 97.5313L62.0849 97.6943L62.1525 97.8567L63.7565 103.906L63.8506 104.15L63.9855 104.38L64.1607 104.584L64.3765 104.747L64.619 104.869L64.875 104.95L65.1445 104.977H68.2448L68.5278 104.95L68.8109 104.855L69.0669 104.706L69.2827 104.516L69.4579 104.286L69.5925 104.028L69.6601 103.743L69.6734 103.444L69.6331 103.16Z" fill="#ffffff"/>
</g>
</svg>
