<svg width="150" height="115" viewBox="0 0 150 115" fill="none" xmlns="http://www.w3.org/2000/svg">
<path fill-rule="evenodd" clip-rule="evenodd" d="M11.8685 0.555176C5.47601 0.555176 0.275391 5.78808 0.275391 12.2203V102.843C0.275391 109.274 5.47601 114.508 11.8685 114.508H137.118C143.511 114.508 148.711 109.274 148.711 102.843V12.2203C148.711 5.78808 143.511 0.555176 137.118 0.555176H11.8685Z" fill="#FEFEFE"/>
<mask id="mask0" mask-type="alpha" maskUnits="userSpaceOnUse" x="0" y="0" width="149" height="115">
<path fill-rule="evenodd" clip-rule="evenodd" d="M0 0.277832H148.987V114.785H0V0.277832Z" fill="white"/>
</mask>
<g mask="url(#mask0)">
<path fill-rule="evenodd" clip-rule="evenodd" d="M11.869 0.55544C5.47652 0.55544 0.275895 5.78835 0.275895 12.2205V102.843C0.275895 109.275 5.47652 114.508 11.869 114.508H137.119C143.511 114.508 148.712 109.275 148.712 102.843V12.2205C148.712 5.78835 143.511 0.55544 137.119 0.55544H11.869ZM137.119 114.785H11.869C5.3245 114.785 0 109.428 0 102.843V12.2205C0 5.63511 5.3245 0.277832 11.869 0.277832H137.119C143.663 0.277832 148.988 5.63511 148.988 12.2205V102.843C148.988 109.428 143.663 114.785 137.119 114.785Z" fill="#020303"/>
</g>
<path fill-rule="evenodd" clip-rule="evenodd" d="M143.552 101.491C143.552 105.704 140.146 109.131 135.96 109.131H13.0269C8.84098 109.131 5.43506 105.704 5.43506 101.491V13.5717C5.43506 9.35956 8.84098 5.93249 13.0269 5.93249H135.96C140.146 5.93249 143.552 9.35956 143.552 13.5717V101.491ZM135.96 2.3916H13.0269C6.90034 2.3916 1.91602 7.40714 1.91602 13.5717V101.491C1.91602 107.656 6.90034 112.671 13.0269 112.671H43.6181H135.96C142.086 112.671 147.071 107.656 147.071 101.491V13.5717C147.071 7.40714 142.086 2.3916 135.96 2.3916Z" fill="#020303"/>
<path fill-rule="evenodd" clip-rule="evenodd" d="M75.4832 55.2691H73.3759V58.3874H75.4217C75.9705 58.3874 76.4317 58.34 76.8059 58.2445C77.18 58.149 77.4661 57.9866 77.6633 57.7567C77.8609 57.5274 77.9597 57.2112 77.9597 56.809C77.9597 56.4944 77.8799 56.2168 77.721 55.977C77.5621 55.7371 77.3416 55.5581 77.06 55.4392C76.7932 55.326 76.2676 55.2691 75.4832 55.2691ZM74.1758 60.0359H73.3759V63.6806C73.3759 64.1603 73.2708 64.5137 73.0609 64.7408C72.8506 64.9679 72.5761 65.0814 72.2379 65.0814C71.8737 65.0814 71.5917 64.9626 71.3917 64.7252C71.1919 64.4881 71.0918 64.1397 71.0918 63.6806V54.9518C71.0918 54.4565 71.2022 54.0978 71.4226 53.876C71.643 53.6545 71.9992 53.5435 72.4914 53.5435H76.2061C76.719 53.5435 77.1571 53.5654 77.5213 53.6093C77.8852 53.6531 78.2135 53.7419 78.5057 53.876C78.8591 54.0257 79.1719 54.2397 79.4437 54.5184C79.7155 54.7969 79.9218 55.1208 80.0631 55.4895C80.2038 55.8587 80.2741 56.2493 80.2741 56.6621C80.2741 57.508 80.0371 58.1837 79.5629 58.6892C79.0886 59.1953 78.3699 59.5537 77.4059 59.7649C77.8109 59.9817 78.198 60.3015 78.5672 60.7243C78.9363 61.1477 79.2655 61.598 79.5554 62.0749C79.8448 62.5521 80.0708 62.983 80.2322 63.3672C80.3936 63.7517 80.4744 64.0159 80.4744 64.1603C80.4744 64.3099 80.427 64.4584 80.3318 64.6053C80.2369 64.7521 80.1078 64.8682 79.9436 64.9537C79.7795 65.0384 79.5899 65.0814 79.3744 65.0814C79.1181 65.0814 78.9029 65.0206 78.7286 64.899C78.5545 64.7782 78.4044 64.6244 78.2786 64.4387C78.1531 64.253 77.9828 63.9798 77.7674 63.6187L76.8522 62.0866C76.5239 61.5241 76.2303 61.0958 75.9716 60.8021C75.7125 60.5078 75.4498 60.3065 75.1833 60.1983C74.9165 60.09 74.5808 60.0359 74.1758 60.0359Z" fill="#1D1D1B"/>
<path fill-rule="evenodd" clip-rule="evenodd" d="M73.4854 58.2781H75.4224C75.9599 58.2781 76.4167 58.2311 76.7798 58.1381C77.1305 58.049 77.4003 57.8966 77.5821 57.6854C77.7612 57.4774 77.8517 57.1823 77.8517 56.8087C77.8517 56.5177 77.7777 56.2585 77.6315 56.0375C77.4856 55.8171 77.2795 55.6497 77.0188 55.5397C76.7663 55.4326 76.2501 55.3779 75.4839 55.3779H73.4854V58.2781ZM75.4224 58.4963H73.3767C73.3171 58.4963 73.2682 58.4474 73.2682 58.3874V55.2688C73.2682 55.2086 73.3171 55.1597 73.3767 55.1597H75.4839C76.2904 55.1597 76.8201 55.2183 77.1029 55.3385C77.4034 55.4651 77.642 55.6597 77.8122 55.9165C77.9825 56.1738 78.0688 56.4739 78.0688 56.8087C78.0688 57.2365 77.9604 57.5793 77.746 57.8281C77.535 58.074 77.2276 58.2495 76.8334 58.35C76.4526 58.4471 75.9778 58.4963 75.4224 58.4963ZM73.3767 59.9265H74.1765C74.5942 59.9265 74.9468 59.984 75.2249 60.0969C75.5057 60.211 75.7847 60.4237 76.0534 60.7293C76.316 61.0272 76.6165 61.4653 76.9465 62.031L77.8611 63.562C78.0746 63.9199 78.2454 64.1944 78.369 64.3774C78.4862 64.5509 78.6283 64.6961 78.7908 64.8091C78.9462 64.9171 79.1426 64.9717 79.3754 64.9717C79.5722 64.9717 79.7465 64.9332 79.8947 64.8563C80.0409 64.7805 80.1579 64.6758 80.2415 64.5456C80.3245 64.4171 80.3665 64.2874 80.3665 64.16C80.3665 64.0715 80.3262 63.8696 80.1331 63.4091C79.9747 63.0329 79.7493 62.6029 79.4635 62.1315C79.1776 61.661 78.8485 61.2115 78.4862 60.7962C78.1276 60.3851 77.7471 60.0706 77.3556 59.861C77.3156 59.8396 77.293 59.7952 77.2991 59.7499C77.3054 59.7044 77.3391 59.6678 77.3835 59.658C78.321 59.4523 79.0281 59.1012 79.4847 58.6142C79.9372 58.132 80.1664 57.4749 80.1664 56.6618C80.1664 56.2643 80.098 55.8831 79.9626 55.5284C79.8271 55.1752 79.6271 54.861 79.3672 54.5945C79.107 54.328 78.8032 54.1201 78.4644 53.9765C78.1808 53.8463 77.8602 53.7597 77.509 53.7175C77.1498 53.6742 76.7117 53.6523 76.2068 53.6523H72.4921C72.0322 53.6523 71.6984 53.7536 71.5003 53.9532C71.3019 54.1528 71.2015 54.4887 71.2015 54.9515V63.6803C71.2015 64.1112 71.2937 64.4387 71.4752 64.6544C71.6554 64.8679 71.905 64.9717 72.2383 64.9717C72.5481 64.9717 72.7912 64.8718 72.9824 64.6661C73.1719 64.4609 73.2682 64.1292 73.2682 63.6803V60.0356C73.2682 59.9754 73.3171 59.9265 73.3767 59.9265ZM79.3754 65.1899C79.0979 65.1899 78.8595 65.1222 78.6675 64.9887C78.4827 64.8604 78.3218 64.6958 78.1897 64.5001C78.0636 64.3135 77.8906 64.0359 77.6754 63.6745L76.76 62.1424C76.4363 61.588 76.1444 61.1618 75.8912 60.8742C75.6445 60.5941 75.3929 60.4007 75.1435 60.2993C74.8916 60.1969 74.566 60.145 74.1765 60.145H73.4854V63.6803C73.4854 64.1861 73.3695 64.5681 73.141 64.8149C72.9101 65.0639 72.6064 65.1899 72.2383 65.1899C71.8432 65.1899 71.5306 65.0575 71.3097 64.7957C71.0939 64.5395 70.9844 64.1642 70.9844 63.6803V54.9515C70.9844 54.4288 71.1063 54.0409 71.3466 53.7989C71.5872 53.5568 71.9729 53.4341 72.4921 53.4341H76.2068C76.7205 53.4341 77.1672 53.4563 77.535 53.5007C77.9082 53.5457 78.2503 53.6384 78.5514 53.7767C78.9142 53.9302 79.2416 54.1545 79.5219 54.4418C79.8025 54.7297 80.0191 55.0686 80.1651 55.4498C80.3099 55.8298 80.3836 56.2374 80.3836 56.6618C80.3836 57.5327 80.1344 58.2398 79.6425 58.7642C79.2003 59.2358 78.5458 59.5864 77.6947 59.808C78.0252 60.0209 78.3455 60.304 78.6496 60.6524C79.0201 61.0769 79.3561 61.5363 79.6489 62.0177C79.9402 62.4983 80.17 62.9377 80.3328 63.3244C80.5017 63.7264 80.5839 63.9998 80.5839 64.16C80.5839 64.3307 80.5298 64.5004 80.4233 64.6647C80.319 64.8268 80.1744 64.9567 79.9943 65.0506C79.8149 65.143 79.6066 65.1899 79.3754 65.1899Z" fill="#1D1D1B"/>
<path fill-rule="evenodd" clip-rule="evenodd" d="M82.9238 60.1984V54.7431C82.9238 54.2787 83.0276 53.9303 83.2353 53.6982C83.4431 53.4661 83.7159 53.3501 84.0544 53.3501C84.4081 53.3501 84.6887 53.4661 84.8965 53.6982C85.104 53.9303 85.2077 54.2787 85.2077 54.7431V60.3222C85.2077 60.9566 85.2783 61.4871 85.4196 61.9124C85.5603 62.3382 85.8102 62.6683 86.1695 62.9029C86.5278 63.138 87.0308 63.2551 87.6767 63.2551C88.5686 63.2551 89.1993 63.0164 89.5685 62.5395C89.9376 62.0623 90.1222 61.3385 90.1222 60.3686V54.7431C90.1222 54.2737 90.2248 53.9242 90.4298 53.6943C90.6348 53.465 90.9091 53.3501 91.2528 53.3501C91.5963 53.3501 91.8741 53.465 92.0871 53.6943C92.2998 53.9242 92.4061 54.2737 92.4061 54.7431V60.1984C92.4061 61.0859 92.3205 61.8263 92.1487 62.4195C91.9768 63.0128 91.6529 63.5339 91.1756 63.9828C90.7659 64.3645 90.2886 64.6432 89.7456 64.8184C89.2018 64.9935 88.5659 65.0815 87.8381 65.0815C86.9718 65.0815 86.2257 64.9871 85.6 64.7989C84.9748 64.6107 84.4644 64.3192 84.0696 63.9245C83.6748 63.53 83.3854 63.0245 83.2008 62.4076C83.0163 61.7913 82.9238 61.0551 82.9238 60.1984Z" fill="#1D1D1B"/>
<path fill-rule="evenodd" clip-rule="evenodd" d="M84.0535 53.4589C83.7445 53.4589 83.5031 53.5611 83.3149 53.7712C83.127 53.9814 83.0316 54.3081 83.0316 54.7429V60.1981C83.0316 61.0396 83.1232 61.7724 83.3039 62.376C83.4824 62.9723 83.7655 63.467 84.1454 63.8465C84.5256 64.2268 85.0249 64.5119 85.6302 64.694C86.2433 64.8783 86.9857 64.9719 87.8374 64.9719C88.55 64.9719 89.1807 64.8853 89.7116 64.714C90.2371 64.5444 90.7048 64.2712 91.101 63.9023C91.5606 63.47 91.8776 62.9606 92.0434 62.3887C92.2114 61.8088 92.2967 61.0715 92.2967 60.1981V54.7429C92.2967 54.304 92.199 53.9761 92.0067 53.7685C91.8136 53.5602 91.5667 53.4589 91.2522 53.4589C90.9376 53.4589 90.6948 53.5597 90.5094 53.7671C90.324 53.9753 90.23 54.3034 90.23 54.7429V60.3683C90.23 61.3588 90.036 62.1114 89.6533 62.6061C89.2643 63.1088 88.5991 63.364 87.6757 63.364C87.0114 63.364 86.4844 63.2396 86.1092 62.9942C85.7307 62.7471 85.4636 62.3946 85.3157 61.9465C85.1717 61.5118 85.0983 60.9654 85.0983 60.3219V54.7429C85.0983 54.3084 85.0029 53.9814 84.8152 53.7712C84.6271 53.5611 84.3782 53.4589 84.0535 53.4589ZM87.8374 65.1901C86.9645 65.1901 86.2011 65.0937 85.5682 64.9033C84.9284 64.7106 84.3981 64.4072 83.9922 64.0014C83.5867 63.596 83.2851 63.0705 83.0959 62.4387C82.9094 61.8149 82.8145 61.0609 82.8145 60.1981V54.7429C82.8145 54.2526 82.9287 53.8764 83.1538 53.6249C83.382 53.3701 83.6846 53.2407 84.0535 53.2407C84.4378 53.2407 84.7482 53.3701 84.9764 53.6249C85.2012 53.8767 85.3154 54.2526 85.3154 54.7429V60.3219C85.3154 60.9418 85.3847 61.4651 85.5215 61.8777C85.6537 62.2774 85.8912 62.5914 86.2276 62.811C86.5666 63.0331 87.0539 63.1458 87.6757 63.1458C88.5285 63.1458 89.1363 62.919 89.482 62.4717C89.8341 62.0167 90.0128 61.3091 90.0128 60.3683V54.7429C90.0128 54.2479 90.1257 53.8706 90.348 53.621C90.574 53.3687 90.8778 53.2407 91.2522 53.2407C91.6249 53.2407 91.9325 53.3681 92.1654 53.6197C92.3966 53.8689 92.5138 54.2468 92.5138 54.7429V60.1981C92.5138 61.0926 92.4258 61.8499 92.252 62.4495C92.0749 63.0597 91.7377 63.6024 91.2488 64.0619C90.8289 64.453 90.334 64.7423 89.7778 64.9219C89.2254 65.0999 88.5727 65.1901 87.8374 65.1901Z" fill="#1D1D1B"/>
<path fill-rule="evenodd" clip-rule="evenodd" d="M103.963 61.4829C103.963 62.1694 103.787 62.7857 103.437 63.3326C103.085 63.8795 102.571 64.3076 101.895 64.6171C101.218 64.9266 100.415 65.0815 99.4872 65.0815C98.3748 65.0815 97.4572 64.8697 96.7343 64.4469C96.2214 64.1424 95.2779 63.3612 95.444 63.4964C95.61 63.6313 95.0039 63.2604 95.0039 62.7807C95.0039 62.5023 95.0999 62.2638 95.2922 62.065C95.4845 61.8666 95.7292 61.7669 96.0266 61.7669C96.2675 61.7669 96.4714 61.8446 96.638 61.9992C96.8047 62.1542 97.2847 62.5961 97.4158 62.6935C97.5468 62.791 97.9314 63.0011 98.2338 63.1583C98.5362 63.3159 98.9338 63.3945 99.426 63.3945C100.103 63.3945 100.653 63.2357 101.076 62.9184C101.498 62.6011 101.71 62.2055 101.71 61.7308C101.71 61.3541 101.596 61.0487 101.368 60.8136C101.14 60.579 100.845 60.3997 100.483 60.2759C100.122 60.152 99.6384 60.0205 99.0339 59.8811C98.2233 59.6904 97.5455 59.4672 96.9997 59.2118C96.4535 58.9564 96.0203 58.6085 95.6997 58.1671C95.3794 57.726 95.2194 57.178 95.2194 56.5229C95.2194 55.8988 95.3882 55.3442 95.7268 54.8592C96.065 54.3742 96.5544 54.0016 97.1956 53.7407C97.8362 53.4803 98.5903 53.3501 99.4566 53.3501C100.149 53.3501 100.747 53.4367 101.252 53.6094C101.757 53.7823 102.694 54.1554 103.157 54.5655C103.619 54.9752 103.677 55.4074 103.677 55.7067C103.677 55.9802 103.58 56.2264 103.388 56.4454C103.196 56.665 102.957 56.7747 102.669 56.7747C102.408 56.7747 102.209 56.7086 102.073 56.577C101.937 56.4454 101.414 55.7578 100.687 55.3428C100.29 55.1235 99.9386 54.9827 99.3026 54.9827C98.7133 54.9827 98.2377 55.1135 97.8765 55.3736C97.5148 55.6343 97.3341 55.9477 97.3341 56.3138C97.3341 56.5409 97.3954 56.7369 97.5187 56.9021C97.6417 57.067 97.8109 57.2088 98.0261 57.3277C98.2415 57.4462 98.4595 57.5392 98.6799 57.6064C98.9001 57.6733 99.2643 57.7713 99.7722 57.9004C100.408 58.05 100.983 58.2152 101.498 58.3956C102.014 58.5761 102.452 58.7954 102.814 59.0533C103.175 59.3112 103.457 59.6376 103.66 60.0321C103.862 60.4266 103.963 60.9102 103.963 61.4829Z" fill="#1D1D1B"/>
<path fill-rule="evenodd" clip-rule="evenodd" d="M95.5307 63.4278C95.7026 63.568 96.3926 64.1174 96.7888 64.3525C97.4907 64.7637 98.399 64.9719 99.4865 64.9719C100.395 64.9719 101.189 64.8192 101.849 64.5177C102.503 64.2184 103.006 63.7995 103.345 63.2729C103.683 62.7463 103.854 62.1439 103.854 61.4826C103.854 60.931 103.756 60.4596 103.562 60.0818C103.369 59.7048 103.095 59.3883 102.75 59.1421C102.398 58.8912 101.965 58.6746 101.462 58.4983C100.954 58.3204 100.377 58.1547 99.7464 58.0064C99.2407 57.8779 98.8716 57.7785 98.6478 57.7105C98.421 57.6416 98.194 57.545 97.9732 57.4232C97.7451 57.2974 97.5627 57.1439 97.4311 56.9673C97.2943 56.7838 97.2247 56.564 97.2247 56.3136C97.2247 55.9119 97.4223 55.5657 97.8127 55.2847C98.1912 55.0119 98.6922 54.8736 99.302 54.8736C99.939 54.8736 100.311 55.0105 100.739 55.2467C101.344 55.5926 101.811 56.1209 102.035 56.3746C102.085 56.4313 102.123 56.4743 102.148 56.4982C102.262 56.6089 102.437 56.6653 102.668 56.6653C102.925 56.6653 103.134 56.5695 103.306 56.373C103.482 56.1725 103.567 55.9546 103.567 55.7064C103.567 55.4355 103.517 55.031 103.084 54.6471C102.685 54.2929 101.858 53.932 101.216 53.7124C100.725 53.5444 100.133 53.4589 99.4559 53.4589C98.6075 53.4589 97.8604 53.5877 97.2355 53.8417C96.6172 54.0933 96.1391 54.4566 95.8146 54.9216C95.491 55.3852 95.3271 55.9241 95.3271 56.5226C95.3271 57.1514 95.4816 57.6827 95.7865 58.1025C96.0947 58.5267 96.5179 58.8662 97.0446 59.1127C97.5826 59.3639 98.2599 59.5868 99.0578 59.7748C99.6634 59.9144 100.155 60.0479 100.518 60.1723C100.893 60.3008 101.205 60.491 101.445 60.737C101.692 60.9924 101.818 61.3266 101.818 61.7305C101.818 62.2391 101.59 62.6683 101.14 63.0056C100.699 63.3359 100.123 63.5033 99.425 63.5033C98.9171 63.5033 98.4997 63.42 98.1832 63.2551C97.8698 63.0922 97.4863 62.882 97.3505 62.7813C97.19 62.6613 96.57 62.085 96.5634 62.0792C96.4164 61.9423 96.2403 61.876 96.026 61.876C95.7564 61.876 95.5418 61.9626 95.3691 62.1408C95.1958 62.3199 95.1117 62.5292 95.1117 62.7804C95.1117 63.0472 95.3476 63.2887 95.4612 63.3842C95.4731 63.3881 95.4841 63.3934 95.4938 63.3989L95.4949 63.3981C95.4971 63.3998 95.4998 63.4023 95.5034 63.4053C95.5062 63.4073 95.5089 63.4092 95.5114 63.4109C95.5167 63.4156 95.5238 63.4212 95.5307 63.4278ZM99.4865 65.1904C98.3601 65.1904 97.4154 64.9719 96.679 64.541C96.6674 64.5341 95.7807 63.9345 95.4438 63.6299C95.3542 63.6044 94.8945 63.2291 94.8945 62.7804C94.8945 62.4737 95.0021 62.2075 95.2137 61.9884C95.4262 61.7688 95.6993 61.6578 96.026 61.6578C96.2939 61.6578 96.5242 61.7455 96.7107 61.9187C96.8699 62.067 97.3528 62.5109 97.4794 62.6055C97.6052 62.6988 97.9909 62.9095 98.2831 63.0611C98.5684 63.2099 98.9524 63.2851 99.425 63.2851C100.075 63.2851 100.608 63.1324 101.01 62.8307C101.408 62.5323 101.601 62.1725 101.601 61.7305C101.601 61.3805 101.499 61.1056 101.29 60.8897C101.074 60.6684 100.791 60.4963 100.447 60.3791C100.092 60.2573 99.6079 60.1254 99.0087 59.9874C98.1956 59.7962 97.5042 59.5685 96.953 59.3106C96.3929 59.0488 95.9413 58.6854 95.6113 58.2313C95.2786 57.7732 95.11 57.1986 95.11 56.5226C95.11 55.8783 95.2871 55.2972 95.637 54.7962C95.986 54.2962 96.4964 53.907 97.1541 53.6394C97.8052 53.3748 98.5797 53.2407 99.4559 53.2407C100.156 53.2407 100.772 53.3298 101.286 53.5058C101.607 53.6158 102.695 54.0108 103.227 54.4833C103.727 54.9258 103.784 55.3933 103.784 55.7064C103.784 56.006 103.678 56.2789 103.469 56.5176C103.256 56.7602 102.987 56.8835 102.668 56.8835C102.379 56.8835 102.153 56.8066 101.997 56.6553C101.97 56.6295 101.928 56.5823 101.873 56.5198C101.656 56.2747 101.205 55.7647 100.633 55.4374C100.228 55.2137 99.8951 55.0918 99.302 55.0918C98.7386 55.0918 98.28 55.2165 97.9388 55.4624C97.6044 55.7034 97.4419 55.9818 97.4419 56.3136C97.4419 56.5184 97.4948 56.6894 97.6046 56.836C97.7178 56.9879 97.8767 57.1211 98.0775 57.2319C98.285 57.3463 98.498 57.437 98.7102 57.5014C98.9312 57.5686 99.297 57.6672 99.7977 57.7943C100.434 57.944 101.018 58.1116 101.533 58.2921C102.055 58.475 102.507 58.7013 102.876 58.9639C103.249 59.2309 103.545 59.5732 103.755 59.9819C103.965 60.3911 104.071 60.8958 104.071 61.4826C104.071 62.1864 103.888 62.8287 103.527 63.3915C103.166 63.9539 102.631 64.3994 101.939 64.7165C101.251 65.0307 100.426 65.1904 99.4865 65.1904Z" fill="#1D1D1B"/>
<mask id="mask1" mask-type="alpha" maskUnits="userSpaceOnUse" x="0" y="0" width="149" height="115">
<path fill-rule="evenodd" clip-rule="evenodd" d="M0 114.785H148.988V0.277832H0V114.785Z" fill="white"/>
</mask>
<g mask="url(#mask1)">
<path fill-rule="evenodd" clip-rule="evenodd" d="M110.34 61.2381H130.687V57.3228H110.34V61.2381Z" fill="#076AB2"/>
<path fill-rule="evenodd" clip-rule="evenodd" d="M110.34 65.1537H130.687V61.2383H110.34V65.1537Z" fill="#E10F17"/>
<path fill-rule="evenodd" clip-rule="evenodd" d="M110.885 53.7334C110.754 53.7334 110.647 53.8408 110.647 53.9727V64.6037C110.647 64.7358 110.754 64.8432 110.885 64.8432H130.295C130.426 64.8432 130.533 64.7358 130.533 64.6037V53.9727C130.533 53.8408 130.426 53.7334 130.295 53.7334H110.885ZM130.295 65.4648H110.885C110.413 65.4648 110.029 65.0784 110.029 64.6037V53.9727C110.029 53.498 110.413 53.1118 110.885 53.1118H130.295C130.767 53.1118 131.15 53.498 131.15 53.9727V64.6037C131.15 65.0784 130.767 65.4648 130.295 65.4648Z" fill="#1D1D1B"/>
<path fill-rule="evenodd" clip-rule="evenodd" d="M146.319 75.9999H143.56V64.7054C143.56 62.4335 141.723 60.5852 139.465 60.5852H133.732V57.8091H139.465C143.244 57.8091 146.319 60.9027 146.319 64.7054V75.9999Z" fill="#020303"/>
<path fill-rule="evenodd" clip-rule="evenodd" d="M139.466 60.5853H133.733C132.971 60.5853 132.354 59.9637 132.354 59.1972C132.354 58.4305 132.971 57.8092 133.733 57.8092H139.466C141.724 57.8092 143.561 55.9609 143.561 53.6889V41.284C143.561 40.5173 144.178 39.896 144.94 39.896C145.702 39.896 146.32 40.5173 146.32 41.284V53.6889C146.32 57.4916 143.245 60.5853 139.466 60.5853Z" fill="#020303"/>
<path fill-rule="evenodd" clip-rule="evenodd" d="M72.0532 111.898H60.8281V109.122H72.0532C74.3111 109.122 76.148 107.274 76.148 105.002V71.1948H78.907V105.002C78.907 108.805 75.8324 111.898 72.0532 111.898Z" fill="#020303"/>
<path fill-rule="evenodd" clip-rule="evenodd" d="M95.3306 111.898H83.0022C79.223 111.898 76.1484 108.804 76.1484 105.002V71.1947C76.1484 70.4279 76.7659 69.8066 77.5279 69.8066C78.2897 69.8066 78.9074 70.4279 78.9074 71.1947V105.002C78.9074 107.274 80.7443 109.122 83.0022 109.122H95.3306C96.0926 109.122 96.7101 109.744 96.7101 110.51C96.7101 111.277 96.0926 111.898 95.3306 111.898Z" fill="#020303"/>
<path fill-rule="evenodd" clip-rule="evenodd" d="M109.471 71.0123L109.391 70.7435L109.257 70.4881L109.084 70.2733L108.856 70.0851L108.616 69.9643L108.349 69.8702L108.068 69.8433H90.1049L89.8243 69.8702L89.557 69.9643L89.3167 70.0851L89.0899 70.2733L88.9161 70.4881L88.7826 70.7435L88.7025 71.0123L88.6758 71.2946V74.3047L88.7025 74.587L88.7826 74.856L88.9161 75.1114L89.0899 75.3263L89.3167 75.5009L89.557 75.6353L89.8243 75.7158L90.1049 75.7427H101.818L102.005 75.7696L102.178 75.8235L102.339 75.904L102.486 76.025L102.606 76.1594L102.7 76.3207L102.753 76.4953L102.78 76.6835L102.766 76.8584L102.726 77.0464L93.2167 103.319L93.15 103.588L93.1232 103.857L93.1635 104.139L93.2567 104.395L93.3903 104.636L93.5641 104.852L93.7776 105.026L94.0315 105.147L94.2853 105.228L94.5659 105.255H97.7445L98.0383 105.228L98.3186 105.134L98.5724 104.999L98.7995 104.798L98.973 104.569L99.0936 104.3L109.418 75.7966L109.484 75.5412L109.498 75.2991V71.2946L109.471 71.0123Z" fill="#ffffff"/>
<path fill-rule="evenodd" clip-rule="evenodd" d="M93.8381 104.927L94.0798 105.042L94.3187 105.117L94.5756 105.139L97.7431 105.138L98.0265 105.112L98.2809 105.023L98.5046 104.903L98.7217 104.71L98.8798 104.499L98.9863 104.253L109.307 75.7568L109.371 75.5116L109.381 75.2929L109.381 71.2948L109.355 71.0352L109.279 70.777L109.154 70.5427L108.992 70.347L108.782 70.1752L108.563 70.0686L108.323 69.9847L108.056 69.9592L90.1036 69.9598L89.8481 69.9847L89.594 70.0741L89.3672 70.1893L89.1623 70.3631L89.0044 70.5619L88.8836 70.7981L88.8121 71.046L88.7898 71.3059L88.7903 74.3049L88.8166 74.5764L88.8922 74.8226L89.0171 75.0569L89.1785 75.2529L89.3857 75.4084L89.6122 75.5336L89.8561 75.6046L90.1146 75.6268L101.817 75.6263L102.02 75.6546L102.212 75.7123L102.389 75.7998L102.558 75.935L102.691 76.0816L102.798 76.262L102.862 76.4613L102.893 76.6673L102.881 76.8672L102.838 77.071L93.3244 103.359L93.261 103.617L93.2386 103.854L93.2767 104.123L93.3641 104.354L93.4902 104.58L93.6524 104.778L93.8381 104.927ZM94.5646 105.371L94.2729 105.344L93.9954 105.258L93.7035 105.117L93.4897 104.942L93.2993 104.71L93.1542 104.451L93.0535 104.18L93.0052 103.859L93.0333 103.577L93.1031 103.291L102.616 77.0068L102.652 76.8342L102.663 76.6748L102.637 76.5121L102.588 76.355L102.505 76.2181L102.399 76.1032L102.264 75.9941L102.125 75.9278L101.97 75.8811L101.8 75.8584L90.1036 75.8595L89.812 75.832L89.5226 75.747L89.2591 75.6027L89.0182 75.4189L88.8248 75.1846L88.6789 74.9103L88.5903 74.6208L88.5591 74.316L88.5586 71.2948L88.5859 71.0016L88.6703 70.7101L88.8124 70.4339L88.9989 70.1999L89.242 69.9953L89.5041 69.8601L89.812 69.754L90.0926 69.7271L108.067 69.7266L108.386 69.7602L108.653 69.8543L108.907 69.9809L109.156 70.1835L109.346 70.415L109.492 70.6893L109.585 71.0013L109.612 71.2837L109.612 75.2993L109.599 75.548L109.528 75.8264L99.2007 104.34L99.0774 104.617L98.8903 104.868L98.6252 105.103L98.3714 105.237L98.0737 105.338L97.7536 105.371L94.5646 105.371Z" fill="#ffffff"/>
<path fill-rule="evenodd" clip-rule="evenodd" d="M135.309 71.0123L135.229 70.7435L135.095 70.4881L134.922 70.2733L134.694 70.0851L134.454 69.9643L134.187 69.8702L133.906 69.8433H115.943L115.662 69.8702L115.395 69.9643L115.155 70.0851L114.928 70.2733L114.754 70.4881L114.62 70.7435L114.54 71.0123L114.514 71.2946V74.3047L114.54 74.587L114.62 74.856L114.754 75.1114L114.928 75.3263L115.155 75.5009L115.395 75.6353L115.662 75.7158L115.943 75.7427H127.656L127.843 75.7696L128.016 75.8235L128.177 75.904L128.324 76.025L128.444 76.1594L128.537 76.3207L128.591 76.4953L128.617 76.6835L128.604 76.8584L128.564 77.0464L119.055 103.319L118.988 103.588L118.961 103.857L119.001 104.139L119.095 104.395L119.228 104.636L119.402 104.852L119.616 105.026L119.869 105.147L120.123 105.228L120.404 105.255H123.582L123.876 105.228L124.156 105.134L124.41 104.999L124.637 104.798L124.811 104.569L124.931 104.3L135.255 75.7966L135.322 75.5412L135.336 75.2991V71.2946L135.309 71.0123Z" fill="#ffffff"/>
<path fill-rule="evenodd" clip-rule="evenodd" d="M119.678 104.927L119.92 105.042L120.159 105.117L120.415 105.139L123.583 105.138L123.866 105.112L124.121 105.023L124.344 104.903L124.562 104.71L124.72 104.499L124.826 104.253L135.147 75.7568L135.211 75.5116L135.221 75.2932L135.22 71.2948L135.195 71.0349L135.118 70.777L134.993 70.5427L134.832 70.347L134.622 70.1752L134.403 70.0686L134.163 69.9847L133.896 69.9592L115.943 69.9598L115.688 69.9847L115.434 70.0741L115.207 70.1893L115.002 70.3634L114.845 70.5619L114.723 70.7981L114.652 71.046L114.63 71.3059L114.63 74.3049L114.656 74.5764L114.732 74.8226L114.857 75.0569L115.018 75.2529L115.226 75.4084L115.452 75.5336L115.696 75.6046L115.954 75.6268L127.657 75.6263L127.86 75.6546L128.051 75.7123L128.229 75.7998L128.398 75.935L128.531 76.0816L128.638 76.262L128.702 76.4613L128.733 76.6673L128.72 76.8672L128.678 77.071L119.164 103.359L119.101 103.617L119.078 103.854L119.117 104.123L119.204 104.354L119.33 104.58L119.492 104.778L119.678 104.927ZM120.404 105.371L120.113 105.344L119.835 105.258L119.543 105.117L119.33 104.942L119.139 104.71L118.994 104.451L118.893 104.18L118.845 103.859L118.873 103.577L118.943 103.291L128.456 77.0068L128.492 76.8342L128.502 76.6748L128.477 76.5121L128.427 76.355L128.345 76.2181L128.238 76.1032L128.104 75.9941L127.965 75.9278L127.809 75.8811L127.64 75.8584L115.943 75.8595L115.652 75.832L115.362 75.747L115.099 75.6027L114.858 75.4189L114.665 75.1846L114.519 74.9103L114.43 74.6208L114.399 74.316L114.398 71.2948L114.426 71.0016L114.51 70.7101L114.652 70.4339L114.838 70.1999L115.082 69.9953L115.344 69.8601L115.652 69.754L115.932 69.7271L133.907 69.7266L134.226 69.7602L134.493 69.8543L134.747 69.9809L134.996 70.1835L135.186 70.415L135.332 70.6893L135.425 71.0016L135.451 71.2839L135.452 75.2993L135.438 75.5477L135.368 75.8264L125.041 104.34L124.917 104.617L124.73 104.868L124.465 105.103L124.211 105.237L123.914 105.338L123.593 105.371L120.404 105.371Z" fill="#ffffff"/>
<path fill-rule="evenodd" clip-rule="evenodd" d="M29.6917 90.4248L29.6379 90.6147L29.5568 90.791L29.4357 90.9401L29.2872 91.0622L29.1121 91.1707L28.9369 91.2252L28.7346 91.2388H22.5344L22.3457 91.2252L22.157 91.1707L21.9818 91.0622L21.8337 90.9401L21.7258 90.791L21.6314 90.6147L21.5909 90.4248L21.5774 90.2216L21.6044 90.0314L24.7181 78.3814L24.7855 78.2051L24.8798 78.0424L25.0145 77.9066L25.1764 77.7848L25.3516 77.7168L25.5403 77.6762H25.729L25.9177 77.7168L26.0929 77.7848L26.2546 77.9066L26.3892 78.0424L26.4971 78.2051L26.5647 78.3814L29.6647 90.0314L29.6917 90.2216V90.4248ZM39.2346 103.16L30.5677 70.6372L30.4733 70.3796L30.3387 70.1489L30.1635 69.9454L29.9477 69.783L29.7052 69.6609L29.4492 69.5928L29.1796 69.5659H22.0897L21.8201 69.5928L21.5641 69.6609L21.3213 69.783L21.1191 69.9454L20.9307 70.1489L20.7957 70.3796L20.7014 70.6372L12.0479 103.16L11.9941 103.445L12.0077 103.743L12.075 104.028L12.2096 104.286L12.3851 104.516L12.6006 104.706L12.8566 104.855L13.1397 104.95L13.4362 104.977H16.523L16.7925 104.95L17.0485 104.869L17.2913 104.747L17.5068 104.584L17.682 104.38L17.8169 104.15L17.9113 103.906L19.5288 97.8569L19.5826 97.6945L19.677 97.5316L19.7984 97.3958L19.9465 97.2876L20.0947 97.2062L20.2702 97.1651L20.4454 97.1382H30.824L30.9992 97.1651L31.1744 97.2062L31.336 97.2876L31.471 97.3958L31.5921 97.5316L31.6864 97.6945L31.754 97.8569L33.3578 103.906L33.4522 104.15L33.5871 104.38L33.7623 104.584L33.978 104.747L34.2205 104.869L34.4766 104.95L34.7461 104.977H37.8463L38.1294 104.95L38.4125 104.855L38.6685 104.706L38.8843 104.516L39.0595 104.286L39.1941 104.028L39.2617 103.743L39.2749 103.445L39.2346 103.16Z" fill="#ffffff"/>
<path fill-rule="evenodd" clip-rule="evenodd" d="M60.0901 90.4248L60.0363 90.6147L59.9555 90.791L59.8341 90.9401L59.686 91.0622L59.5105 91.1707L59.3353 91.2252L59.1333 91.2388H52.9332L52.7444 91.2252L52.5555 91.1707L52.3803 91.0622L52.2321 90.9401L52.1242 90.791L52.0299 90.6147L51.9896 90.4248L51.9761 90.2216L52.0031 90.0314L55.1166 78.3814L55.1839 78.2051L55.2783 78.0424L55.4129 77.9066L55.5748 77.7848L55.75 77.7168L55.9388 77.6762H56.1275L56.3162 77.7168L56.4914 77.7848L56.653 77.9066L56.788 78.0424L56.8956 78.2051L56.9632 78.3814L60.0631 90.0314L60.0901 90.2216V90.4248ZM69.6331 103.16L60.9664 70.6372L60.872 70.3796L60.7371 70.1489L60.5619 69.9454L60.3462 69.783L60.1037 69.6609L59.8476 69.5928L59.5781 69.5659H52.4881L52.2186 69.5928L51.9626 69.6609L51.72 69.783L51.5178 69.9454L51.3291 70.1489L51.1942 70.3796L51.0998 70.6372L42.4464 103.16L42.3926 103.445L42.4061 103.743L42.4734 104.028L42.6083 104.286L42.7835 104.516L42.9993 104.706L43.2553 104.855L43.5384 104.95L43.835 104.977H46.9214L47.1909 104.95L47.4473 104.869L47.6898 104.747L47.9052 104.584L48.0807 104.38L48.2153 104.15L48.3097 103.906L49.9273 97.8569L49.9811 97.6945L50.0754 97.5316L50.1968 97.3958L50.345 97.2876L50.4934 97.2062L50.6686 97.1651L50.8438 97.1382H61.2224L61.3976 97.1651L61.5728 97.2062L61.7345 97.2876L61.8694 97.3958L61.9908 97.5316L62.0849 97.6945L62.1525 97.8569L63.7565 103.906L63.8509 104.15L63.9855 104.38L64.1607 104.584L64.3765 104.747L64.619 104.869L64.8753 104.95L65.1448 104.977H68.2448L68.5278 104.95L68.8109 104.855L69.0669 104.706L69.2827 104.516L69.4579 104.286L69.5925 104.028L69.6601 103.743L69.6736 103.445L69.6331 103.16Z" fill="#ffffff"/>
<path fill-rule="evenodd" clip-rule="evenodd" d="M74.2201 12.7497L74.1332 12.4785L73.988 12.2209L73.785 12.0038L73.5532 11.8275L73.2922 11.6918L73.002 11.6104L72.6977 11.5835H68.9571L68.6235 11.6104L68.319 11.7054L68.029 11.8683L67.7826 12.0851L67.5942 12.343L60.7216 24.2099L60.6201 24.359L60.4753 24.4948L60.3012 24.6033L60.1271 24.671L59.9243 24.6982H59.7212L59.5182 24.671L59.3444 24.6033L59.1703 24.4948L59.0252 24.359L58.9239 24.2099L52.0514 12.343L51.8629 12.0851L51.6163 11.8683L51.3266 11.7054L51.022 11.6104L50.6884 11.5835H46.9476L46.6433 11.6104L46.3533 11.6918L46.0923 11.8275L45.8603 12.0038L45.6575 12.2209L45.5124 12.4785L45.4255 12.7497L45.3965 13.0209V45.5435L45.4255 45.8284L45.5124 46.0996L45.6575 46.3439L45.8603 46.5743L46.0923 46.7509L46.3533 46.8863L46.6433 46.9677L46.9476 46.9949H50.1664L50.471 46.9677L50.761 46.8863L51.022 46.7509L51.254 46.5743L51.4568 46.3439L51.5873 46.0996L51.6745 45.8284L51.7034 45.5435V27.9532L51.7324 27.7633L51.7904 27.5734L51.8919 27.3971L52.0367 27.2481L52.1962 27.1395L52.3846 27.0446L52.5877 27.0038L52.8054 26.9902L53.0082 27.0174L53.1969 27.0851L53.3853 27.1937L53.5301 27.3294L53.6463 27.4921L58.4598 35.8195L58.6337 36.0499L58.8513 36.2398L59.0977 36.4025L59.3733 36.511L59.6776 36.5654H59.9676L60.2722 36.511L60.5475 36.4025L60.7942 36.2398L61.0116 36.0499L61.1857 35.8195L65.9992 27.4921L66.1154 27.3294L66.2748 27.1937L66.4487 27.0851L66.6371 27.0174L66.8402 26.9902L67.0576 27.0038L67.2606 27.0446L67.4491 27.1395L67.6085 27.2481L67.7536 27.3971L67.8552 27.5734L67.9131 27.7633L67.9421 27.9532V45.5435L67.9711 45.8284L68.0582 46.0996L68.1885 46.3439L68.3915 46.5743L68.6235 46.7509L68.8845 46.8863L69.1745 46.9677L69.4788 46.9949H72.6977L73.002 46.9677L73.2922 46.8863L73.5532 46.7509L73.785 46.5743L73.988 46.3439L74.1332 46.0996L74.2201 45.8284L74.249 45.5435V13.0209L74.2201 12.7497Z" fill="#ffffff"/>
<path fill-rule="evenodd" clip-rule="evenodd" d="M66.8262 26.8741L67.0662 26.8869L67.2847 26.9296C67.2946 26.9318 67.3046 26.9352 67.314 26.9399L67.5024 27.0348L67.6751 27.1509L67.8382 27.3152C67.8448 27.3222 67.8509 27.3302 67.8555 27.3385L67.9571 27.5148L68.0258 27.7289L68.0583 27.9354L68.0597 45.5435L68.0881 45.8164L68.1701 46.0635L68.2923 46.2883L68.4799 46.4968L68.6948 46.6573L68.939 46.7822L69.2069 46.8549L69.4902 46.8782L72.6989 46.8777L72.9933 46.851L73.262 46.7736L73.5009 46.6467L73.7161 46.4807L73.9018 46.2661L74.0345 46.0396L74.1106 45.7922L74.1344 45.5316L74.1338 13.0212L74.107 12.7744L74.0237 12.5146L73.8952 12.2914L73.7015 12.0843L73.4841 11.921L73.2399 11.7961L72.972 11.7234L72.6887 11.7001L68.9583 11.7006L68.6341 11.7273L68.3546 11.8175L68.087 11.9704L67.8605 12.1734L67.6892 12.4124L60.8235 24.269L60.7176 24.4253L60.5554 24.5808L60.3639 24.7029L60.1705 24.7804C60.1619 24.7837 60.1531 24.7862 60.1437 24.7873L59.9407 24.8145L59.7224 24.8154L59.5042 24.7873L59.3033 24.7126L59.1099 24.5944L58.9472 24.445L58.8288 24.2762L51.9518 12.4018L51.7703 12.1548L51.541 11.9566L51.2707 11.8078L50.9887 11.7225L50.6802 11.7003L46.949 11.7006L46.6549 11.7273L46.3857 11.8047L46.1473 11.9316L45.9321 12.0973L45.753 12.2905L45.6148 12.5362L45.5373 12.7858L45.5136 13.0337L45.5141 45.5435L45.5422 45.8164L45.6242 46.0635L45.7585 46.2836L45.9489 46.4965L46.1638 46.6573L46.408 46.7822L46.6759 46.8549L46.9592 46.8782L50.1676 46.8777L50.462 46.851L50.731 46.7736L50.9694 46.6467L51.1849 46.4807L51.3708 46.2661L51.4859 46.0443L51.565 45.7922L51.5888 45.5316L51.5882 27.9532L51.6186 27.7455L51.6804 27.5392L51.7924 27.3383C51.7971 27.3299 51.8031 27.3222 51.8098 27.3152L51.9549 27.1661L52.1323 27.0423L52.3342 26.9399C52.3433 26.9352 52.3533 26.9318 52.3632 26.9296L52.566 26.8888L52.7991 26.8733L53.0251 26.9013L53.2372 26.9749L53.4444 27.092L53.6111 27.2436L53.7418 27.4238L58.5617 35.7603L58.7276 35.9791L58.9287 36.1512L59.1629 36.3047L59.417 36.4019L59.6993 36.4499L59.9691 36.448L60.2533 36.3955L60.5068 36.2936L60.7314 36.1418L60.9364 35.9613L61.0942 35.7484L65.8997 27.4332L66.0219 27.2611C66.0275 27.2533 66.0341 27.2461 66.0413 27.24L66.2007 27.1042L66.3883 26.9857L66.5991 26.9071L66.8262 26.8741ZM69.48 47.112L69.1655 47.0845L68.8546 46.9993L68.5712 46.8549L68.3224 46.6678L68.1025 46.4216L67.9568 46.1551L67.8616 45.8644L67.8274 45.5554L67.8268 27.9532L67.7993 27.781L67.7449 27.6081L67.6621 27.4693L67.5267 27.3299L67.3851 27.2367L67.224 27.1567L67.0361 27.1187L66.8342 27.1073L66.6537 27.1337L66.489 27.1956L66.3376 27.2933L66.2029 27.4093L66.0951 27.5606L61.2876 35.8783L61.1055 36.1209L60.8715 36.3283L60.6127 36.5007L60.3156 36.6201L59.9892 36.6809L59.6791 36.6825L59.3544 36.6265L59.0567 36.5118L58.7885 36.3377L58.5587 36.1384L58.3683 35.8902L53.5465 27.5509L53.437 27.3977L53.307 27.2794L53.1401 27.187L52.9702 27.1278L52.7911 27.1065L52.5963 27.1209L52.4247 27.1564L52.2495 27.2441L52.1033 27.3452L51.9872 27.4679L51.8922 27.6322L51.8448 27.7977L51.8194 27.9712L51.8208 45.5435L51.7915 45.8403L51.6994 46.1356L51.5609 46.3991L51.3424 46.6523L51.0935 46.8444L50.816 46.9904L50.5034 47.0806L50.1778 47.1114L46.949 47.112L46.6342 47.0845L46.3233 46.9993L46.04 46.8549L45.7914 46.6678L45.5712 46.4216L45.4137 46.1598L45.3157 45.8644L45.2818 45.5554L45.2812 13.0212L45.3108 12.7375L45.4029 12.4424L45.5571 12.1631C45.5618 12.1551 45.5674 12.1473 45.5737 12.1403L45.7768 11.9235L46.0234 11.7339L46.3007 11.5879L46.6133 11.4977L46.9388 11.4669L50.6896 11.4663L51.0326 11.4938L51.362 11.5935L51.6746 11.7658L51.9408 11.9971L52.1463 12.2733L59.0258 24.151L59.1226 24.2929L59.2506 24.4089L59.4068 24.5036L59.5616 24.5619L59.7379 24.5822L59.9252 24.5811L60.099 24.5569L60.2604 24.4942L60.4149 24.3951L60.5424 24.2732L60.6265 24.1438L67.4947 12.2839L67.69 12.016L67.9535 11.78L68.2633 11.6032L68.5903 11.4985L68.9486 11.4666L72.6989 11.4663L73.0137 11.4938L73.3246 11.579L73.6077 11.7234L73.8565 11.9105L74.0742 12.1403C74.0806 12.1473 74.0858 12.1548 74.0905 12.1628L74.2356 12.4207L74.3322 12.7139C74.3349 12.7217 74.3366 12.7294 74.3374 12.7375L74.3661 13.0087L74.3667 45.5435L74.3374 45.8403L74.2453 46.1356L74.0891 46.4041L73.8736 46.652L73.6248 46.8444L73.3467 46.9904L73.0346 47.0806L72.7091 47.1114L69.48 47.112Z" fill="#ffffff"/>
<path fill-rule="evenodd" clip-rule="evenodd" d="M40.8177 12.7497L40.7308 12.4785L40.5857 12.2209L40.3826 12.0038L40.1509 11.8275L39.8899 11.6918L39.5997 11.6104L39.2953 11.5835H35.5548L35.2212 11.6104L34.9166 11.7054L34.6266 11.8683L34.3803 12.0851L34.1918 12.343L27.3193 24.2099L27.2178 24.359L27.0729 24.4948L26.8988 24.6033L26.7247 24.671L26.5219 24.6982H26.3189L26.1158 24.671L25.942 24.6033L25.7679 24.4948L25.6228 24.359L25.5216 24.2099L18.649 12.343L18.4606 12.0851L18.2139 11.8683L17.9242 11.7054L17.6196 11.6104L17.2861 11.5835H13.5455L13.2409 11.6104L12.9509 11.6918L12.6899 11.8275L12.4579 12.0038L12.2551 12.2209L12.11 12.4785L12.0231 12.7497L11.9941 13.0209V45.5435L12.0231 45.8284L12.11 46.0996L12.2551 46.3439L12.4579 46.5743L12.6899 46.7509L12.9509 46.8863L13.2409 46.9677L13.5455 46.9949H16.7641L17.0687 46.9677L17.3586 46.8863L17.6196 46.7509L17.8517 46.5743L18.0545 46.3439L18.185 46.0996L18.2721 45.8284L18.3011 45.5435V27.9532L18.3301 27.7633L18.388 27.5734L18.4895 27.3971L18.6347 27.2481L18.7939 27.1395L18.9823 27.0446L19.1853 27.0038L19.403 26.9902L19.6061 27.0174L19.7945 27.0851L19.983 27.1937L20.1278 27.3294L20.244 27.4921L25.0575 35.8195L25.2313 36.0499L25.449 36.2398L25.6954 36.4025L25.971 36.511L26.2753 36.5654H26.5653L26.8699 36.511L27.1452 36.4025L27.3918 36.2398L27.6093 36.0499L27.7833 35.8195L32.5969 27.4921L32.713 27.3294L32.8725 27.1937L33.0463 27.0851L33.2348 27.0174L33.4378 26.9902L33.6552 27.0038L33.8583 27.0446L34.0467 27.1395L34.2062 27.2481L34.3513 27.3971L34.4528 27.5734L34.5108 27.7633L34.5397 27.9532V45.5435L34.5687 45.8284L34.6559 46.0996L34.7861 46.3439L34.9892 46.5743L35.2212 46.7509L35.4822 46.8863L35.7722 46.9677L36.0765 46.9949H39.2953L39.5997 46.9677L39.8899 46.8863L40.1509 46.7509L40.3826 46.5743L40.5857 46.3439L40.7308 46.0996L40.8177 45.8284L40.8467 45.5435V13.0209L40.8177 12.7497Z" fill="#ffffff"/>
<path fill-rule="evenodd" clip-rule="evenodd" d="M33.4219 26.8741L33.6619 26.8869L33.8804 26.9296C33.8903 26.9318 33.9003 26.9352 33.9097 26.9399L34.0981 27.0348L34.2708 27.1509L34.4339 27.3152C34.4405 27.3222 34.4466 27.3302 34.4512 27.3385L34.5528 27.5148L34.6215 27.7289L34.654 27.9354L34.6554 45.5435L34.6838 45.8164L34.7658 46.0635L34.888 46.2883L35.0756 46.4968L35.2905 46.6573L35.5347 46.7822L35.8026 46.8549L36.0859 46.8782L39.2946 46.8777L39.589 46.851L39.8577 46.7736L40.0966 46.6467L40.3118 46.4807L40.4975 46.2661L40.6302 46.0396L40.7063 45.7922L40.7301 45.5316L40.7295 13.0212L40.7028 12.7744L40.6194 12.5146L40.4909 12.2914L40.2972 12.0843L40.0798 11.921L39.8356 11.7961L39.5677 11.7234L39.2844 11.7001L35.554 11.7006L35.2298 11.7273L34.9503 11.8175L34.6827 11.9704L34.4562 12.1734L34.2849 12.4124L27.4192 24.269L27.3133 24.4253L27.1511 24.5808L26.9596 24.7029L26.7662 24.7804L26.5366 24.8145L26.3181 24.8154L26.0999 24.7873L25.899 24.7126L25.7056 24.5944L25.5429 24.445L25.4245 24.2762L18.5475 12.4018L18.366 12.1548L18.1367 11.9566L17.8664 11.8078L17.5844 11.7225L17.2759 11.7003L13.5447 11.7006L13.2506 11.7273L12.9814 11.8047L12.743 11.9316L12.5278 12.0973L12.3487 12.2905L12.2105 12.5362L12.133 12.7858L12.1093 13.0337L12.1098 45.5435L12.1379 45.8164L12.2199 46.0635L12.3543 46.2836L12.5446 46.4965L12.7595 46.6573L13.0037 46.7822L13.2716 46.8549L13.5549 46.8782L16.7633 46.8777L17.0577 46.851L17.3267 46.7736L17.5651 46.6467L17.7806 46.4807L17.9665 46.2661L18.0816 46.0443L18.1607 45.7922L18.1845 45.5316L18.1839 27.9532L18.2143 27.7455L18.2761 27.5392L18.3881 27.3383C18.3928 27.3299 18.3988 27.3222 18.4055 27.3152L18.5506 27.1661L18.728 27.0423L18.9299 26.9399C18.939 26.9352 18.949 26.9318 18.9589 26.9296L19.1617 26.8888L19.3948 26.8733L19.6208 26.9013L19.8329 26.9749L20.0401 27.092L20.2068 27.2436L20.3376 27.4238L25.1574 35.7603L25.3233 35.9791L25.5244 36.1512L25.7586 36.3047L26.0127 36.4019L26.295 36.4499L26.5648 36.448L26.849 36.3955L27.1025 36.2936L27.3271 36.1418L27.5323 35.9613L27.6896 35.7484L32.4954 27.4332L32.6176 27.2611C32.6232 27.2533 32.6298 27.2461 32.637 27.24L32.7964 27.1042L32.984 26.9857L33.1948 26.9071L33.4219 26.8741ZM36.0757 47.112L35.7612 47.0845L35.4503 46.9993L35.1669 46.8549L34.9181 46.6678L34.6982 46.4216L34.5525 46.1551L34.4573 45.8644L34.4231 45.5554L34.4226 27.9532L34.395 27.781L34.3406 27.6081L34.2578 27.4693L34.1224 27.3299L33.9808 27.2367L33.8197 27.1567L33.6318 27.1187L33.4299 27.1073L33.2494 27.1337L33.0847 27.1956L32.9333 27.2933L32.7986 27.4093L32.6908 27.5606L27.8833 35.8783L27.7017 36.1209L27.4672 36.3283L27.2084 36.5007L26.9113 36.6201L26.5849 36.6809L26.2748 36.6825L25.9501 36.6265L25.6524 36.5118L25.3842 36.3377L25.1544 36.1384L24.964 35.8902L20.1422 27.5509L20.0327 27.3977L19.9027 27.2794L19.7358 27.187L19.5659 27.1278L19.3868 27.1065L19.192 27.1209L19.0204 27.1564L18.8452 27.2441L18.699 27.3452L18.5829 27.4679L18.488 27.6322L18.4405 27.7977L18.4151 27.9712L18.4165 45.5435L18.3873 45.8403L18.2951 46.1356L18.1566 46.3991L17.9381 46.6523L17.6892 46.8444L17.4117 46.9904L17.0991 47.0806L16.7735 47.1114L13.5447 47.112L13.2299 47.0845L12.919 46.9993L12.6357 46.8549L12.3871 46.6678L12.1669 46.4216L12.0094 46.1598L11.9114 45.8644L11.8775 45.5554L11.877 13.0212L11.9065 12.7375L11.9986 12.4424L12.1528 12.1631C12.1575 12.1551 12.1631 12.1473 12.1694 12.1403L12.3725 11.9235L12.6191 11.7339L12.8964 11.5879L13.209 11.4977L13.5345 11.4669L17.2853 11.4663L17.6283 11.4938L17.9577 11.5935L18.2703 11.7658L18.5365 11.9971L18.7421 12.2733L25.6215 24.151L25.7183 24.2929L25.8464 24.4089L26.0025 24.5036L26.1573 24.5619L26.3336 24.5822L26.5212 24.5811L26.7088 24.555L26.8561 24.4942L27.0106 24.3951L27.1381 24.2732L27.2222 24.1438L34.0904 12.2839L34.2857 12.016L34.5492 11.78L34.859 11.6032L35.186 11.4985L35.5443 11.4666L39.2946 11.4663L39.6094 11.4938L39.9203 11.579L40.2034 11.7234L40.4522 11.9105L40.6699 12.1403C40.6763 12.1473 40.6815 12.1548 40.6862 12.1628L40.8313 12.4207L40.9279 12.7139C40.9306 12.7217 40.9323 12.7294 40.9331 12.7375L40.9618 13.0087L40.9624 45.5435L40.9331 45.8403L40.841 46.1356L40.6848 46.4041L40.4693 46.652L40.2205 46.8444L39.9424 46.9904L39.6303 47.0806L39.3048 47.1114L36.0757 47.112Z" fill="#ffffff"/>
<path fill-rule="evenodd" clip-rule="evenodd" d="M98.4795 24.9931C104.518 24.9931 109.413 29.9184 109.413 35.9939C109.413 42.0696 104.518 46.9949 98.4795 46.9949C93.0328 46.9949 88.5164 42.9871 87.6837 37.7425L87.6809 37.7245C87.6741 37.6298 87.6688 37.5346 87.666 37.4388C87.6327 36.3942 88.017 35.9922 89.0494 35.9722C90.0084 35.9536 90.968 35.9561 91.927 35.9711C92.7304 35.9836 93.1577 36.3523 93.3531 37.1271C93.8627 39.1478 95.0736 40.5716 97.0909 41.0752C98.8677 41.5188 100.634 41.1799 101.998 39.9265C103.083 38.9285 103.675 37.5274 103.7 36.0161C103.711 35.3348 103.46 34.6297 103.233 33.9687C102.83 32.7944 101.881 32.1565 100.884 31.4872C99.9412 30.8542 98.9949 30.7546 97.9459 30.7649C95.4918 30.7884 93.0372 30.7771 90.5828 30.7735C90.3028 30.7729 90.004 30.7865 89.7471 30.6974C88.9305 30.4142 88.7718 30.1494 88.7716 29.2408C88.7713 26.6007 88.7716 23.9607 88.7716 21.3206H88.784C88.784 18.6525 88.782 15.9842 88.7851 13.3158C88.7865 12.1832 89.3722 11.5866 90.4951 11.5858C95.7707 11.5824 101.046 11.583 106.322 11.586C107.488 11.5866 108.198 12.2948 108.215 13.4718C108.226 14.2097 108.226 14.8421 108.226 15.6855C108.226 16.5291 107.543 17.3148 106.544 17.4311C106.182 17.4733 105.8 17.4705 105.433 17.4694C102.443 17.4608 99.4528 17.4502 96.4624 17.4486C96.0403 17.4483 95.6725 17.4264 95.1966 17.5235C94.7204 17.6204 94.4644 17.8458 94.4611 18.3827C94.45 20.1991 94.4445 22.0163 94.4633 23.8327C94.4718 24.6281 94.8755 24.9906 95.683 24.9987L98.4795 24.9931Z" fill="#ffffff"/>
<path fill-rule="evenodd" clip-rule="evenodd" d="M124.595 24.9931C130.633 24.9931 135.528 29.9184 135.528 35.9939C135.528 42.0696 130.633 46.9949 124.595 46.9949C119.148 46.9949 114.632 42.9871 113.799 37.7425L113.796 37.7245C113.789 37.6298 113.784 37.5346 113.781 37.4388C113.748 36.3942 114.132 35.9922 115.165 35.9722C116.124 35.9536 117.083 35.9561 118.042 35.9711C118.846 35.9836 119.273 36.3523 119.468 37.1271C119.978 39.1478 121.189 40.5716 123.206 41.0752C124.983 41.5188 126.749 41.1799 128.113 39.9265C129.199 38.9285 129.79 37.5274 129.815 36.0161C129.826 35.3348 129.575 34.6297 129.348 33.9687C128.945 32.7944 127.996 32.1565 126.999 31.4872C126.056 30.8542 125.11 30.7546 124.061 30.7649C121.607 30.7884 119.152 30.7771 116.698 30.7735C116.418 30.7729 116.119 30.7865 115.862 30.6974C115.046 30.4142 114.887 30.1494 114.887 29.2408C114.887 26.6007 114.887 23.9607 114.887 21.3206H114.899C114.899 18.6525 114.897 15.9842 114.9 13.3158C114.902 12.1832 115.487 11.5866 116.61 11.5858C121.886 11.5824 127.162 11.583 132.437 11.586C133.604 11.5866 134.313 12.2948 134.33 13.4718C134.341 14.2097 134.342 14.8421 134.342 15.6855C134.342 16.5291 133.658 17.3148 132.659 17.4311C132.298 17.4733 131.915 17.4705 131.549 17.4694C128.558 17.4608 125.568 17.4502 122.578 17.4486C122.156 17.4483 121.788 17.4264 121.312 17.5235C120.836 17.6204 120.579 17.8458 120.576 18.3827C120.565 20.1991 120.56 22.0163 120.579 23.8327C120.587 24.6281 120.991 24.9906 121.798 24.9987L124.595 24.9931Z" fill="#ffffff"/>
</g>
</svg>
