<svg width="149" height="115" viewBox="0 0 149 115" fill="none" xmlns="http://www.w3.org/2000/svg">
<path fill-rule="evenodd" clip-rule="evenodd" d="M136.812 113.465H11.8964C5.50194 113.465 0.148438 108.26 0.148438 101.717V11.8967C0.148438 5.50219 5.35323 0.148682 11.8964 0.148682H136.812C143.206 0.148682 148.56 5.35348 148.56 11.8967V101.865C148.56 108.26 143.355 113.465 136.812 113.465Z" fill="white"/>
<path fill-rule="evenodd" clip-rule="evenodd" d="M11.8967 113.613H136.812C143.355 113.613 148.708 108.26 148.708 101.865V11.8967C148.708 5.35351 143.355 0 136.812 0H11.8967C5.35351 0 0 5.35351 0 11.8967V101.717C0 108.26 5.35351 113.613 11.8967 113.613ZM0.297417 11.8967C0.297417 5.50221 5.50221 0.297417 11.8967 0.297417H136.812C143.206 0.297417 148.411 5.50221 148.411 11.8967V101.865C148.411 108.26 143.206 113.465 136.812 113.465H11.8967C5.50221 113.465 0.297417 108.26 0.297417 101.865V11.8967Z" fill="#020203"/>
<path fill-rule="evenodd" clip-rule="evenodd" d="M39.8546 37.7719L36.2856 36.1361C35.8395 35.9874 35.3934 36.1361 35.2446 36.4335C34.7985 37.0284 34.2037 38.0693 33.1627 38.8129C31.8243 39.8538 30.3373 40.2999 28.4041 40.2999C26.0247 40.2999 23.9428 39.5564 22.6044 38.0693C21.8609 37.3258 21.266 36.4335 20.8199 35.2439C20.3738 34.3516 20.2251 33.3106 19.9277 32.2697C19.6303 30.4852 19.6303 28.9981 19.6303 28.7007C19.6303 28.552 19.6303 27.0649 19.9277 25.1317C20.0764 24.0907 20.3738 23.0498 20.8199 22.1575C21.266 21.1165 21.8609 20.0756 22.6044 19.332C24.0915 17.845 26.0247 17.1014 28.4041 17.1014C30.3373 17.1014 31.8243 17.6962 33.1627 18.7372C34.3524 19.6295 34.9472 20.8191 35.2446 21.1165C35.3934 21.414 35.8395 21.5627 36.1369 21.414L39.8546 19.7782C40.152 19.6295 40.3007 19.1833 40.152 18.8859C39.7059 17.6962 38.6649 15.9117 37.0291 14.4247C35.9882 13.3837 34.7985 12.6402 33.4601 12.194C31.8243 11.5992 30.0398 11.1531 28.2553 11.1531C26.0247 11.1531 23.9428 11.5992 22.1583 12.4915C20.6712 13.235 19.3328 14.1272 18.1432 15.3169C17.1022 16.3579 16.3587 17.3988 15.9125 18.1424C15.4664 18.8859 15.3177 19.332 15.3177 19.4808C15.3177 19.6295 14.8716 20.5217 14.4255 22.0088C13.9793 23.4959 13.5332 25.8752 13.5332 28.7007C13.5332 31.5261 13.9793 33.9055 14.4255 35.3926C14.8716 37.0284 15.169 37.9206 15.3177 37.9206C15.3177 37.9206 15.4664 38.5154 15.9125 39.259C16.3587 40.0025 17.1022 41.0435 18.1432 42.0844C19.3328 43.2741 20.6712 44.1664 22.1583 44.9099C23.9428 45.8022 26.0247 46.2483 28.2553 46.2483C30.1886 46.2483 31.9731 45.9509 33.4601 45.356C34.7985 44.7612 35.9882 44.0177 37.0291 43.1254C38.3675 41.9357 39.4085 40.4486 40.152 38.6641C40.3007 38.3667 40.152 37.9206 39.8546 37.7719Z" fill="black"/>
<path fill-rule="evenodd" clip-rule="evenodd" d="M78.5177 59.9295C78.9639 60.3756 79.2613 60.8218 79.5587 61.2679C79.8561 61.714 80.0048 62.1601 80.0048 62.1601C80.0616 62.3305 80.1184 62.4792 80.1669 62.6063C80.2454 62.8118 80.3022 62.9605 80.3022 63.0524C80.3022 63.2011 80.3022 63.3498 80.1535 63.4985C80.0544 63.6968 79.9552 63.7629 79.8561 63.829C79.8065 63.862 79.757 63.8951 79.7074 63.9446C79.5587 64.0933 79.41 64.0933 79.1126 64.0933C78.8151 64.0933 78.5177 64.0933 78.369 63.9446L77.9229 63.4985C77.9229 63.3002 77.7907 63.102 77.6585 62.9037C77.5924 62.8045 77.5263 62.7054 77.4768 62.6063L76.5845 61.1192L76.5845 61.1192C76.2871 60.673 75.9897 60.2269 75.6923 59.9295C75.3948 59.6321 75.2461 59.4834 74.9487 59.3347C74.8 59.186 74.5026 59.186 74.0565 59.186H73.3129V62.755C73.3129 63.3498 73.3129 63.6472 73.0155 63.9446C72.8668 64.2421 72.4207 64.3908 72.1233 64.3908C71.8258 64.3908 71.3797 64.2421 71.231 63.9446C71.0823 63.7959 70.9336 63.3498 70.9336 62.9037V54.2786C70.9336 53.6838 70.9336 53.3863 71.231 53.0889C71.5284 52.9402 71.9746 52.7915 72.4207 52.7915H76.1384H77.4768C77.9229 52.7915 78.2203 52.9402 78.5177 53.0889C78.9639 53.2376 79.2613 53.3863 79.5587 53.6838C79.8561 53.9812 80.0048 54.2786 80.1535 54.7247C80.3022 55.0221 80.3022 55.4683 80.3022 55.9144C80.3022 56.8066 80.0048 57.5502 79.5587 57.9963C79.1126 58.4424 78.5177 58.8886 77.6255 59.0373L78.5177 59.9295ZM77.4768 56.9553C77.6255 56.6579 77.7742 56.3605 77.7742 56.0631C77.7742 55.8454 77.6945 55.7073 77.5934 55.5323C77.5565 55.4683 77.5166 55.3992 77.4768 55.3195C77.3281 55.1708 77.1794 55.0221 76.8819 54.8734C76.7332 54.7247 76.1384 54.7247 75.3948 54.7247H73.4616V57.5502H75.3948C75.841 57.5502 76.4358 57.5502 76.7332 57.4015L76.7332 57.4015C77.0306 57.2528 77.3281 57.104 77.4768 56.9553Z" fill="#020203"/>
<path fill-rule="evenodd" clip-rule="evenodd" d="M91.0093 52.4941C90.5632 52.4941 90.2658 52.6428 90.1171 52.9403C89.9684 53.2377 89.8196 53.5351 89.8196 53.9812V59.6321C89.8196 60.5244 89.6709 61.2679 89.2248 61.7141C88.9274 62.1602 88.3326 62.3089 87.4403 62.3089C86.8455 62.3089 86.3994 62.1602 85.9532 62.0115C85.6558 61.8628 85.3584 61.4166 85.2097 61.1192C85.061 60.6731 85.061 60.227 85.061 59.6321V54.1299C85.061 53.6838 84.9123 53.2377 84.7636 53.089C84.4661 52.7916 84.1687 52.6428 83.8713 52.6428C83.5739 52.6428 83.1278 52.7916 82.9791 53.089C82.6816 53.3864 82.6816 53.6838 82.6816 54.1299V59.4834C82.6816 60.3757 82.8303 61.1192 82.9791 61.7141C83.1278 62.3089 83.4252 62.9037 83.8713 63.2012C84.3174 63.6473 84.7636 63.9447 85.5071 64.0934C86.1019 64.2421 86.8455 64.3908 87.7377 64.3908C88.4813 64.3908 89.0761 64.2421 89.6709 64.0934C90.2658 63.9447 90.7119 63.6473 91.158 63.2012C91.6041 62.755 92.0503 62.1602 92.199 61.5654C92.3477 60.9705 92.4964 60.227 92.4964 59.3347V53.9812C92.4964 53.5351 92.3477 53.089 92.199 52.9403C91.7529 52.6428 91.4554 52.4941 91.0093 52.4941Z" fill="#020203"/>
<path fill-rule="evenodd" clip-rule="evenodd" d="M102.757 58.2937C102.459 57.9963 101.864 57.8476 101.418 57.6989C100.972 57.5502 100.377 57.4015 99.6337 57.2528C99.1875 57.1041 98.7414 56.9553 98.5927 56.9553C98.444 56.9553 98.1466 56.8066 97.9979 56.6579C97.8492 56.5092 97.7005 56.3605 97.5518 56.2118C97.403 56.0631 97.403 55.9144 97.403 55.7657C97.403 55.4683 97.5518 55.1708 97.8492 54.8734C98.1466 54.576 98.5927 54.576 99.1875 54.576C99.7824 54.576 100.08 54.7247 100.526 54.8734C101.121 55.1708 101.567 55.7657 101.716 55.9144L101.864 56.0631C102.013 56.2118 102.31 56.3605 102.608 56.3605C102.905 56.3605 103.203 56.2118 103.351 56.0631C103.5 55.7657 103.649 55.617 103.649 55.3195C103.649 55.0221 103.649 54.576 103.054 54.1299C102.459 53.6838 101.418 53.2376 101.121 53.0889C100.675 52.9402 99.9311 52.7915 99.3363 52.7915C98.444 52.7915 97.7005 52.9402 97.1056 53.2376C96.5108 53.535 95.916 53.8325 95.6185 54.4273C95.3211 54.8734 95.0237 55.4683 95.0237 56.2118C95.0237 56.9553 95.1724 57.4015 95.4698 57.8476C95.7673 58.2937 96.2134 58.5911 96.8082 58.8886C97.403 59.186 97.9979 59.3347 98.8901 59.6321C99.485 59.7808 99.9311 59.9295 100.377 60.0782C100.675 60.2269 100.972 60.3756 101.269 60.5243C101.418 60.6731 101.567 60.9705 101.567 61.4166C101.567 61.8627 101.418 62.1601 100.972 62.4576C100.526 62.755 100.08 62.9037 99.3363 62.9037C98.8901 62.9037 98.444 62.755 98.1466 62.755C97.8492 62.6063 97.403 62.4576 97.403 62.3088C97.2543 62.1601 96.8082 61.8627 96.6595 61.5653C96.3621 60.9705 96.0647 60.9705 95.916 60.9705C95.6185 60.9705 95.3211 61.1192 95.1724 61.2679C95.0237 61.4166 94.875 61.714 94.875 62.0114C94.875 62.4576 95.3211 62.755 95.4698 62.9037C95.7673 63.2011 96.6595 63.7959 96.6595 63.7959C97.403 64.2421 98.2953 64.3908 99.485 64.3908C100.377 64.3908 101.269 64.2421 101.864 63.9446C102.608 63.6472 103.054 63.2011 103.5 62.6063C103.798 62.0114 104.095 61.4166 104.095 60.6731C104.095 60.0782 103.946 59.6321 103.798 59.186C103.351 58.8886 103.054 58.4424 102.757 58.2937Z" fill="#020203"/>
<path fill-rule="evenodd" clip-rule="evenodd" d="M71.0825 21.1168L71.2312 21.2655L71.3799 21.4142L71.5286 21.5629V21.7116V22.009V44.9101V45.2075L71.6773 45.505L71.826 45.6537L71.9747 45.9511L72.2722 46.0998L72.4209 46.2485L72.7183 46.3972H73.0157H75.9899H76.2873L76.5847 46.2485L76.7334 46.0998L77.0308 45.9511L77.1795 45.6537L77.3283 45.505V45.2075L77.477 44.9101V12.6404L77.3283 12.343V12.0455L77.1795 11.8968L77.0308 11.5994L76.7334 11.4507L76.5847 11.302H76.2873H75.9899H72.2722H71.9747H71.826L71.5286 11.4507L71.2312 11.5994L59.4832 23.4961L59.3345 23.6448L59.1858 23.9422L59.0371 24.2396V24.5371V24.8345L59.1858 24.9832L59.3345 25.2806L59.4832 25.578L61.5652 27.6599L61.8626 27.8086L62.0113 27.9574H62.3087L62.6061 28.1061L62.9035 27.9574H63.0522L63.3497 27.8086L63.6471 27.6599L69.8928 21.2655L70.0415 21.1168H70.1902L70.4877 20.9681H70.6364H70.7851L70.9338 21.1168H71.0825Z" fill="#ffffff"/>
<path fill-rule="evenodd" clip-rule="evenodd" d="M107.814 34.7979L107.665 34.0544L107.516 33.3109L107.367 32.716L107.07 31.9725L106.624 31.3776L106.327 30.7828L105.88 30.0393L105.434 29.5931L104.988 28.9983L104.393 28.5522L103.798 27.9574L103.204 27.6599L102.46 27.2138L101.865 26.9164L101.717 26.7677L101.568 26.619L101.419 26.4703L101.27 26.3216V26.1729V26.0241V25.8754L101.419 25.578V25.4293L107.07 18.44L107.219 18.1426V17.8452L107.367 17.5478V12.6404V12.343L107.219 12.0455L107.07 11.8968L106.921 11.5994L106.624 11.4507L106.475 11.302H106.178H105.88H88.7789H88.4815H88.1841L88.0354 11.4507L87.738 11.5994L87.5892 11.8968L87.4405 12.0455L87.2918 12.343V12.6404V15.6145V15.912L87.4405 16.0607L87.5892 16.3581L87.738 16.5068L88.0354 16.8042L88.1841 16.9529H88.4815H88.7789H99.3372H99.6346L99.7833 17.1016H99.932L100.081 17.2503L100.229 17.399V17.5478L100.378 17.6965V17.9939V18.1426L100.229 18.2913L100.081 18.44L94.876 25.1319L94.7273 26.0241V30.3367V30.6341V30.9315L94.876 31.2289L95.0247 31.3776L95.3221 31.5264L95.6195 31.6751L95.7682 31.8238H96.0656H96.363L96.8092 31.6751H97.404H97.8501L98.2963 31.8238L98.7424 31.9725L99.1885 32.1212L99.6346 32.2699L100.081 32.5673L100.527 32.8647L100.824 33.1621L101.122 33.6083L101.419 33.9057L101.568 34.3518L101.717 34.7979L101.865 35.2441L102.014 35.6902V36.1363L101.865 36.5824V37.0286L101.717 37.6234L101.568 37.9208L101.27 38.3669L101.122 38.8131L100.676 39.1105L100.378 39.5566L100.081 39.7053L99.6346 40.0027L99.1885 40.3002L98.7424 40.4489H98.2963L97.8501 40.5976H97.2553H96.8092L96.363 40.4489H95.9169L95.4708 40.1514L95.0247 40.0027L94.5785 39.7053L94.1324 39.4079L93.835 39.1105L93.5376 38.6644L93.2402 38.3669L93.0915 37.9208L92.9428 37.4747L92.794 37.0286L92.6453 36.7312V36.5824L92.3479 36.285L92.1992 36.1363L91.9018 35.9876H91.6044L91.307 35.8389H88.3328L88.0354 35.9876H87.738L87.4405 36.1363L87.2918 36.285L87.1431 36.4337L86.9944 36.7312L86.8457 37.0286V37.1773V37.4747L86.9944 38.2182L87.1431 38.9618L87.2918 39.5566L87.5892 40.3002L88.0354 40.895L88.3328 41.6385L88.7789 42.2334L89.225 42.8282L89.8199 43.2743L90.266 43.8692L90.8608 44.3153L91.4557 44.7614L92.1992 45.0588L92.794 45.3562L93.5376 45.6537L94.2811 45.9511L95.0247 46.0998L95.7682 46.2485L96.5118 46.3972H97.2553H97.9988L98.7424 46.2485L99.4859 46.0998L100.229 45.9511L100.973 45.8024L101.717 45.505L102.311 45.2075L102.906 44.7614L103.65 44.3153L104.245 43.8692L104.691 43.423L105.286 42.9769L105.732 42.3821L106.178 41.7872L106.624 41.1924L106.921 40.4489L107.219 39.854L107.516 39.1105L107.665 38.3669L107.814 37.7721L107.962 37.0286V36.285V35.5415L107.814 34.7979Z" fill="#ffffff"/>
<path fill-rule="evenodd" clip-rule="evenodd" d="M135.622 35.5415V34.7979L135.474 34.0544L135.325 33.3109L135.028 32.716L134.73 31.9725L134.433 31.3776L134.135 30.7828L133.689 30.0393L133.243 29.5931L132.648 28.9983L132.053 28.5522L131.459 27.9574L130.864 27.6599L130.269 27.2138L129.525 26.9164L129.377 26.7677L129.228 26.619V26.4703L129.079 26.3216V26.1729V26.0241V25.8754V25.578L129.228 25.4293L134.73 18.44L134.879 18.1426L135.028 17.8452V17.5478V12.6404V12.343V12.0455L134.879 11.8968L134.582 11.5994L134.433 11.4507L134.135 11.302H133.838H133.541H116.588H116.29H115.993L115.696 11.4507L115.547 11.5994L115.398 11.8968L115.249 12.0455L115.101 12.343V12.6404V15.6145V15.912L115.249 16.0607L115.398 16.3581L115.547 16.5068L115.696 16.8042L115.993 16.9529H116.29H116.588H127.146H127.295L127.443 17.1016H127.741L127.89 17.2503V17.399L128.038 17.5478V17.6965V17.9939V18.1426V18.2913L127.89 18.44L122.685 25.1319L122.387 26.0241V30.3367V30.6341L122.536 30.9315L122.685 31.2289L122.834 31.3776L122.982 31.5264L123.28 31.6751L123.577 31.8238H123.874H124.172L124.618 31.6751H125.064H125.659L126.105 31.8238L126.551 31.9725L126.997 32.1212L127.443 32.2699L127.89 32.5673L128.187 32.8647L128.484 33.1621L128.782 33.6083L129.079 33.9057L129.377 34.3518L129.525 34.7979L129.674 35.2441V35.6902V36.1363V36.5824L129.525 37.0286V37.6234L129.228 37.9208L129.079 38.3669L128.782 38.8131L128.484 39.1105L128.187 39.5566L127.741 39.7053L127.295 40.0027L126.997 40.3002L126.551 40.4489H125.956L125.51 40.5976H125.064H124.618L124.023 40.4489H123.577L123.131 40.1514L122.685 40.0027L122.387 39.7053L121.941 39.4079L121.644 39.1105L121.346 38.6644L121.049 38.3669L120.9 37.9208L120.603 37.4747V37.0286L120.454 36.7312L120.305 36.5824L120.157 36.285L119.859 36.1363L119.711 35.9876H119.413L119.116 35.8389H115.993L115.696 35.9876H115.547L115.249 36.1363L114.952 36.285L114.803 36.4337L114.655 36.7312V37.0286L114.506 37.1773V37.4747L114.655 38.2182L114.952 38.9618L115.101 39.5566L115.398 40.3002L115.696 40.895L116.142 41.6385L116.588 42.2334L117.034 42.8282L117.48 43.2743L118.075 43.8692L118.67 44.3153L119.265 44.7614L119.859 45.0588L120.603 45.3562L121.346 45.6537L121.941 45.9511L122.685 46.0998L123.428 46.2485L124.172 46.3972H124.915H125.808L126.551 46.2485L127.295 46.0998L128.038 45.9511L128.633 45.8024L129.377 45.505L130.12 45.2075L130.715 44.7614L131.31 44.3153L131.905 43.8692L132.5 43.423L133.094 42.9769L133.541 42.3821L133.987 41.7872L134.284 41.1924L134.73 40.4489L135.028 39.854L135.176 39.1105L135.474 38.3669L135.622 37.7721V37.0286V36.285V35.5415Z" fill="#ffffff"/>
<path fill-rule="evenodd" clip-rule="evenodd" d="M133.243 70.4878V70.1904L133.095 69.893L132.946 69.5956L132.797 69.2982L132.5 69.1495L132.351 69.0008H132.054L131.756 68.8521H113.762L113.465 69.0008H113.168L112.87 69.1495L112.722 69.4469L112.573 69.5956L112.424 69.893L112.275 70.1904V70.4878V73.462V73.7594L112.424 74.0568L112.573 74.3543L112.722 74.503L113.019 74.8004L113.168 74.9491H113.465H113.762H125.51H125.659L125.808 75.0978H125.957L126.105 75.2465V75.3952L126.254 75.5439V75.6926L126.403 75.8413L126.254 75.9901V76.1388L116.737 102.163V102.46V102.758V103.055L116.885 103.352L117.034 103.65L117.183 103.799L117.331 103.947L117.629 104.096L117.926 104.245H118.224H121.495H121.793L122.09 104.096L122.239 103.947L122.536 103.799L122.685 103.501L122.834 103.204L133.243 74.9491V74.6517V74.503V70.4878Z" fill="#ffffff"/>
<path fill-rule="evenodd" clip-rule="evenodd" d="M30.0386 69.0008L30.1874 69.1495L30.3361 69.4469L30.4848 69.7443L39.4073 102.014V102.311V102.609V102.906L39.2586 103.204L39.1099 103.501L38.9612 103.65L38.6637 103.799L38.3663 103.947H38.0689H34.946H34.6486L34.3512 103.799L34.0538 103.65L33.9051 103.501L33.7564 103.352L33.6077 103.055L33.4589 102.758L31.8232 96.8093V96.6606L31.6744 96.5119L31.5257 96.3631L31.377 96.2144L31.2283 96.0657H31.0796H30.9309H20.5213H20.3726H20.2239L20.0752 96.2144L19.9265 96.3631L19.7778 96.5119L19.6291 96.6606V96.8093L17.9933 102.758L17.8446 103.055L17.6958 103.352L17.5471 103.501L17.3984 103.65L17.101 103.799L16.8036 103.947H16.5062H13.3833H13.0859L12.7885 103.799L12.491 103.65L12.3423 103.501L12.1936 103.204L12.0449 102.906V102.609V102.311V102.014L20.67 69.893L20.8187 69.5956V69.2982V69.0008L20.9674 68.8521L21.2648 68.7034H21.5623H21.8597H28.9977H29.2951H29.5925L29.8899 68.8521L30.0386 69.0008ZM29.5925 89.5226V89.3738H29.4438V89.2251V89.0764L26.3209 77.4772V77.3285L26.1722 77.1798L26.0235 77.031L25.8748 76.8823H25.7261H25.5774H25.4287H25.28H25.1313L24.9826 77.031L24.8339 77.1798L24.6851 77.3285V77.4772L21.5623 89.0764V89.2251V89.3738V89.5226L21.711 89.6713L21.8597 89.82L22.0084 89.9687L22.1571 90.1174H22.3058H22.4545H28.7003H28.849H28.9977L29.1464 89.9687L29.2951 89.82L29.4438 89.6713L29.5925 89.5226Z" fill="#ffffff"/>
<path fill-rule="evenodd" clip-rule="evenodd" d="M60.6725 69.4469L60.8213 69.7443L69.4463 102.014V102.311V102.609V102.906L69.2976 103.204L69.1489 103.501L69.0002 103.65L68.7028 103.799L68.4054 103.947H68.108H64.9851H64.6877L64.3903 103.799L64.0928 103.65L63.9441 103.501L63.7954 103.352L63.6467 103.055L63.498 102.758L61.8622 96.8093V96.6606L61.7135 96.5119L61.5648 96.3631L61.4161 96.2144L61.2674 96.0657H61.1187H60.97H50.5604H50.4117H50.263L50.1142 96.2144L49.9655 96.3631L49.8168 96.5119L49.6681 96.6606V96.8093L48.0323 102.758L47.8836 103.055L47.7349 103.352L47.5862 103.501L47.4375 103.65L47.1401 103.799L46.8427 103.947H46.5452H43.4224H43.1249L42.8275 103.799L42.5301 103.65L42.3814 103.501L42.2327 103.204L42.084 102.906V102.609V102.311V102.014L50.7091 69.7443L50.8578 69.4469L51.0065 69.1495L51.1552 69.0008L51.3039 68.8521L51.6013 68.7034H51.8987H52.1962H59.3342H59.6316H59.929L60.2264 68.8521L60.3751 69.0008L60.5238 69.1495L60.6725 69.4469ZM59.929 89.5226V89.3738H59.7803V89.2251L56.6574 77.6259V77.4772L56.5087 77.3285L56.36 77.1798L56.2113 77.031H56.0626H55.9139H55.7652H55.6165H55.4677L55.319 77.1798L55.1703 77.3285L55.0216 77.4772V77.6259L51.8987 89.2251V89.3738V89.5226V89.6713L52.0475 89.82H52.1962L52.3449 89.9687L52.4936 90.1174H52.6423H52.791H59.0368H59.1855H59.3342L59.4829 89.9687L59.6316 89.82L59.7803 89.6713L59.929 89.5226Z" fill="#ffffff"/>
<path fill-rule="evenodd" clip-rule="evenodd" d="M107.665 87.4407L107.516 87.1433L107.368 86.8459L107.219 86.6972L106.921 86.5485L106.773 86.2511H106.475H106.178H103.204H102.906H102.46L102.163 86.3998L101.865 86.5485L101.717 86.6972L101.568 86.9946L101.419 87.292V87.7382V87.8869V88.0356L101.27 88.1843L101.122 88.333H100.973H100.824H100.676H96.3631H96.2144H96.0657L95.917 88.1843L95.7683 88.0356L95.6196 87.8869L95.4709 87.7382V87.5895V87.4407V87.292V87.1433V86.9946L104.393 71.5289L104.542 71.2315V70.9341V70.6367V70.3393L104.393 70.0419L104.245 69.7444L104.393 69.8931L104.245 69.7444L103.947 69.5957L103.65 69.447H103.352H99.9321H99.6347L99.3373 69.5957L99.0399 69.7444L98.7424 69.8931L98.5937 70.1906L88.0354 88.4817L87.8867 88.7791V89.0765V89.374V93.2404V93.5378L88.0354 93.8352L88.1841 94.1326L88.3328 94.43L88.6303 94.5788L88.9277 94.7275L89.2251 94.8762H89.5225H100.824H100.973H101.122L101.27 95.0249L101.419 95.1736L101.568 95.3223L101.717 95.471V95.6197V95.7684V103.501V103.799L101.865 104.096L102.014 104.394L102.163 104.691L102.311 104.84L102.609 104.988L102.906 105.137H103.204H106.178H106.475L106.773 104.988L107.07 104.84L107.368 104.691L107.516 104.394L107.665 104.096L107.814 103.799V103.501V87.8869L107.665 87.4407Z" fill="#ffffff"/>
<path fill-rule="evenodd" clip-rule="evenodd" d="M135.771 2.08203H12.9383C6.84124 2.08203 1.78516 6.98941 1.78516 13.2352V100.378C1.78516 106.475 6.69254 111.531 12.9383 111.531H43.4235H135.623C141.72 111.531 146.776 106.624 146.776 100.378V13.2352C146.776 7.13812 141.869 2.08203 135.771 2.08203ZM12.9383 5.65103H43.4235C45.6542 5.65103 47.5874 7.43554 47.5874 9.66616V50.8584C47.5874 53.9813 45.0593 56.5093 41.9364 56.5093H9.518C7.28737 56.5093 5.50287 54.7248 5.50287 52.4942V13.2352C5.35416 9.07133 8.77446 5.65103 12.9383 5.65103ZM139.341 56.5093C141.422 56.5093 143.207 54.8735 143.356 52.6429H143.653V13.2352C143.653 9.07133 140.233 5.65103 136.069 5.65103H54.7254C52.4947 5.65103 50.7102 7.43554 50.7102 9.66616V50.8584C50.7102 55.6171 46.8438 59.3348 42.2339 59.3348H9.81541C7.58479 59.3348 5.80029 61.1193 5.80029 63.3499V100.378C5.80029 104.542 9.22058 107.962 13.3844 107.962H72.273C74.5036 107.962 76.2881 106.178 76.2881 103.947V70.3392C76.2881 69.5957 76.8829 69.0008 77.6265 69.0008C78.37 69.0008 78.9649 69.5957 78.9649 70.3392V103.799C78.9649 106.029 80.7494 107.814 82.98 107.814H135.772C139.935 107.814 143.356 104.393 143.356 100.23V63.0525C143.356 60.9706 141.571 59.1861 139.341 59.1861H133.69C132.946 59.1861 132.351 58.5913 132.351 57.8477C132.351 57.1042 132.946 56.5093 133.69 56.5093H139.341Z" fill="#020203"/>
<path fill-rule="evenodd" clip-rule="evenodd" d="M110.638 64.688H130.119C130.565 64.688 131.011 64.3906 131.011 63.9445V53.2375C131.011 52.7913 130.565 52.3452 130.119 52.3452H110.638C110.192 52.3452 109.746 52.7913 109.746 53.2375V63.7958C109.746 64.2419 110.192 64.688 110.638 64.688ZM110.341 53.3862C110.341 53.2375 110.49 53.0888 110.638 53.0888H130.119C130.268 53.0888 130.417 53.2375 130.417 53.3862V63.9445C130.417 64.0932 130.268 64.2419 130.119 64.2419H110.638C110.49 64.2419 110.341 64.0932 110.341 63.9445V53.3862Z" fill="black"/>
<path fill-rule="evenodd" clip-rule="evenodd" d="M110.639 64.0932H130.12C130.269 64.0932 130.417 63.9445 130.417 63.7958V60.3755H110.342V63.9445C110.342 63.9445 110.491 64.0932 110.639 64.0932Z" fill="#E20E17"/>
<rect x="110.342" y="56.6577" width="19.9269" height="3.86642" fill="#076AB3"/>
</svg>
