<svg width="59" height="40" viewBox="0 0 59 40" fill="none" xmlns="http://www.w3.org/2000/svg">
<mask id="mask0" mask-type="alpha" maskUnits="userSpaceOnUse" x="0" y="0" width="59" height="40">
<path fill-rule="evenodd" clip-rule="evenodd" d="M0 0H58.6387V39.9761H0V0Z" fill="white"/>
</mask>
<g mask="url(#mask0)">
<path fill-rule="evenodd" clip-rule="evenodd" d="M58.197 12.8478L49.6476 5.76716C49.4328 5.58806 49.17 5.49254 48.8836 5.49254H38.8298V1.19403C38.8298 0.537313 38.2925 0 37.6358 0H7.22388C6.56716 0 6.02985 0.537313 6.02985 1.19403V9.93433C6.02985 10.591 6.56716 11.1284 7.22388 11.1284C7.8806 11.1284 8.41791 10.591 8.41791 9.93433V2.38806H36.4536V30.6985H26.6626C26.0059 30.6985 25.4685 31.2358 25.4685 31.8925C25.4685 32.5493 26.0059 33.0866 26.6626 33.0866H41.2418C41.8985 33.0866 42.4358 32.5493 42.4358 31.8925C42.4358 31.2358 41.8985 30.6985 41.2418 30.6985H38.8417V7.8806H48.4657L56.2506 14.3284L56.1672 30.6746H54.9254C54.2687 30.6746 53.7313 31.2119 53.7313 31.8687C53.7313 32.5254 54.2687 33.0627 54.9254 33.0627H57.3491C58.0059 33.0627 58.5432 32.5372 58.5432 31.8805L58.6387 13.7791C58.6269 13.4209 58.4716 13.0746 58.197 12.8478ZM6.05373 14.4597H20.5373C21.194 14.4597 21.7313 13.9224 21.7313 13.2657C21.7313 12.609 21.194 12.0716 20.5373 12.0716H6.05373C5.39702 12.0716 4.8597 12.609 4.8597 13.2657C4.8597 13.9224 5.39702 14.4597 6.05373 14.4597ZM3.61779 19.8806L18.1015 19.9642C18.7582 19.9642 19.2955 19.4388 19.3075 18.7821C19.3193 18.1134 18.782 17.5761 18.1253 17.5761L3.64179 17.4925H3.62985C2.97313 17.4925 2.43582 18.0179 2.43582 18.6746C2.42376 19.3433 2.96107 19.8806 3.61779 19.8806ZM16.8715 24.191C16.8715 23.5343 16.3342 22.997 15.6775 22.997H1.19403C0.537313 22.997 0 23.5343 0 24.191C0 24.8478 0.537313 25.3851 1.19403 25.3851H15.6775C16.3342 25.3851 16.8715 24.8597 16.8715 24.191ZM10.8179 30.6985H8.41791V27.5223C8.41791 26.8656 7.8806 26.3282 7.22388 26.3282C6.56716 26.3282 6.02985 26.8656 6.02985 27.5223V31.8925C6.02985 32.5493 6.56716 33.0866 7.22388 33.0866H10.8179C11.4746 33.0866 12.0119 32.5493 12.0119 31.8925C12.0119 31.2358 11.4746 30.6985 10.8179 30.6985ZM18.782 37.5881C17.1343 37.5881 15.7493 36.2269 15.7493 34.603C15.7493 32.9791 17.1343 31.6179 18.782 31.6179C20.406 31.6179 21.7194 32.9551 21.7194 34.603C21.7194 36.2507 20.406 37.5881 18.782 37.5881ZM18.782 29.2299C17.3491 29.2299 15.9881 29.7909 14.9611 30.8059C13.9343 31.8328 13.3612 33.1702 13.3612 34.603C13.3612 36.0358 13.9224 37.373 14.9611 38.4C16 39.4149 17.3491 39.9761 18.782 39.9761C21.7194 39.9761 24.1075 37.5642 24.1075 34.603C24.1075 31.6417 21.7194 29.2299 18.782 29.2299ZM50.9254 20.8119H43.5939V13.397H48.0597L50.9254 15.9761V20.8119ZM49.3253 11.3313C49.1103 11.1284 48.8239 11.0209 48.5254 11.0209H42.3999C41.7432 11.0209 41.2059 11.5582 41.2059 12.2149V22.006C41.2059 22.6627 41.7432 23.2 42.3999 23.2H52.1194C52.7761 23.2 53.3134 22.6627 53.3134 22.006V15.4507C53.3134 15.1164 53.17 14.794 52.9194 14.5672L49.3253 11.3313ZM47.9403 37.5881C46.2925 37.5881 44.9073 36.2269 44.9073 34.603C44.9073 32.9791 46.2925 31.6179 47.9403 31.6179C49.5641 31.6179 50.8775 32.9551 50.8775 34.603C50.8775 36.2507 49.5641 37.5881 47.9403 37.5881ZM47.9403 29.2299C46.5075 29.2299 45.1461 29.7909 44.1194 30.8059C43.0925 31.8328 42.5193 33.1702 42.5193 34.603C42.5193 36.0358 43.0805 37.373 44.1194 38.4C45.1582 39.4149 46.5075 39.9761 47.9403 39.9761C50.8775 39.9761 53.2656 37.5642 53.2656 34.603C53.2656 31.6417 50.8775 29.2299 47.9403 29.2299Z" fill="black"/>
</g>
</svg>
