<svg width="45" height="55" viewBox="0 0 45 55" fill="none" xmlns="http://www.w3.org/2000/svg">
<path fill-rule="evenodd" clip-rule="evenodd" d="M13.75 15.4688C14.2242 15.4688 14.6094 15.0835 14.6094 14.6094C14.6094 14.1348 14.2242 13.75 13.75 13.75C13.2754 13.75 12.8906 14.1348 12.8906 14.6094C12.8906 15.0835 13.2754 15.4688 13.75 15.4688Z" fill="#1D1D1B"/>
<path fill-rule="evenodd" clip-rule="evenodd" d="M13.75 21.4844C14.2242 21.4844 14.6094 21.0992 14.6094 20.625C14.6094 20.1504 14.2242 19.7656 13.75 19.7656C13.2754 19.7656 12.8906 20.1504 12.8906 20.625C12.8906 21.0992 13.2754 21.4844 13.75 21.4844Z" fill="#1D1D1B"/>
<path fill-rule="evenodd" clip-rule="evenodd" d="M2.12798 8.59371V4.29685C2.12798 3.11253 3.08237 2.14843 4.25595 2.14843C5.41916 2.14843 6.38393 3.09575 6.38393 4.29685V8.59371H2.12798ZM38.3036 5.37107V46.4063H15.9598C15.3722 46.4063 14.8958 46.8867 14.8958 47.4805V49.6289C14.8958 51.406 13.464 52.8516 11.7039 52.8516C9.79614 52.8516 8.5119 51.1845 8.5119 49.3986V4.29685C8.5119 3.52208 8.30722 2.78624 7.94294 2.14843H35.1116C36.8717 2.14843 38.3036 3.59405 38.3036 5.37107ZM37.2396 52.8516H15.9572C16.6263 51.953 17.0238 50.8259 17.0238 49.6179V48.5437H42.4525C41.9584 50.9926 39.8086 52.8516 37.2396 52.8516ZM11.7039 55H37.2396C41.3464 55 44.6875 51.6263 44.6875 47.4805C44.6875 46.8867 44.2111 46.4063 43.6235 46.4063H40.4315V5.37107C40.4315 2.4096 38.0448 0 35.1116 0H4.25595C1.90919 0 0 1.92754 0 4.29685V9.66792C0 10.2612 0.476401 10.7421 1.06399 10.7421H6.38393V49.3986C6.38393 52.3181 8.58519 55 11.7039 55Z" fill="#1D1D1B"/>
<path fill-rule="evenodd" clip-rule="evenodd" d="M33.9453 30.3646C33.9453 32.7356 31.9705 34.566 29.6484 34.566C27.3253 34.566 25.3516 32.7366 25.3516 30.3646C25.3516 28.0479 27.2791 26.1632 29.6484 26.1632C32.0176 26.1632 33.9453 28.0479 33.9453 30.3646ZM30.2444 38.9439C29.8834 38.7085 29.4135 38.7085 29.0525 38.9439L27.5 39.9558V36.3083C28.1824 36.5441 28.9057 36.6667 29.6484 36.6667C30.3911 36.6667 31.1139 36.5441 31.7969 36.3083V39.9558L30.2444 38.9439ZM23.2031 30.3646C23.2031 32.1828 23.981 33.8644 25.3516 35.0584V41.9185C25.3516 42.3057 25.5698 42.6616 25.9185 42.8442C26.2679 43.0273 26.6922 43.0073 27.0216 42.7924L29.6484 41.0799L32.2752 42.7924C32.6051 43.0078 33.029 43.0267 33.3777 42.8442C33.7271 42.6616 33.9453 42.3057 33.9453 41.9185V35.0584C35.3159 33.8639 36.0938 32.1828 36.0938 30.3646C36.0938 26.8899 33.2026 24.0625 29.6484 24.0625C26.0943 24.0625 23.2031 26.8894 23.2031 30.3646Z" fill="#1D1D1B"/>
<path fill-rule="evenodd" clip-rule="evenodd" d="M13.9648 8.59375H33.3008C33.894 8.59375 34.375 8.20896 34.375 7.73438C34.375 7.25979 33.894 6.875 33.3008 6.875H13.9648C13.3716 6.875 12.8906 7.25979 12.8906 7.73438C12.8906 8.20896 13.3716 8.59375 13.9648 8.59375Z" fill="#1D1D1B"/>
<path fill-rule="evenodd" clip-rule="evenodd" d="M18.2617 15.4688H33.3008C33.894 15.4688 34.375 15.084 34.375 14.6094C34.375 14.1348 33.894 13.75 33.3008 13.75H18.2617C17.6685 13.75 17.1875 14.1348 17.1875 14.6094C17.1875 15.084 17.6685 15.4688 18.2617 15.4688Z" fill="#1D1D1B"/>
<path fill-rule="evenodd" clip-rule="evenodd" d="M18.2617 21.4844H33.3008C33.894 21.4844 34.375 21.0996 34.375 20.625C34.375 20.1504 33.894 19.7656 33.3008 19.7656H18.2617C17.6685 19.7656 17.1875 20.1504 17.1875 20.625C17.1875 21.0996 17.6685 21.4844 18.2617 21.4844Z" fill="#1D1D1B"/>
<path fill-rule="evenodd" clip-rule="evenodd" d="M13.9648 34.375H20.4102C21.0034 34.375 21.4844 33.9902 21.4844 33.5156C21.4844 33.041 21.0034 32.6562 20.4102 32.6562H13.9648C13.3716 32.6562 12.8906 33.041 12.8906 33.5156C12.8906 33.9902 13.3716 34.375 13.9648 34.375Z" fill="#1D1D1B"/>
<path fill-rule="evenodd" clip-rule="evenodd" d="M13.9648 28.3594H20.4102C21.0034 28.3594 21.4844 27.9746 21.4844 27.5C21.4844 27.0254 21.0034 26.6406 20.4102 26.6406H13.9648C13.3716 26.6406 12.8906 27.0254 12.8906 27.5C12.8906 27.9746 13.3716 28.3594 13.9648 28.3594Z" fill="#1D1D1B"/>
<path fill-rule="evenodd" clip-rule="evenodd" d="M13.9648 41.25H20.4102C21.0034 41.25 21.4844 40.8652 21.4844 40.3906C21.4844 39.916 21.0034 39.5312 20.4102 39.5312H13.9648C13.3716 39.5312 12.8906 39.916 12.8906 40.3906C12.8906 40.8652 13.3716 41.25 13.9648 41.25Z" fill="#1D1D1B"/>
</svg>
